digraph "src/static/hil/net/rime/queuebuf.h"
{
  edge [fontname="Helvetica",fontsize="10",labelfontname="Helvetica",labelfontsize="10"];
  node [fontname="Helvetica",fontsize="10",shape=record];
  Node2 [label="src/static/hil/net\l/rime/queuebuf.h",height=0.2,width=0.4,color="black", fillcolor="grey75", style="filled", fontcolor="black"];
  Node2 -> Node3 [dir="back",color="midnightblue",fontsize="10",style="solid",fontname="Helvetica"];
  Node3 [label="src/dynamic/hil/net\l/mac/contikimac.c",height=0.2,width=0.4,color="black", fillcolor="white", style="filled",URL="$d8/db4/dynamic_2hil_2net_2mac_2contikimac_8c.html"];
  Node2 -> Node4 [dir="back",color="midnightblue",fontsize="10",style="solid",fontname="Helvetica"];
  Node4 [label="src/dynamic/hil/net\l/mac/csma.c",height=0.2,width=0.4,color="black", fillcolor="white", style="filled",URL="$d6/dbe/dynamic_2hil_2net_2mac_2csma_8c.html"];
  Node2 -> Node5 [dir="back",color="midnightblue",fontsize="10",style="solid",fontname="Helvetica"];
  Node5 [label="src/dynamic/hil/net\l/mac/cxmac.c",height=0.2,width=0.4,color="black", fillcolor="white", style="filled",URL="$d5/d1b/dynamic_2hil_2net_2mac_2cxmac_8c.html"];
  Node2 -> Node6 [dir="back",color="midnightblue",fontsize="10",style="solid",fontname="Helvetica"];
  Node6 [label="src/dynamic/hil/net\l/mac/lpp.c",height=0.2,width=0.4,color="black", fillcolor="white", style="filled",URL="$da/d2a/dynamic_2hil_2net_2mac_2lpp_8c.html"];
  Node2 -> Node7 [dir="back",color="midnightblue",fontsize="10",style="solid",fontname="Helvetica"];
  Node7 [label="src/dynamic/hil/net\l/mac/nullrdc-noframer.c",height=0.2,width=0.4,color="black", fillcolor="white", style="filled",URL="$d6/d15/dynamic_2hil_2net_2mac_2nullrdc-noframer_8c.html"];
  Node2 -> Node8 [dir="back",color="midnightblue",fontsize="10",style="solid",fontname="Helvetica"];
  Node8 [label="src/dynamic/hil/net\l/mac/nullrdc.c",height=0.2,width=0.4,color="black", fillcolor="white", style="filled",URL="$d2/da9/dynamic_2hil_2net_2mac_2nullrdc_8c.html"];
  Node2 -> Node9 [dir="back",color="midnightblue",fontsize="10",style="solid",fontname="Helvetica"];
  Node9 [label="src/dynamic/hil/net\l/mac/phase.c",height=0.2,width=0.4,color="black", fillcolor="white", style="filled",URL="$df/d73/dynamic_2hil_2net_2mac_2phase_8c.html"];
  Node2 -> Node10 [dir="back",color="midnightblue",fontsize="10",style="solid",fontname="Helvetica"];
  Node10 [label="src/dynamic/hil/net\l/mac/xmac.c",height=0.2,width=0.4,color="black", fillcolor="white", style="filled",URL="$de/d67/dynamic_2hil_2net_2mac_2xmac_8c.html"];
  Node2 -> Node11 [dir="back",color="midnightblue",fontsize="10",style="solid",fontname="Helvetica"];
  Node11 [label="src/dynamic/hil/net\l/rime/packetqueue.h",height=0.2,width=0.4,color="black", fillcolor="white", style="filled",URL="$de/d53/dynamic_2hil_2net_2rime_2packetqueue_8h.html"];
  Node2 -> Node12 [dir="back",color="midnightblue",fontsize="10",style="solid",fontname="Helvetica"];
  Node12 [label="src/dynamic/hil/net\l/rime/queuebuf.c",height=0.2,width=0.4,color="black", fillcolor="white", style="filled",URL="$dd/da8/dynamic_2hil_2net_2rime_2queuebuf_8c.html"];
  Node2 -> Node13 [dir="back",color="midnightblue",fontsize="10",style="solid",fontname="Helvetica"];
  Node13 [label="src/dynamic/hil/net\l/rime.c",height=0.2,width=0.4,color="black", fillcolor="white", style="filled",URL="$dd/d1a/dynamic_2hil_2net_2rime_8c.html"];
  Node2 -> Node14 [dir="back",color="midnightblue",fontsize="10",style="solid",fontname="Helvetica"];
  Node14 [label="src/dynamic/include\l/hil/net/rime/queuebuf\l-object.h",height=0.2,width=0.4,color="black", fillcolor="white", style="filled",URL="$d2/d2c/queuebuf-object_8h_source.html"];
  Node14 -> Node15 [dir="back",color="midnightblue",fontsize="10",style="solid",fontname="Helvetica"];
  Node15 [label="src/dynamic/include\l/hil-components.h",height=0.2,width=0.4,color="black", fillcolor="white", style="filled",URL="$dc/dc7/dynamic_2include_2hil-components_8h_source.html"];
  Node14 -> Node16 [dir="back",color="midnightblue",fontsize="10",style="solid",fontname="Helvetica"];
  Node16 [label="src/dynamic/kernel\l/system-facade/hil-components.h",height=0.2,width=0.4,color="black", fillcolor="white", style="filled",URL="$da/d34/dynamic_2kernel_2system-facade_2hil-components_8h_source.html"];
  Node14 -> Node17 [dir="back",color="midnightblue",fontsize="10",style="solid",fontname="Helvetica"];
  Node17 [label="src/static/kernel/system\l-facade/hil-components.h",height=0.2,width=0.4,color="black", fillcolor="white", style="filled",URL="$d2/d64/static_2kernel_2system-facade_2hil-components_8h_source.html"];
  Node2 -> Node18 [dir="back",color="midnightblue",fontsize="10",style="solid",fontname="Helvetica"];
  Node18 [label="src/static/hil/net\l/mac/contikimac.c",height=0.2,width=0.4,color="black", fillcolor="white", style="filled",URL="$da/dde/static_2hil_2net_2mac_2contikimac_8c.html"];
  Node2 -> Node19 [dir="back",color="midnightblue",fontsize="10",style="solid",fontname="Helvetica"];
  Node19 [label="src/static/hil/net\l/mac/csma.c",height=0.2,width=0.4,color="black", fillcolor="white", style="filled",URL="$d1/d0e/static_2hil_2net_2mac_2csma_8c.html"];
  Node2 -> Node20 [dir="back",color="midnightblue",fontsize="10",style="solid",fontname="Helvetica"];
  Node20 [label="src/static/hil/net\l/mac/cxmac.c",height=0.2,width=0.4,color="black", fillcolor="white", style="filled",URL="$dc/d15/static_2hil_2net_2mac_2cxmac_8c.html"];
  Node2 -> Node21 [dir="back",color="midnightblue",fontsize="10",style="solid",fontname="Helvetica"];
  Node21 [label="src/static/hil/net\l/mac/lpp.c",height=0.2,width=0.4,color="black", fillcolor="white", style="filled",URL="$d8/d6c/static_2hil_2net_2mac_2lpp_8c.html"];
  Node2 -> Node22 [dir="back",color="midnightblue",fontsize="10",style="solid",fontname="Helvetica"];
  Node22 [label="src/static/hil/net\l/mac/nullrdc-noframer.c",height=0.2,width=0.4,color="black", fillcolor="white", style="filled",URL="$de/df8/static_2hil_2net_2mac_2nullrdc-noframer_8c.html"];
  Node2 -> Node23 [dir="back",color="midnightblue",fontsize="10",style="solid",fontname="Helvetica"];
  Node23 [label="src/static/hil/net\l/mac/nullrdc.c",height=0.2,width=0.4,color="black", fillcolor="white", style="filled",URL="$dd/d20/static_2hil_2net_2mac_2nullrdc_8c.html"];
  Node2 -> Node24 [dir="back",color="midnightblue",fontsize="10",style="solid",fontname="Helvetica"];
  Node24 [label="src/static/hil/net\l/mac/phase.c",height=0.2,width=0.4,color="black", fillcolor="white", style="filled",URL="$d7/dd2/static_2hil_2net_2mac_2phase_8c.html"];
  Node2 -> Node25 [dir="back",color="midnightblue",fontsize="10",style="solid",fontname="Helvetica"];
  Node25 [label="src/static/hil/net\l/mac/xmac.c",height=0.2,width=0.4,color="black", fillcolor="white", style="filled",URL="$dd/d35/static_2hil_2net_2mac_2xmac_8c.html"];
  Node2 -> Node26 [dir="back",color="midnightblue",fontsize="10",style="solid",fontname="Helvetica"];
  Node26 [label="src/static/hil/net\l/rime/packetqueue.h",height=0.2,width=0.4,color="black", fillcolor="white", style="filled",URL="$d3/dd3/static_2hil_2net_2rime_2packetqueue_8h.html"];
  Node26 -> Node27 [dir="back",color="midnightblue",fontsize="10",style="solid",fontname="Helvetica"];
  Node27 [label="src/dynamic/hil/net\l/rime/packetqueue.c",height=0.2,width=0.4,color="black", fillcolor="white", style="filled",URL="$d8/da4/dynamic_2hil_2net_2rime_2packetqueue_8c.html"];
  Node26 -> Node28 [dir="back",color="midnightblue",fontsize="10",style="solid",fontname="Helvetica"];
  Node28 [label="src/dynamic/include\l/hil/net/rime/packetqueue\l-object.h",height=0.2,width=0.4,color="black", fillcolor="white", style="filled",URL="$d9/d3d/packetqueue-object_8h_source.html"];
  Node28 -> Node15 [dir="back",color="midnightblue",fontsize="10",style="solid",fontname="Helvetica"];
  Node28 -> Node16 [dir="back",color="midnightblue",fontsize="10",style="solid",fontname="Helvetica"];
  Node28 -> Node17 [dir="back",color="midnightblue",fontsize="10",style="solid",fontname="Helvetica"];
  Node26 -> Node29 [dir="back",color="midnightblue",fontsize="10",style="solid",fontname="Helvetica"];
  Node29 [label="src/static/hil/net\l/rime/packetqueue.c",height=0.2,width=0.4,color="black", fillcolor="white", style="filled",URL="$d3/d63/static_2hil_2net_2rime_2packetqueue_8c.html"];
  Node26 -> Node30 [dir="back",color="midnightblue",fontsize="10",style="solid",fontname="Helvetica"];
  Node30 [label="src/static/net/rime\l/collect.c",height=0.2,width=0.4,color="black", fillcolor="white", style="filled",URL="$da/d7b/static_2net_2rime_2collect_8c.html"];
  Node26 -> Node31 [dir="back",color="midnightblue",fontsize="10",style="solid",fontname="Helvetica"];
  Node31 [label="src/static/net/rime\l/collect.h",height=0.2,width=0.4,color="red", fillcolor="white", style="filled",URL="$d2/dfa/static_2net_2rime_2collect_8h.html"];
  Node31 -> Node30 [dir="back",color="midnightblue",fontsize="10",style="solid",fontname="Helvetica"];
  Node2 -> Node37 [dir="back",color="midnightblue",fontsize="10",style="solid",fontname="Helvetica"];
  Node37 [label="src/static/hil/net\l/rime/queuebuf.c",height=0.2,width=0.4,color="black", fillcolor="white", style="filled",URL="$d4/db6/static_2hil_2net_2rime_2queuebuf_8c.html"];
  Node2 -> Node38 [dir="back",color="midnightblue",fontsize="10",style="solid",fontname="Helvetica"];
  Node38 [label="src/static/hil/net\l/rime.c",height=0.2,width=0.4,color="black", fillcolor="white", style="filled",URL="$d8/d1b/static_2hil_2net_2rime_8c.html"];
  Node2 -> Node39 [dir="back",color="midnightblue",fontsize="10",style="solid",fontname="Helvetica"];
  Node39 [label="src/static/net/rime\l/ipolite.h",height=0.2,width=0.4,color="black", fillcolor="white", style="filled",URL="$da/df5/static_2net_2rime_2ipolite_8h.html"];
  Node39 -> Node40 [dir="back",color="midnightblue",fontsize="10",style="solid",fontname="Helvetica"];
  Node40 [label="src/dynamic/include\l/net/rime/ipolite-object.h",height=0.2,width=0.4,color="black", fillcolor="white", style="filled",URL="$de/d41/ipolite-object_8h_source.html"];
  Node40 -> Node41 [dir="back",color="midnightblue",fontsize="10",style="solid",fontname="Helvetica"];
  Node41 [label="src/dynamic/net/rime\l/ipolite.c",height=0.2,width=0.4,color="black", fillcolor="white", style="filled",URL="$d3/d41/dynamic_2net_2rime_2ipolite_8c.html"];
  Node39 -> Node41 [dir="back",color="midnightblue",fontsize="10",style="solid",fontname="Helvetica"];
  Node39 -> Node42 [dir="back",color="midnightblue",fontsize="10",style="solid",fontname="Helvetica"];
  Node42 [label="src/static/net/rime\l/ipolite.c",height=0.2,width=0.4,color="black", fillcolor="white", style="filled",URL="$d6/d8d/static_2net_2rime_2ipolite_8c.html"];
  Node39 -> Node43 [dir="back",color="midnightblue",fontsize="10",style="solid",fontname="Helvetica"];
  Node43 [label="src/static/net/rime\l/netflood.h",height=0.2,width=0.4,color="red", fillcolor="white", style="filled",URL="$d5/da3/static_2net_2rime_2netflood_8h.html"];
  Node43 -> Node44 [dir="back",color="midnightblue",fontsize="10",style="solid",fontname="Helvetica"];
  Node44 [label="src/dynamic/include\l/net/rime/netflood-object.h",height=0.2,width=0.4,color="black", fillcolor="white", style="filled",URL="$d5/dcc/netflood-object_8h_source.html"];
  Node44 -> Node45 [dir="back",color="midnightblue",fontsize="10",style="solid",fontname="Helvetica"];
  Node45 [label="src/dynamic/net/rime\l/netflood.c",height=0.2,width=0.4,color="black", fillcolor="white", style="filled",URL="$df/d18/dynamic_2net_2rime_2netflood_8c.html"];
  Node43 -> Node45 [dir="back",color="midnightblue",fontsize="10",style="solid",fontname="Helvetica"];
  Node39 -> Node56 [dir="back",color="midnightblue",fontsize="10",style="solid",fontname="Helvetica"];
  Node56 [label="src/static/net/rime\l/polite-announcement.c",height=0.2,width=0.4,color="black", fillcolor="white", style="filled",URL="$dc/de6/static_2net_2rime_2polite-announcement_8c.html"];
  Node39 -> Node57 [dir="back",color="midnightblue",fontsize="10",style="solid",fontname="Helvetica"];
  Node57 [label="src/static/net/rime\l/rudolph1.h",height=0.2,width=0.4,color="red", fillcolor="white", style="filled",URL="$d3/dab/static_2net_2rime_2rudolph1_8h.html"];
  Node2 -> Node50 [dir="back",color="midnightblue",fontsize="10",style="solid",fontname="Helvetica"];
  Node50 [label="src/static/net/rime\l/mesh.h",height=0.2,width=0.4,color="black", fillcolor="white", style="filled",URL="$df/df7/static_2net_2rime_2mesh_8h.html"];
  Node50 -> Node51 [dir="back",color="midnightblue",fontsize="10",style="solid",fontname="Helvetica"];
  Node51 [label="src/dynamic/include\l/net/rime/mesh-object.h",height=0.2,width=0.4,color="black", fillcolor="white", style="filled",URL="$d6/d06/mesh-object_8h_source.html"];
  Node51 -> Node52 [dir="back",color="midnightblue",fontsize="10",style="solid",fontname="Helvetica"];
  Node52 [label="src/dynamic/net/rime\l/mesh.c",height=0.2,width=0.4,color="black", fillcolor="white", style="filled",URL="$d2/d36/dynamic_2net_2rime_2mesh_8c.html"];
  Node50 -> Node52 [dir="back",color="midnightblue",fontsize="10",style="solid",fontname="Helvetica"];
  Node50 -> Node53 [dir="back",color="midnightblue",fontsize="10",style="solid",fontname="Helvetica"];
  Node53 [label="src/static/examples\l/rime/example-mesh.c",height=0.2,width=0.4,color="black", fillcolor="white", style="filled",URL="$d8/d68/static_2examples_2rime_2example-mesh_8c.html"];
  Node50 -> Node54 [dir="back",color="midnightblue",fontsize="10",style="solid",fontname="Helvetica"];
  Node54 [label="src/static/net/rime\l/mesh.c",height=0.2,width=0.4,color="black", fillcolor="white", style="filled",URL="$d5/dcd/static_2net_2rime_2mesh_8c.html"];
  Node2 -> Node43 [dir="back",color="midnightblue",fontsize="10",style="solid",fontname="Helvetica"];
  Node2 -> Node62 [dir="back",color="midnightblue",fontsize="10",style="solid",fontname="Helvetica"];
  Node62 [label="src/static/net/rime\l/polite.h",height=0.2,width=0.4,color="red", fillcolor="white", style="filled",URL="$dd/dc1/static_2net_2rime_2polite_8h.html"];
  Node2 -> Node76 [dir="back",color="midnightblue",fontsize="10",style="solid",fontname="Helvetica"];
  Node76 [label="src/static/net/rime\l/stbroadcast.h",height=0.2,width=0.4,color="red", fillcolor="white", style="filled",URL="$db/df9/static_2net_2rime_2stbroadcast_8h.html"];
  Node2 -> Node80 [dir="back",color="midnightblue",fontsize="10",style="solid",fontname="Helvetica"];
  Node80 [label="src/static/net/rime\l/stunicast.h",height=0.2,width=0.4,color="red", fillcolor="white", style="filled",URL="$dd/daa/static_2net_2rime_2stunicast_8h.html"];
  Node2 -> Node98 [dir="back",color="midnightblue",fontsize="10",style="solid",fontname="Helvetica"];
  Node98 [label="src/static/net/rime\l/trickle.h",height=0.2,width=0.4,color="red", fillcolor="white", style="filled",URL="$d2/d1d/static_2net_2rime_2trickle_8h.html"];
  Node98 -> Node57 [dir="back",color="midnightblue",fontsize="10",style="solid",fontname="Helvetica"];
}
