digraph "src/static/hil/net/rime/rimeaddr.h"
{
  edge [fontname="Helvetica",fontsize="10",labelfontname="Helvetica",labelfontsize="10"];
  node [fontname="Helvetica",fontsize="10",shape=record];
  Node2 [label="src/static/hil/net\l/rime/rimeaddr.h",height=0.2,width=0.4,color="black", fillcolor="grey75", style="filled", fontcolor="black"];
  Node2 -> Node3 [dir="back",color="midnightblue",fontsize="10",style="solid",fontname="Helvetica"];
  Node3 [label="src/dynamic/hil/net\l/mac/cxmac.c",height=0.2,width=0.4,color="black", fillcolor="white", style="filled",URL="$d5/d1b/dynamic_2hil_2net_2mac_2cxmac_8c.html"];
  Node2 -> Node4 [dir="back",color="midnightblue",fontsize="10",style="solid",fontname="Helvetica"];
  Node4 [label="src/dynamic/hil/net\l/mac/frame802154.h",height=0.2,width=0.4,color="black", fillcolor="white", style="filled",URL="$d7/db6/dynamic_2hil_2net_2mac_2frame802154_8h.html",tooltip="802.15.4 frame creation and parsing functions "];
  Node2 -> Node5 [dir="back",color="midnightblue",fontsize="10",style="solid",fontname="Helvetica"];
  Node5 [label="src/dynamic/hil/net\l/mac/phase.h",height=0.2,width=0.4,color="black", fillcolor="white", style="filled",URL="$d8/dea/dynamic_2hil_2net_2mac_2phase_8h.html"];
  Node2 -> Node6 [dir="back",color="midnightblue",fontsize="10",style="solid",fontname="Helvetica"];
  Node6 [label="src/dynamic/hil/net\l/rime/announcement.h",height=0.2,width=0.4,color="black", fillcolor="white", style="filled",URL="$d7/d88/dynamic_2hil_2net_2rime_2announcement_8h.html"];
  Node2 -> Node7 [dir="back",color="midnightblue",fontsize="10",style="solid",fontname="Helvetica"];
  Node7 [label="src/dynamic/hil/net\l/rime/nbr-table.h",height=0.2,width=0.4,color="black", fillcolor="white", style="filled",URL="$d1/dae/dynamic_2hil_2net_2rime_2nbr-table_8h_source.html"];
  Node2 -> Node8 [dir="back",color="midnightblue",fontsize="10",style="solid",fontname="Helvetica"];
  Node8 [label="src/dynamic/hil/net\l/rime/packetbuf.c",height=0.2,width=0.4,color="black", fillcolor="white", style="filled",URL="$d6/d32/dynamic_2hil_2net_2rime_2packetbuf_8c.html"];
  Node2 -> Node9 [dir="back",color="midnightblue",fontsize="10",style="solid",fontname="Helvetica"];
  Node9 [label="src/dynamic/hil/net\l/rime/packetbuf.h",height=0.2,width=0.4,color="black", fillcolor="white", style="filled",URL="$d0/d01/dynamic_2hil_2net_2rime_2packetbuf_8h.html"];
  Node2 -> Node10 [dir="back",color="midnightblue",fontsize="10",style="solid",fontname="Helvetica"];
  Node10 [label="src/dynamic/hil/net\l/rime/rimeaddr.c",height=0.2,width=0.4,color="black", fillcolor="white", style="filled",URL="$dd/dd6/dynamic_2hil_2net_2rime_2rimeaddr_8c.html"];
  Node2 -> Node11 [dir="back",color="midnightblue",fontsize="10",style="solid",fontname="Helvetica"];
  Node11 [label="src/dynamic/hil/net\l/rime.c",height=0.2,width=0.4,color="black", fillcolor="white", style="filled",URL="$dd/d1a/dynamic_2hil_2net_2rime_8c.html"];
  Node2 -> Node12 [dir="back",color="midnightblue",fontsize="10",style="solid",fontname="Helvetica"];
  Node12 [label="src/dynamic/include\l/hil/net/mac/frame802154.h",height=0.2,width=0.4,color="black", fillcolor="white", style="filled",URL="$d5/d51/dynamic_2include_2hil_2net_2mac_2frame802154_8h.html",tooltip="802.15.4 frame creation and parsing functions "];
  Node2 -> Node13 [dir="back",color="midnightblue",fontsize="10",style="solid",fontname="Helvetica"];
  Node13 [label="src/dynamic/include\l/hil/net/rime/rimeaddr\l-object.h",height=0.2,width=0.4,color="black", fillcolor="white", style="filled",URL="$de/da9/rimeaddr-object_8h_source.html"];
  Node13 -> Node14 [dir="back",color="midnightblue",fontsize="10",style="solid",fontname="Helvetica"];
  Node14 [label="src/dynamic/include\l/hil-components.h",height=0.2,width=0.4,color="black", fillcolor="white", style="filled",URL="$dc/dc7/dynamic_2include_2hil-components_8h_source.html"];
  Node13 -> Node15 [dir="back",color="midnightblue",fontsize="10",style="solid",fontname="Helvetica"];
  Node15 [label="src/dynamic/kernel\l/system-facade/hil-components.h",height=0.2,width=0.4,color="black", fillcolor="white", style="filled",URL="$da/d34/dynamic_2kernel_2system-facade_2hil-components_8h_source.html"];
  Node13 -> Node16 [dir="back",color="midnightblue",fontsize="10",style="solid",fontname="Helvetica"];
  Node16 [label="src/static/kernel/system\l-facade/hil-components.h",height=0.2,width=0.4,color="black", fillcolor="white", style="filled",URL="$d2/d64/static_2kernel_2system-facade_2hil-components_8h_source.html"];
  Node2 -> Node17 [dir="back",color="midnightblue",fontsize="10",style="solid",fontname="Helvetica"];
  Node17 [label="src/static/examples\l/rime/example-collect.c",height=0.2,width=0.4,color="black", fillcolor="white", style="filled",URL="$d5/d25/static_2examples_2rime_2example-collect_8c.html"];
  Node2 -> Node18 [dir="back",color="midnightblue",fontsize="10",style="solid",fontname="Helvetica"];
  Node18 [label="src/static/examples\l/rime/example-mesh.c",height=0.2,width=0.4,color="black", fillcolor="white", style="filled",URL="$d8/d68/static_2examples_2rime_2example-mesh_8c.html"];
  Node2 -> Node19 [dir="back",color="midnightblue",fontsize="10",style="solid",fontname="Helvetica"];
  Node19 [label="src/static/examples\l/rime/example-multihop.c",height=0.2,width=0.4,color="black", fillcolor="white", style="filled",URL="$d5/d0b/static_2examples_2rime_2example-multihop_8c.html"];
  Node2 -> Node20 [dir="back",color="midnightblue",fontsize="10",style="solid",fontname="Helvetica"];
  Node20 [label="src/static/examples\l/rime/example-neighbors.c",height=0.2,width=0.4,color="black", fillcolor="white", style="filled",URL="$dd/da1/static_2examples_2rime_2example-neighbors_8c.html"];
  Node2 -> Node21 [dir="back",color="midnightblue",fontsize="10",style="solid",fontname="Helvetica"];
  Node21 [label="src/static/examples\l/rime/example-rucb.c",height=0.2,width=0.4,color="black", fillcolor="white", style="filled",URL="$dc/dd4/static_2examples_2rime_2example-rucb_8c.html"];
  Node2 -> Node22 [dir="back",color="midnightblue",fontsize="10",style="solid",fontname="Helvetica"];
  Node22 [label="src/static/examples\l/rime/example-rudolph0.c",height=0.2,width=0.4,color="black", fillcolor="white", style="filled",URL="$df/dc2/static_2examples_2rime_2example-rudolph0_8c.html"];
  Node2 -> Node23 [dir="back",color="midnightblue",fontsize="10",style="solid",fontname="Helvetica"];
  Node23 [label="src/static/examples\l/rime/example-rudolph1.c",height=0.2,width=0.4,color="black", fillcolor="white", style="filled",URL="$de/dae/static_2examples_2rime_2example-rudolph1_8c.html"];
  Node2 -> Node24 [dir="back",color="midnightblue",fontsize="10",style="solid",fontname="Helvetica"];
  Node24 [label="src/static/examples\l/rime/example-rudolph2.c",height=0.2,width=0.4,color="black", fillcolor="white", style="filled",URL="$d9/d18/static_2examples_2rime_2example-rudolph2_8c.html"];
  Node2 -> Node25 [dir="back",color="midnightblue",fontsize="10",style="solid",fontname="Helvetica"];
  Node25 [label="src/static/examples\l/rime/example-runicast.c",height=0.2,width=0.4,color="black", fillcolor="white", style="filled",URL="$d4/d60/static_2examples_2rime_2example-runicast_8c.html"];
  Node2 -> Node26 [dir="back",color="midnightblue",fontsize="10",style="solid",fontname="Helvetica"];
  Node26 [label="src/static/examples\l/rime/example-trickle.c",height=0.2,width=0.4,color="black", fillcolor="white", style="filled",URL="$dd/d5e/static_2examples_2rime_2example-trickle_8c.html"];
  Node2 -> Node27 [dir="back",color="midnightblue",fontsize="10",style="solid",fontname="Helvetica"];
  Node27 [label="src/static/examples\l/rime/example-unicast.c",height=0.2,width=0.4,color="black", fillcolor="white", style="filled",URL="$d3/def/static_2examples_2rime_2example-unicast_8c.html"];
  Node2 -> Node28 [dir="back",color="midnightblue",fontsize="10",style="solid",fontname="Helvetica"];
  Node28 [label="src/static/hil/net\l/mac/cxmac.c",height=0.2,width=0.4,color="black", fillcolor="white", style="filled",URL="$dc/d15/static_2hil_2net_2mac_2cxmac_8c.html"];
  Node2 -> Node29 [dir="back",color="midnightblue",fontsize="10",style="solid",fontname="Helvetica"];
  Node29 [label="src/static/hil/net\l/mac/frame802154.h",height=0.2,width=0.4,color="black", fillcolor="white", style="filled",URL="$d1/d14/static_2hil_2net_2mac_2frame802154_8h.html",tooltip="802.15.4 frame creation and parsing functions "];
  Node29 -> Node30 [dir="back",color="midnightblue",fontsize="10",style="solid",fontname="Helvetica"];
  Node30 [label="src/dynamic/hil/net\l/mac/frame802154.c",height=0.2,width=0.4,color="black", fillcolor="white", style="filled",URL="$d4/da9/dynamic_2hil_2net_2mac_2frame802154_8c.html",tooltip="802.15.4 frame creation and parsing functions "];
  Node29 -> Node31 [dir="back",color="midnightblue",fontsize="10",style="solid",fontname="Helvetica"];
  Node31 [label="src/dynamic/hil/net\l/mac/framer-802154.c",height=0.2,width=0.4,color="black", fillcolor="white", style="filled",URL="$d8/dcc/dynamic_2hil_2net_2mac_2framer-802154_8c.html"];
  Node29 -> Node32 [dir="back",color="midnightblue",fontsize="10",style="solid",fontname="Helvetica"];
  Node32 [label="src/dynamic/hil/net\l/mac/sicslowmac.c",height=0.2,width=0.4,color="black", fillcolor="white", style="filled",URL="$dd/def/dynamic_2hil_2net_2mac_2sicslowmac_8c.html"];
  Node29 -> Node33 [dir="back",color="midnightblue",fontsize="10",style="solid",fontname="Helvetica"];
  Node33 [label="src/dynamic/include\l/hil/net/mac/frame802154\l-object.h",height=0.2,width=0.4,color="black", fillcolor="white", style="filled",URL="$d2/df2/frame802154-object_8h_source.html"];
  Node33 -> Node14 [dir="back",color="midnightblue",fontsize="10",style="solid",fontname="Helvetica"];
  Node29 -> Node34 [dir="back",color="midnightblue",fontsize="10",style="solid",fontname="Helvetica"];
  Node34 [label="src/static/hil/net\l/mac/frame802154.c",height=0.2,width=0.4,color="black", fillcolor="white", style="filled",URL="$de/d3a/static_2hil_2net_2mac_2frame802154_8c.html",tooltip="802.15.4 frame creation and parsing functions "];
  Node29 -> Node35 [dir="back",color="midnightblue",fontsize="10",style="solid",fontname="Helvetica"];
  Node35 [label="src/static/hil/net\l/mac/framer-802154.c",height=0.2,width=0.4,color="black", fillcolor="white", style="filled",URL="$df/df9/static_2hil_2net_2mac_2framer-802154_8c.html"];
  Node29 -> Node36 [dir="back",color="midnightblue",fontsize="10",style="solid",fontname="Helvetica"];
  Node36 [label="src/static/hil/net\l/mac/sicslowmac.c",height=0.2,width=0.4,color="black", fillcolor="white", style="filled",URL="$dd/dbf/static_2hil_2net_2mac_2sicslowmac_8c.html"];
  Node2 -> Node37 [dir="back",color="midnightblue",fontsize="10",style="solid",fontname="Helvetica"];
  Node37 [label="src/static/hil/net\l/mac/phase.h",height=0.2,width=0.4,color="red", fillcolor="white", style="filled",URL="$d3/d52/static_2hil_2net_2mac_2phase_8h.html"];
  Node37 -> Node38 [dir="back",color="midnightblue",fontsize="10",style="solid",fontname="Helvetica"];
  Node38 [label="src/dynamic/hil/net\l/mac/contikimac.c",height=0.2,width=0.4,color="black", fillcolor="white", style="filled",URL="$d8/db4/dynamic_2hil_2net_2mac_2contikimac_8c.html"];
  Node37 -> Node39 [dir="back",color="midnightblue",fontsize="10",style="solid",fontname="Helvetica"];
  Node39 [label="src/dynamic/hil/net\l/mac/phase.c",height=0.2,width=0.4,color="black", fillcolor="white", style="filled",URL="$df/d73/dynamic_2hil_2net_2mac_2phase_8c.html"];
  Node2 -> Node43 [dir="back",color="midnightblue",fontsize="10",style="solid",fontname="Helvetica"];
  Node43 [label="src/static/hil/net\l/rime/announcement.h",height=0.2,width=0.4,color="red", fillcolor="white", style="filled",URL="$d5/d63/static_2hil_2net_2rime_2announcement_8h.html"];
  Node43 -> Node11 [dir="back",color="midnightblue",fontsize="10",style="solid",fontname="Helvetica"];
  Node43 -> Node19 [dir="back",color="midnightblue",fontsize="10",style="solid",fontname="Helvetica"];
  Node43 -> Node52 [dir="back",color="midnightblue",fontsize="10",style="solid",fontname="Helvetica"];
  Node52 [label="src/static/hil/net\l/rime.c",height=0.2,width=0.4,color="black", fillcolor="white", style="filled",URL="$d8/d1b/static_2hil_2net_2rime_8c.html"];
  Node2 -> Node60 [dir="back",color="midnightblue",fontsize="10",style="solid",fontname="Helvetica"];
  Node60 [label="src/static/hil/net\l/rime/nbr-table.h",height=0.2,width=0.4,color="red", fillcolor="white", style="filled",URL="$d9/d61/static_2hil_2net_2rime_2nbr-table_8h_source.html"];
  Node60 -> Node39 [dir="back",color="midnightblue",fontsize="10",style="solid",fontname="Helvetica"];
  Node2 -> Node62 [dir="back",color="midnightblue",fontsize="10",style="solid",fontname="Helvetica"];
  Node62 [label="src/static/hil/net\l/rime/packetbuf.c",height=0.2,width=0.4,color="black", fillcolor="white", style="filled",URL="$d6/df6/static_2hil_2net_2rime_2packetbuf_8c.html"];
  Node2 -> Node63 [dir="back",color="midnightblue",fontsize="10",style="solid",fontname="Helvetica"];
  Node63 [label="src/static/hil/net\l/rime/packetbuf.h",height=0.2,width=0.4,color="red", fillcolor="white", style="filled",URL="$d6/ddf/static_2hil_2net_2rime_2packetbuf_8h.html"];
  Node63 -> Node3 [dir="back",color="midnightblue",fontsize="10",style="solid",fontname="Helvetica"];
  Node63 -> Node31 [dir="back",color="midnightblue",fontsize="10",style="solid",fontname="Helvetica"];
  Node63 -> Node39 [dir="back",color="midnightblue",fontsize="10",style="solid",fontname="Helvetica"];
  Node63 -> Node8 [dir="back",color="midnightblue",fontsize="10",style="solid",fontname="Helvetica"];
  Node63 -> Node17 [dir="back",color="midnightblue",fontsize="10",style="solid",fontname="Helvetica"];
  Node63 -> Node18 [dir="back",color="midnightblue",fontsize="10",style="solid",fontname="Helvetica"];
  Node63 -> Node19 [dir="back",color="midnightblue",fontsize="10",style="solid",fontname="Helvetica"];
  Node63 -> Node20 [dir="back",color="midnightblue",fontsize="10",style="solid",fontname="Helvetica"];
  Node63 -> Node21 [dir="back",color="midnightblue",fontsize="10",style="solid",fontname="Helvetica"];
  Node63 -> Node22 [dir="back",color="midnightblue",fontsize="10",style="solid",fontname="Helvetica"];
  Node63 -> Node23 [dir="back",color="midnightblue",fontsize="10",style="solid",fontname="Helvetica"];
  Node63 -> Node26 [dir="back",color="midnightblue",fontsize="10",style="solid",fontname="Helvetica"];
  Node63 -> Node28 [dir="back",color="midnightblue",fontsize="10",style="solid",fontname="Helvetica"];
  Node63 -> Node35 [dir="back",color="midnightblue",fontsize="10",style="solid",fontname="Helvetica"];
  Node63 -> Node62 [dir="back",color="midnightblue",fontsize="10",style="solid",fontname="Helvetica"];
  Node63 -> Node88 [dir="back",color="midnightblue",fontsize="10",style="solid",fontname="Helvetica"];
  Node88 [label="src/static/net/rime\l/broadcast.c",height=0.2,width=0.4,color="black", fillcolor="white", style="filled",URL="$d0/d41/static_2net_2rime_2broadcast_8c.html"];
  Node2 -> Node189 [dir="back",color="midnightblue",fontsize="10",style="solid",fontname="Helvetica"];
  Node189 [label="src/static/hil/net\l/rime/rimeaddr.c",height=0.2,width=0.4,color="black", fillcolor="white", style="filled",URL="$d9/df1/static_2hil_2net_2rime_2rimeaddr_8c.html"];
  Node2 -> Node52 [dir="back",color="midnightblue",fontsize="10",style="solid",fontname="Helvetica"];
  Node2 -> Node88 [dir="back",color="midnightblue",fontsize="10",style="solid",fontname="Helvetica"];
  Node2 -> Node89 [dir="back",color="midnightblue",fontsize="10",style="solid",fontname="Helvetica"];
  Node89 [label="src/static/net/rime\l/broadcast.h",height=0.2,width=0.4,color="red", fillcolor="white", style="filled",URL="$dc/d73/static_2net_2rime_2broadcast_8h.html"];
  Node89 -> Node20 [dir="back",color="midnightblue",fontsize="10",style="solid",fontname="Helvetica"];
  Node89 -> Node88 [dir="back",color="midnightblue",fontsize="10",style="solid",fontname="Helvetica"];
  Node2 -> Node190 [dir="back",color="midnightblue",fontsize="10",style="solid",fontname="Helvetica"];
  Node190 [label="src/static/net/rime\l/collect-neighbor.h",height=0.2,width=0.4,color="red", fillcolor="white", style="filled",URL="$d2/d6e/static_2net_2rime_2collect-neighbor_8h.html"];
  Node2 -> Node131 [dir="back",color="midnightblue",fontsize="10",style="solid",fontname="Helvetica"];
  Node131 [label="src/static/net/rime\l/multihop.h",height=0.2,width=0.4,color="red", fillcolor="white", style="filled",URL="$db/dac/static_2net_2rime_2multihop_8h.html"];
  Node131 -> Node19 [dir="back",color="midnightblue",fontsize="10",style="solid",fontname="Helvetica"];
  Node2 -> Node141 [dir="back",color="midnightblue",fontsize="10",style="solid",fontname="Helvetica"];
  Node141 [label="src/static/net/rime\l/rmh.h",height=0.2,width=0.4,color="red", fillcolor="white", style="filled",URL="$d2/d36/static_2net_2rime_2rmh_8h.html"];
  Node2 -> Node193 [dir="back",color="midnightblue",fontsize="10",style="solid",fontname="Helvetica"];
  Node193 [label="src/static/net/rime\l/route.h",height=0.2,width=0.4,color="red", fillcolor="white", style="filled",URL="$dc/daa/static_2net_2rime_2route_8h.html"];
}
