digraph "src/static/hal/cpu/msp430/sys/timer/rtimer-arch.h"
{
  edge [fontname="Helvetica",fontsize="10",labelfontname="Helvetica",labelfontsize="10"];
  node [fontname="Helvetica",fontsize="10",shape=record];
  Node2 [label="src/static/hal/cpu\l/msp430/sys/timer/rtimer\l-arch.h",height=0.2,width=0.4,color="black", fillcolor="grey75", style="filled", fontcolor="black"];
  Node2 -> Node3 [dir="back",color="midnightblue",fontsize="10",style="solid",fontname="Helvetica"];
  Node3 [label="src/dynamic/hal/cpu\l/msp430/f1xxx/rtimer\l-arch.c",height=0.2,width=0.4,color="black", fillcolor="white", style="filled",URL="$dd/db8/dynamic_2hal_2cpu_2msp430_2f1xxx_2rtimer-arch_8c.html"];
  Node2 -> Node4 [dir="back",color="midnightblue",fontsize="10",style="solid",fontname="Helvetica"];
  Node4 [label="src/dynamic/hal/cpu\l/msp430/f5xxx/rtimer\l-arch.c",height=0.2,width=0.4,color="black", fillcolor="white", style="filled",URL="$d8/d44/dynamic_2hal_2cpu_2msp430_2f5xxx_2rtimer-arch_8c.html"];
  Node2 -> Node5 [dir="back",color="midnightblue",fontsize="10",style="solid",fontname="Helvetica"];
  Node5 [label="src/dynamic/hil/sys\l/timer/rtimer.h",height=0.2,width=0.4,color="black", fillcolor="white", style="filled",URL="$d3/d7c/dynamic_2hil_2sys_2timer_2rtimer_8h.html"];
  Node5 -> Node6 [dir="back",color="midnightblue",fontsize="10",style="solid",fontname="Helvetica"];
  Node6 [label="src/dynamic/hil/contiki.h",height=0.2,width=0.4,color="black", fillcolor="white", style="filled",URL="$d8/dac/dynamic_2hil_2contiki_8h_source.html"];
  Node6 -> Node7 [dir="back",color="midnightblue",fontsize="10",style="solid",fontname="Helvetica"];
  Node7 [label="src/dynamic/hil/contiki\l-lib.h",height=0.2,width=0.4,color="black", fillcolor="white", style="filled",URL="$d9/de9/dynamic_2hil_2contiki-lib_8h_source.html"];
  Node2 -> Node8 [dir="back",color="midnightblue",fontsize="10",style="solid",fontname="Helvetica"];
  Node8 [label="src/dynamic/hil/sys\l/timer/rtimer.c",height=0.2,width=0.4,color="black", fillcolor="white", style="filled",URL="$db/d83/dynamic_2hil_2sys_2timer_2rtimer_8c.html"];
  Node2 -> Node9 [dir="back",color="midnightblue",fontsize="10",style="solid",fontname="Helvetica"];
  Node9 [label="src/dynamic/include\l/hil/sys/timer/rtimer.h",height=0.2,width=0.4,color="black", fillcolor="white", style="filled",URL="$d2/d88/dynamic_2include_2hil_2sys_2timer_2rtimer_8h.html"];
  Node9 -> Node10 [dir="back",color="midnightblue",fontsize="10",style="solid",fontname="Helvetica"];
  Node10 [label="src/dynamic/examples\l/rime/example-rudolph1.c",height=0.2,width=0.4,color="black", fillcolor="white", style="filled",URL="$d8/dc6/dynamic_2examples_2rime_2example-rudolph1_8c.html"];
  Node2 -> Node11 [dir="back",color="midnightblue",fontsize="10",style="solid",fontname="Helvetica"];
  Node11 [label="src/static/hal/cpu\l/msp430/f1xxx/rtimer\l-arch.c",height=0.2,width=0.4,color="black", fillcolor="white", style="filled",URL="$d6/da3/static_2hal_2cpu_2msp430_2f1xxx_2rtimer-arch_8c.html"];
  Node2 -> Node12 [dir="back",color="midnightblue",fontsize="10",style="solid",fontname="Helvetica"];
  Node12 [label="src/static/hal/cpu\l/msp430/f5xxx/rtimer\l-arch.c",height=0.2,width=0.4,color="black", fillcolor="white", style="filled",URL="$dd/d9e/static_2hal_2cpu_2msp430_2f5xxx_2rtimer-arch_8c.html"];
  Node2 -> Node13 [dir="back",color="midnightblue",fontsize="10",style="solid",fontname="Helvetica"];
  Node13 [label="src/static/hil/sys\l/timer/rtimer.h",height=0.2,width=0.4,color="black", fillcolor="white", style="filled",URL="$dd/d57/static_2hil_2sys_2timer_2rtimer_8h.html"];
  Node13 -> Node3 [dir="back",color="midnightblue",fontsize="10",style="solid",fontname="Helvetica"];
  Node13 -> Node4 [dir="back",color="midnightblue",fontsize="10",style="solid",fontname="Helvetica"];
  Node13 -> Node14 [dir="back",color="midnightblue",fontsize="10",style="solid",fontname="Helvetica"];
  Node14 [label="src/dynamic/hal/cpu\l/msp430/sys/timer/rtimer\l-arch.h",height=0.2,width=0.4,color="black", fillcolor="white", style="filled",URL="$d6/d5d/dynamic_2hal_2cpu_2msp430_2sys_2timer_2rtimer-arch_8h.html"];
  Node13 -> Node15 [dir="back",color="midnightblue",fontsize="10",style="solid",fontname="Helvetica"];
  Node15 [label="src/dynamic/hal/platform\l/sky/lib/util/checkpoint-arch.c",height=0.2,width=0.4,color="black", fillcolor="white", style="filled",URL="$d1/de1/dynamic_2hal_2platform_2sky_2lib_2util_2checkpoint-arch_8c.html"];
  Node13 -> Node16 [dir="back",color="midnightblue",fontsize="10",style="solid",fontname="Helvetica"];
  Node16 [label="src/dynamic/hal/platform\l/z1/checkpoint-arch.c",height=0.2,width=0.4,color="black", fillcolor="white", style="filled",URL="$de/d8f/dynamic_2hal_2platform_2z1_2checkpoint-arch_8c.html"];
  Node13 -> Node17 [dir="back",color="midnightblue",fontsize="10",style="solid",fontname="Helvetica"];
  Node17 [label="src/dynamic/hil/lib\l/util/energest.h",height=0.2,width=0.4,color="black", fillcolor="white", style="filled",URL="$de/de5/dynamic_2hil_2lib_2util_2energest_8h.html"];
  Node17 -> Node6 [dir="back",color="midnightblue",fontsize="10",style="solid",fontname="Helvetica"];
  Node13 -> Node18 [dir="back",color="midnightblue",fontsize="10",style="solid",fontname="Helvetica"];
  Node18 [label="src/dynamic/hil/net\l/mac/contikimac.c",height=0.2,width=0.4,color="black", fillcolor="white", style="filled",URL="$d8/db4/dynamic_2hil_2net_2mac_2contikimac_8c.html"];
  Node13 -> Node19 [dir="back",color="midnightblue",fontsize="10",style="solid",fontname="Helvetica"];
  Node19 [label="src/dynamic/hil/net\l/mac/contikimac.h",height=0.2,width=0.4,color="black", fillcolor="white", style="filled",URL="$dd/d18/dynamic_2hil_2net_2mac_2contikimac_8h.html"];
  Node13 -> Node20 [dir="back",color="midnightblue",fontsize="10",style="solid",fontname="Helvetica"];
  Node20 [label="src/dynamic/hil/net\l/mac/cxmac.c",height=0.2,width=0.4,color="black", fillcolor="white", style="filled",URL="$d5/d1b/dynamic_2hil_2net_2mac_2cxmac_8c.html"];
  Node13 -> Node21 [dir="back",color="midnightblue",fontsize="10",style="solid",fontname="Helvetica"];
  Node21 [label="src/dynamic/hil/net\l/mac/cxmac.h",height=0.2,width=0.4,color="black", fillcolor="white", style="filled",URL="$dd/d3a/dynamic_2hil_2net_2mac_2cxmac_8h.html"];
  Node13 -> Node22 [dir="back",color="midnightblue",fontsize="10",style="solid",fontname="Helvetica"];
  Node22 [label="src/dynamic/hil/net\l/mac/lpp.c",height=0.2,width=0.4,color="black", fillcolor="white", style="filled",URL="$da/d2a/dynamic_2hil_2net_2mac_2lpp_8c.html"];
  Node13 -> Node23 [dir="back",color="midnightblue",fontsize="10",style="solid",fontname="Helvetica"];
  Node23 [label="src/dynamic/hil/net\l/mac/phase.h",height=0.2,width=0.4,color="black", fillcolor="white", style="filled",URL="$d8/dea/dynamic_2hil_2net_2mac_2phase_8h.html"];
  Node13 -> Node24 [dir="back",color="midnightblue",fontsize="10",style="solid",fontname="Helvetica"];
  Node24 [label="src/dynamic/hil/net\l/mac/xmac.c",height=0.2,width=0.4,color="black", fillcolor="white", style="filled",URL="$de/d67/dynamic_2hil_2net_2mac_2xmac_8c.html"];
  Node13 -> Node25 [dir="back",color="midnightblue",fontsize="10",style="solid",fontname="Helvetica"];
  Node25 [label="src/dynamic/hil/net\l/mac/xmac.h",height=0.2,width=0.4,color="black", fillcolor="white", style="filled",URL="$d7/dae/dynamic_2hil_2net_2mac_2xmac_8h.html"];
  Node13 -> Node26 [dir="back",color="midnightblue",fontsize="10",style="solid",fontname="Helvetica"];
  Node26 [label="src/dynamic/hil/net\l/rime/timesynch.h",height=0.2,width=0.4,color="black", fillcolor="white", style="filled",URL="$d8/d78/dynamic_2hil_2net_2rime_2timesynch_8h.html"];
  Node13 -> Node8 [dir="back",color="midnightblue",fontsize="10",style="solid",fontname="Helvetica"];
  Node13 -> Node27 [dir="back",color="midnightblue",fontsize="10",style="solid",fontname="Helvetica"];
  Node27 [label="src/dynamic/include\l/hil/sys/timer/rtimer\l-object.h",height=0.2,width=0.4,color="black", fillcolor="white", style="filled",URL="$d0/d71/rtimer-object_8h_source.html"];
  Node27 -> Node28 [dir="back",color="midnightblue",fontsize="10",style="solid",fontname="Helvetica"];
  Node28 [label="src/dynamic/include\l/hil-components.h",height=0.2,width=0.4,color="black", fillcolor="white", style="filled",URL="$dc/dc7/dynamic_2include_2hil-components_8h_source.html"];
  Node27 -> Node29 [dir="back",color="midnightblue",fontsize="10",style="solid",fontname="Helvetica"];
  Node29 [label="src/dynamic/kernel\l/system-facade/hil-components.h",height=0.2,width=0.4,color="black", fillcolor="white", style="filled",URL="$da/d34/dynamic_2kernel_2system-facade_2hil-components_8h_source.html"];
  Node27 -> Node30 [dir="back",color="midnightblue",fontsize="10",style="solid",fontname="Helvetica"];
  Node30 [label="src/static/kernel/system\l-facade/hil-components.h",height=0.2,width=0.4,color="black", fillcolor="white", style="filled",URL="$d2/d64/static_2kernel_2system-facade_2hil-components_8h_source.html"];
  Node13 -> Node31 [dir="back",color="midnightblue",fontsize="10",style="solid",fontname="Helvetica"];
  Node31 [label="src/static/examples\l/rime/example-rudolph1.c",height=0.2,width=0.4,color="black", fillcolor="white", style="filled",URL="$de/dae/static_2examples_2rime_2example-rudolph1_8c.html"];
  Node13 -> Node11 [dir="back",color="midnightblue",fontsize="10",style="solid",fontname="Helvetica"];
  Node13 -> Node12 [dir="back",color="midnightblue",fontsize="10",style="solid",fontname="Helvetica"];
  Node13 -> Node2 [dir="back",color="midnightblue",fontsize="10",style="solid",fontname="Helvetica"];
  Node13 -> Node32 [dir="back",color="midnightblue",fontsize="10",style="solid",fontname="Helvetica"];
  Node32 [label="src/static/hal/platform\l/sky/lib/util/checkpoint\l-arch.c",height=0.2,width=0.4,color="black", fillcolor="white", style="filled",URL="$d8/d6c/static_2hal_2platform_2sky_2lib_2util_2checkpoint-arch_8c.html"];
  Node13 -> Node33 [dir="back",color="midnightblue",fontsize="10",style="solid",fontname="Helvetica"];
  Node33 [label="src/static/hal/platform\l/z1/checkpoint-arch.c",height=0.2,width=0.4,color="black", fillcolor="white", style="filled",URL="$d1/d21/static_2hal_2platform_2z1_2checkpoint-arch_8c.html"];
  Node13 -> Node34 [dir="back",color="midnightblue",fontsize="10",style="solid",fontname="Helvetica"];
  Node34 [label="src/static/hil/contiki.h",height=0.2,width=0.4,color="red", fillcolor="white", style="filled",URL="$d4/db8/static_2hil_2contiki_8h_source.html"];
  Node34 -> Node35 [dir="back",color="midnightblue",fontsize="10",style="solid",fontname="Helvetica"];
  Node35 [label="src/dynamic/hal/chips\l/cc2420/cc2420-aes.c",height=0.2,width=0.4,color="black", fillcolor="white", style="filled",URL="$db/d3e/dynamic_2hal_2chips_2cc2420_2cc2420-aes_8c.html"];
  Node34 -> Node36 [dir="back",color="midnightblue",fontsize="10",style="solid",fontname="Helvetica"];
  Node36 [label="src/dynamic/hal/chips\l/cc2420/cc2420.h",height=0.2,width=0.4,color="black", fillcolor="white", style="filled",URL="$d0/dfd/dynamic_2hal_2chips_2cc2420_2cc2420_8h.html"];
  Node34 -> Node37 [dir="back",color="midnightblue",fontsize="10",style="solid",fontname="Helvetica"];
  Node37 [label="src/dynamic/hal/chips\l/cc2520/cc2520.h",height=0.2,width=0.4,color="black", fillcolor="white", style="filled",URL="$d7/d98/dynamic_2hal_2chips_2cc2520_2cc2520_8h.html"];
  Node34 -> Node38 [dir="back",color="midnightblue",fontsize="10",style="solid",fontname="Helvetica"];
  Node38 [label="src/dynamic/hal/cpu\l/msp430/dev/flash.c",height=0.2,width=0.4,color="black", fillcolor="white", style="filled",URL="$d7/d63/dynamic_2hal_2cpu_2msp430_2dev_2flash_8c.html"];
  Node34 -> Node39 [dir="back",color="midnightblue",fontsize="10",style="solid",fontname="Helvetica"];
  Node39 [label="src/dynamic/hal/cpu\l/msp430/dev/hwconf.h",height=0.2,width=0.4,color="black", fillcolor="white", style="filled",URL="$d8/d99/dynamic_2hal_2cpu_2msp430_2dev_2hwconf_8h_source.html"];
  Node34 -> Node40 [dir="back",color="midnightblue",fontsize="10",style="solid",fontname="Helvetica"];
  Node40 [label="src/dynamic/hal/cpu\l/msp430/dev/uart0.h",height=0.2,width=0.4,color="black", fillcolor="white", style="filled",URL="$dd/dbd/dynamic_2hal_2cpu_2msp430_2dev_2uart0_8h.html"];
  Node34 -> Node3 [dir="back",color="midnightblue",fontsize="10",style="solid",fontname="Helvetica"];
  Node34 -> Node4 [dir="back",color="midnightblue",fontsize="10",style="solid",fontname="Helvetica"];
  Node34 -> Node15 [dir="back",color="midnightblue",fontsize="10",style="solid",fontname="Helvetica"];
  Node34 -> Node16 [dir="back",color="midnightblue",fontsize="10",style="solid",fontname="Helvetica"];
  Node34 -> Node8 [dir="back",color="midnightblue",fontsize="10",style="solid",fontname="Helvetica"];
  Node34 -> Node11 [dir="back",color="midnightblue",fontsize="10",style="solid",fontname="Helvetica"];
  Node34 -> Node12 [dir="back",color="midnightblue",fontsize="10",style="solid",fontname="Helvetica"];
  Node34 -> Node32 [dir="back",color="midnightblue",fontsize="10",style="solid",fontname="Helvetica"];
  Node34 -> Node33 [dir="back",color="midnightblue",fontsize="10",style="solid",fontname="Helvetica"];
  Node34 -> Node135 [dir="back",color="midnightblue",fontsize="10",style="solid",fontname="Helvetica"];
  Node135 [label="src/static/hil/sys\l/timer/rtimer.c",height=0.2,width=0.4,color="black", fillcolor="white", style="filled",URL="$d0/ded/static_2hil_2sys_2timer_2rtimer_8c.html"];
  Node13 -> Node148 [dir="back",color="midnightblue",fontsize="10",style="solid",fontname="Helvetica"];
  Node148 [label="src/static/hil/lib\l/util/energest.h",height=0.2,width=0.4,color="red", fillcolor="white", style="filled",URL="$df/d30/static_2hil_2lib_2util_2energest_8h.html"];
  Node148 -> Node3 [dir="back",color="midnightblue",fontsize="10",style="solid",fontname="Helvetica"];
  Node148 -> Node4 [dir="back",color="midnightblue",fontsize="10",style="solid",fontname="Helvetica"];
  Node148 -> Node15 [dir="back",color="midnightblue",fontsize="10",style="solid",fontname="Helvetica"];
  Node148 -> Node11 [dir="back",color="midnightblue",fontsize="10",style="solid",fontname="Helvetica"];
  Node148 -> Node12 [dir="back",color="midnightblue",fontsize="10",style="solid",fontname="Helvetica"];
  Node148 -> Node32 [dir="back",color="midnightblue",fontsize="10",style="solid",fontname="Helvetica"];
  Node148 -> Node34 [dir="back",color="midnightblue",fontsize="10",style="solid",fontname="Helvetica"];
  Node13 -> Node154 [dir="back",color="midnightblue",fontsize="10",style="solid",fontname="Helvetica"];
  Node154 [label="src/static/hil/net\l/mac/contikimac.c",height=0.2,width=0.4,color="black", fillcolor="white", style="filled",URL="$da/dde/static_2hil_2net_2mac_2contikimac_8c.html"];
  Node13 -> Node155 [dir="back",color="midnightblue",fontsize="10",style="solid",fontname="Helvetica"];
  Node155 [label="src/static/hil/net\l/mac/contikimac.h",height=0.2,width=0.4,color="black", fillcolor="white", style="filled",URL="$d9/d2a/static_2hil_2net_2mac_2contikimac_8h.html"];
  Node155 -> Node18 [dir="back",color="midnightblue",fontsize="10",style="solid",fontname="Helvetica"];
  Node155 -> Node154 [dir="back",color="midnightblue",fontsize="10",style="solid",fontname="Helvetica"];
  Node13 -> Node156 [dir="back",color="midnightblue",fontsize="10",style="solid",fontname="Helvetica"];
  Node156 [label="src/static/hil/net\l/mac/cxmac.c",height=0.2,width=0.4,color="black", fillcolor="white", style="filled",URL="$dc/d15/static_2hil_2net_2mac_2cxmac_8c.html"];
  Node13 -> Node157 [dir="back",color="midnightblue",fontsize="10",style="solid",fontname="Helvetica"];
  Node157 [label="src/static/hil/net\l/mac/cxmac.h",height=0.2,width=0.4,color="black", fillcolor="white", style="filled",URL="$d1/dc7/static_2hil_2net_2mac_2cxmac_8h.html"];
  Node157 -> Node20 [dir="back",color="midnightblue",fontsize="10",style="solid",fontname="Helvetica"];
  Node157 -> Node156 [dir="back",color="midnightblue",fontsize="10",style="solid",fontname="Helvetica"];
  Node13 -> Node158 [dir="back",color="midnightblue",fontsize="10",style="solid",fontname="Helvetica"];
  Node158 [label="src/static/hil/net\l/mac/lpp.c",height=0.2,width=0.4,color="black", fillcolor="white", style="filled",URL="$d8/d6c/static_2hil_2net_2mac_2lpp_8c.html"];
  Node13 -> Node159 [dir="back",color="midnightblue",fontsize="10",style="solid",fontname="Helvetica"];
  Node159 [label="src/static/hil/net\l/mac/phase.h",height=0.2,width=0.4,color="red", fillcolor="white", style="filled",URL="$d3/d52/static_2hil_2net_2mac_2phase_8h.html"];
  Node159 -> Node18 [dir="back",color="midnightblue",fontsize="10",style="solid",fontname="Helvetica"];
  Node159 -> Node154 [dir="back",color="midnightblue",fontsize="10",style="solid",fontname="Helvetica"];
  Node13 -> Node161 [dir="back",color="midnightblue",fontsize="10",style="solid",fontname="Helvetica"];
  Node161 [label="src/static/hil/net\l/mac/xmac.c",height=0.2,width=0.4,color="black", fillcolor="white", style="filled",URL="$dd/d35/static_2hil_2net_2mac_2xmac_8c.html"];
  Node13 -> Node162 [dir="back",color="midnightblue",fontsize="10",style="solid",fontname="Helvetica"];
  Node162 [label="src/static/hil/net\l/mac/xmac.h",height=0.2,width=0.4,color="red", fillcolor="white", style="filled",URL="$da/de9/static_2hil_2net_2mac_2xmac_8h.html"];
  Node162 -> Node24 [dir="back",color="midnightblue",fontsize="10",style="solid",fontname="Helvetica"];
  Node162 -> Node161 [dir="back",color="midnightblue",fontsize="10",style="solid",fontname="Helvetica"];
  Node13 -> Node164 [dir="back",color="midnightblue",fontsize="10",style="solid",fontname="Helvetica"];
  Node164 [label="src/static/hil/net\l/rime/timesynch.h",height=0.2,width=0.4,color="red", fillcolor="white", style="filled",URL="$d1/d1c/static_2hil_2net_2rime_2timesynch_8h.html"];
  Node164 -> Node20 [dir="back",color="midnightblue",fontsize="10",style="solid",fontname="Helvetica"];
  Node164 -> Node24 [dir="back",color="midnightblue",fontsize="10",style="solid",fontname="Helvetica"];
  Node164 -> Node156 [dir="back",color="midnightblue",fontsize="10",style="solid",fontname="Helvetica"];
  Node164 -> Node161 [dir="back",color="midnightblue",fontsize="10",style="solid",fontname="Helvetica"];
  Node13 -> Node135 [dir="back",color="midnightblue",fontsize="10",style="solid",fontname="Helvetica"];
  Node2 -> Node135 [dir="back",color="midnightblue",fontsize="10",style="solid",fontname="Helvetica"];
}
