digraph "src/static/kernel/core/runtime-mgmt/kernel-list.c"
{
  edge [fontname="Helvetica",fontsize="10",labelfontname="Helvetica",labelfontsize="10"];
  node [fontname="Helvetica",fontsize="10",shape=record];
  Node0 [label="src/static/kernel/core\l/runtime-mgmt/kernel-list.c",height=0.2,width=0.4,color="black", fillcolor="grey75", style="filled", fontcolor="black"];
  Node0 -> Node1 [color="midnightblue",fontsize="10",style="solid",fontname="Helvetica"];
  Node1 [label="kernel-list.h",height=0.2,width=0.4,color="black", fillcolor="white", style="filled",URL="$d9/d3a/static_2kernel_2core_2runtime-mgmt_2kernel-list_8h.html"];
}
