digraph "src/static/hil/lib/cfs/cfs.h"
{
  edge [fontname="Helvetica",fontsize="10",labelfontname="Helvetica",labelfontsize="10"];
  node [fontname="Helvetica",fontsize="10",shape=record];
  Node2 [label="src/static/hil/lib\l/cfs/cfs.h",height=0.2,width=0.4,color="black", fillcolor="grey75", style="filled", fontcolor="black"];
  Node2 -> Node3 [dir="back",color="midnightblue",fontsize="10",style="solid",fontname="Helvetica"];
  Node3 [label="src/dynamic/hal/platform\l/sky/lib/util/checkpoint-arch.c",height=0.2,width=0.4,color="black", fillcolor="white", style="filled",URL="$d1/de1/dynamic_2hal_2platform_2sky_2lib_2util_2checkpoint-arch_8c.html"];
  Node2 -> Node4 [dir="back",color="midnightblue",fontsize="10",style="solid",fontname="Helvetica"];
  Node4 [label="src/dynamic/hal/platform\l/z1/checkpoint-arch.c",height=0.2,width=0.4,color="black", fillcolor="white", style="filled",URL="$de/d8f/dynamic_2hal_2platform_2z1_2checkpoint-arch_8c.html"];
  Node2 -> Node5 [dir="back",color="midnightblue",fontsize="10",style="solid",fontname="Helvetica"];
  Node5 [label="src/dynamic/hil/lib\l/cfs/cfs-coffee.c",height=0.2,width=0.4,color="black", fillcolor="white", style="filled",URL="$d7/d73/dynamic_2hil_2lib_2cfs_2cfs-coffee_8c.html"];
  Node2 -> Node6 [dir="back",color="midnightblue",fontsize="10",style="solid",fontname="Helvetica"];
  Node6 [label="src/dynamic/hil/lib\l/cfs/cfs-coffee.h",height=0.2,width=0.4,color="black", fillcolor="white", style="filled",URL="$dd/d43/dynamic_2hil_2lib_2cfs_2cfs-coffee_8h.html"];
  Node2 -> Node7 [dir="back",color="midnightblue",fontsize="10",style="solid",fontname="Helvetica"];
  Node7 [label="src/dynamic/hil/lib\l/loader/elfloader.h",height=0.2,width=0.4,color="black", fillcolor="white", style="filled",URL="$df/d46/dynamic_2hil_2lib_2loader_2elfloader_8h.html"];
  Node2 -> Node8 [dir="back",color="midnightblue",fontsize="10",style="solid",fontname="Helvetica"];
  Node8 [label="src/dynamic/include\l/hil/lib/cfs/cfs-object.h",height=0.2,width=0.4,color="black", fillcolor="white", style="filled",URL="$d0/d27/cfs-object_8h_source.html"];
  Node8 -> Node9 [dir="back",color="midnightblue",fontsize="10",style="solid",fontname="Helvetica"];
  Node9 [label="src/dynamic/include\l/hil-components.h",height=0.2,width=0.4,color="black", fillcolor="white", style="filled",URL="$dc/dc7/dynamic_2include_2hil-components_8h_source.html"];
  Node8 -> Node10 [dir="back",color="midnightblue",fontsize="10",style="solid",fontname="Helvetica"];
  Node10 [label="src/dynamic/kernel\l/system-facade/hil-components.h",height=0.2,width=0.4,color="black", fillcolor="white", style="filled",URL="$da/d34/dynamic_2kernel_2system-facade_2hil-components_8h_source.html"];
  Node8 -> Node11 [dir="back",color="midnightblue",fontsize="10",style="solid",fontname="Helvetica"];
  Node11 [label="src/static/kernel/system\l-facade/hil-components.h",height=0.2,width=0.4,color="black", fillcolor="white", style="filled",URL="$d2/d64/static_2kernel_2system-facade_2hil-components_8h_source.html"];
  Node2 -> Node12 [dir="back",color="midnightblue",fontsize="10",style="solid",fontname="Helvetica"];
  Node12 [label="src/static/examples\l/rime/example-rudolph0.c",height=0.2,width=0.4,color="black", fillcolor="white", style="filled",URL="$df/dc2/static_2examples_2rime_2example-rudolph0_8c.html"];
  Node2 -> Node13 [dir="back",color="midnightblue",fontsize="10",style="solid",fontname="Helvetica"];
  Node13 [label="src/static/examples\l/rime/example-rudolph1.c",height=0.2,width=0.4,color="black", fillcolor="white", style="filled",URL="$de/dae/static_2examples_2rime_2example-rudolph1_8c.html"];
  Node2 -> Node14 [dir="back",color="midnightblue",fontsize="10",style="solid",fontname="Helvetica"];
  Node14 [label="src/static/examples\l/rime/example-rudolph2.c",height=0.2,width=0.4,color="black", fillcolor="white", style="filled",URL="$d9/d18/static_2examples_2rime_2example-rudolph2_8c.html"];
  Node2 -> Node15 [dir="back",color="midnightblue",fontsize="10",style="solid",fontname="Helvetica"];
  Node15 [label="src/static/hal/platform\l/sky/lib/util/checkpoint\l-arch.c",height=0.2,width=0.4,color="black", fillcolor="white", style="filled",URL="$d8/d6c/static_2hal_2platform_2sky_2lib_2util_2checkpoint-arch_8c.html"];
  Node2 -> Node16 [dir="back",color="midnightblue",fontsize="10",style="solid",fontname="Helvetica"];
  Node16 [label="src/static/hal/platform\l/z1/checkpoint-arch.c",height=0.2,width=0.4,color="black", fillcolor="white", style="filled",URL="$d1/d21/static_2hal_2platform_2z1_2checkpoint-arch_8c.html"];
  Node2 -> Node17 [dir="back",color="midnightblue",fontsize="10",style="solid",fontname="Helvetica"];
  Node17 [label="src/static/hil/lib\l/cfs/cfs-coffee.c",height=0.2,width=0.4,color="black", fillcolor="white", style="filled",URL="$dc/d09/static_2hil_2lib_2cfs_2cfs-coffee_8c.html"];
  Node2 -> Node18 [dir="back",color="midnightblue",fontsize="10",style="solid",fontname="Helvetica"];
  Node18 [label="src/static/hil/lib\l/cfs/cfs-coffee.h",height=0.2,width=0.4,color="black", fillcolor="white", style="filled",URL="$d5/da7/static_2hil_2lib_2cfs_2cfs-coffee_8h.html"];
  Node18 -> Node3 [dir="back",color="midnightblue",fontsize="10",style="solid",fontname="Helvetica"];
  Node18 -> Node4 [dir="back",color="midnightblue",fontsize="10",style="solid",fontname="Helvetica"];
  Node18 -> Node5 [dir="back",color="midnightblue",fontsize="10",style="solid",fontname="Helvetica"];
  Node18 -> Node19 [dir="back",color="midnightblue",fontsize="10",style="solid",fontname="Helvetica"];
  Node19 [label="src/dynamic/include\l/hil/lib/cfs/cfs-coffee\l-object.h",height=0.2,width=0.4,color="black", fillcolor="white", style="filled",URL="$df/d93/cfs-coffee-object_8h_source.html"];
  Node19 -> Node9 [dir="back",color="midnightblue",fontsize="10",style="solid",fontname="Helvetica"];
  Node19 -> Node10 [dir="back",color="midnightblue",fontsize="10",style="solid",fontname="Helvetica"];
  Node19 -> Node11 [dir="back",color="midnightblue",fontsize="10",style="solid",fontname="Helvetica"];
  Node18 -> Node15 [dir="back",color="midnightblue",fontsize="10",style="solid",fontname="Helvetica"];
  Node18 -> Node16 [dir="back",color="midnightblue",fontsize="10",style="solid",fontname="Helvetica"];
  Node18 -> Node17 [dir="back",color="midnightblue",fontsize="10",style="solid",fontname="Helvetica"];
  Node2 -> Node20 [dir="back",color="midnightblue",fontsize="10",style="solid",fontname="Helvetica"];
  Node20 [label="src/static/hil/lib\l/loader/elfloader.h",height=0.2,width=0.4,color="black", fillcolor="white", style="filled",URL="$d8/d92/static_2hil_2lib_2loader_2elfloader_8h.html"];
  Node20 -> Node21 [dir="back",color="midnightblue",fontsize="10",style="solid",fontname="Helvetica"];
  Node21 [label="src/dynamic/hil/lib\l/loader/elfloader-arch.h",height=0.2,width=0.4,color="black", fillcolor="white", style="filled",URL="$da/d62/dynamic_2hil_2lib_2loader_2elfloader-arch_8h.html"];
  Node20 -> Node22 [dir="back",color="midnightblue",fontsize="10",style="solid",fontname="Helvetica"];
  Node22 [label="src/dynamic/include\l/hil/lib/loader/elfloader\l-object.h",height=0.2,width=0.4,color="black", fillcolor="white", style="filled",URL="$db/d10/elfloader-object_8h_source.html"];
  Node22 -> Node9 [dir="back",color="midnightblue",fontsize="10",style="solid",fontname="Helvetica"];
  Node22 -> Node10 [dir="back",color="midnightblue",fontsize="10",style="solid",fontname="Helvetica"];
  Node22 -> Node11 [dir="back",color="midnightblue",fontsize="10",style="solid",fontname="Helvetica"];
  Node20 -> Node23 [dir="back",color="midnightblue",fontsize="10",style="solid",fontname="Helvetica"];
  Node23 [label="src/static/hil/lib\l/loader/elfloader-arch.h",height=0.2,width=0.4,color="black", fillcolor="white", style="filled",URL="$df/def/static_2hil_2lib_2loader_2elfloader-arch_8h.html"];
  Node2 -> Node24 [dir="back",color="midnightblue",fontsize="10",style="solid",fontname="Helvetica"];
  Node24 [label="src/static/net/rime\l/rudolph1.c",height=0.2,width=0.4,color="black", fillcolor="white", style="filled",URL="$d4/dfe/static_2net_2rime_2rudolph1_8c.html"];
  Node2 -> Node25 [dir="back",color="midnightblue",fontsize="10",style="solid",fontname="Helvetica"];
  Node25 [label="src/static/net/rime\l/rudolph2.c",height=0.2,width=0.4,color="black", fillcolor="white", style="filled",URL="$d1/da5/static_2net_2rime_2rudolph2_8c.html"];
}
