digraph "src/static/hil/net/mac/csma.c"
{
  edge [fontname="Helvetica",fontsize="10",labelfontname="Helvetica",labelfontsize="10"];
  node [fontname="Helvetica",fontsize="10",shape=record];
  Node0 [label="src/static/hil/net\l/mac/csma.c",height=0.2,width=0.4,color="black", fillcolor="grey75", style="filled", fontcolor="black"];
  Node0 -> Node1 [color="midnightblue",fontsize="10",style="solid",fontname="Helvetica"];
  Node1 [label="net/mac/csma.h",height=0.2,width=0.4,color="grey75", fillcolor="white", style="filled"];
  Node0 -> Node2 [color="midnightblue",fontsize="10",style="solid",fontname="Helvetica"];
  Node2 [label="net/rime/packetbuf.h",height=0.2,width=0.4,color="grey75", fillcolor="white", style="filled"];
  Node0 -> Node3 [color="midnightblue",fontsize="10",style="solid",fontname="Helvetica"];
  Node3 [label="net/rime/queuebuf.h",height=0.2,width=0.4,color="grey75", fillcolor="white", style="filled"];
  Node0 -> Node4 [color="midnightblue",fontsize="10",style="solid",fontname="Helvetica"];
  Node4 [label="sys/timer/ctimer.h",height=0.2,width=0.4,color="grey75", fillcolor="white", style="filled"];
  Node0 -> Node5 [color="midnightblue",fontsize="10",style="solid",fontname="Helvetica"];
  Node5 [label="sys/timer/clock.h",height=0.2,width=0.4,color="grey75", fillcolor="white", style="filled"];
  Node0 -> Node6 [color="midnightblue",fontsize="10",style="solid",fontname="Helvetica"];
  Node6 [label="lib/util/random.h",height=0.2,width=0.4,color="grey75", fillcolor="white", style="filled"];
  Node0 -> Node7 [color="midnightblue",fontsize="10",style="solid",fontname="Helvetica"];
  Node7 [label="net/netstack.h",height=0.2,width=0.4,color="grey75", fillcolor="white", style="filled"];
  Node0 -> Node8 [color="midnightblue",fontsize="10",style="solid",fontname="Helvetica"];
  Node8 [label="lib/util/list.h",height=0.2,width=0.4,color="grey75", fillcolor="white", style="filled"];
  Node0 -> Node9 [color="midnightblue",fontsize="10",style="solid",fontname="Helvetica"];
  Node9 [label="lib/util/memb.h",height=0.2,width=0.4,color="grey75", fillcolor="white", style="filled"];
  Node0 -> Node10 [color="midnightblue",fontsize="10",style="solid",fontname="Helvetica"];
  Node10 [label="string.h",height=0.2,width=0.4,color="black", fillcolor="white", style="filled",URL="$da/d66/string_8h_source.html"];
  Node10 -> Node11 [color="midnightblue",fontsize="10",style="solid",fontname="Helvetica"];
  Node11 [label="kernel.h",height=0.2,width=0.4,color="grey75", fillcolor="white", style="filled"];
  Node10 -> Node12 [color="midnightblue",fontsize="10",style="solid",fontname="Helvetica"];
  Node12 [label="string-constdef.h",height=0.2,width=0.4,color="black", fillcolor="white", style="filled",URL="$d1/da7/string-constdef_8h_source.html"];
  Node0 -> Node13 [color="midnightblue",fontsize="10",style="solid",fontname="Helvetica"];
  Node13 [label="stdio.h",height=0.2,width=0.4,color="grey75", fillcolor="white", style="filled"];
}
