digraph "Best-effort multihop forwarding"
{
  edge [fontname="Helvetica",fontsize="10",labelfontname="Helvetica",labelfontsize="10"];
  node [fontname="Helvetica",fontsize="10",shape=record];
  rankdir=LR;
  Node0 [label="Best-effort multihop\l forwarding",height=0.2,width=0.4,color="black", fillcolor="grey75", style="filled", fontcolor="black"];
  Node1 [label="Rime",height=0.2,width=0.4,color="black", fillcolor="white", style="filled",URL="$dd/df2/group__rime.html"];
  Node1->Node0 [shape=plaintext, dir="back", style="solid"];
}
