digraph "src/static/hil/net/mac/mac.h"
{
  edge [fontname="Helvetica",fontsize="10",labelfontname="Helvetica",labelfontsize="10"];
  node [fontname="Helvetica",fontsize="10",shape=record];
  Node3 [label="src/static/hil/net\l/mac/mac.h",height=0.2,width=0.4,color="black", fillcolor="grey75", style="filled", fontcolor="black"];
  Node3 -> Node4 [dir="back",color="midnightblue",fontsize="10",style="solid",fontname="Helvetica"];
  Node4 [label="src/dynamic/hil/net\l/mac/csma.h",height=0.2,width=0.4,color="black", fillcolor="white", style="filled",URL="$d3/d33/dynamic_2hil_2net_2mac_2csma_8h.html"];
  Node3 -> Node5 [dir="back",color="midnightblue",fontsize="10",style="solid",fontname="Helvetica"];
  Node5 [label="src/dynamic/hil/net\l/mac/lpp.c",height=0.2,width=0.4,color="black", fillcolor="white", style="filled",URL="$da/d2a/dynamic_2hil_2net_2mac_2lpp_8c.html"];
  Node3 -> Node6 [dir="back",color="midnightblue",fontsize="10",style="solid",fontname="Helvetica"];
  Node6 [label="src/dynamic/hil/net\l/mac/nullmac.h",height=0.2,width=0.4,color="black", fillcolor="white", style="filled",URL="$d4/d9c/dynamic_2hil_2net_2mac_2nullmac_8h.html"];
  Node3 -> Node7 [dir="back",color="midnightblue",fontsize="10",style="solid",fontname="Helvetica"];
  Node7 [label="src/dynamic/hil/net\l/mac/rdc.h",height=0.2,width=0.4,color="black", fillcolor="white", style="filled",URL="$d2/db4/dynamic_2hil_2net_2mac_2rdc_8h.html"];
  Node3 -> Node8 [dir="back",color="midnightblue",fontsize="10",style="solid",fontname="Helvetica"];
  Node8 [label="src/dynamic/hil/net\l/netstack.h",height=0.2,width=0.4,color="black", fillcolor="white", style="filled",URL="$d6/d7a/dynamic_2hil_2net_2netstack_8h.html"];
  Node3 -> Node9 [dir="back",color="midnightblue",fontsize="10",style="solid",fontname="Helvetica"];
  Node9 [label="src/dynamic/hil/net\l/rime/timesynch.h",height=0.2,width=0.4,color="black", fillcolor="white", style="filled",URL="$d8/d78/dynamic_2hil_2net_2rime_2timesynch_8h.html"];
  Node3 -> Node10 [dir="back",color="midnightblue",fontsize="10",style="solid",fontname="Helvetica"];
  Node10 [label="src/dynamic/hil/net\l/rime.c",height=0.2,width=0.4,color="black", fillcolor="white", style="filled",URL="$dd/d1a/dynamic_2hil_2net_2rime_8c.html"];
  Node3 -> Node11 [dir="back",color="midnightblue",fontsize="10",style="solid",fontname="Helvetica"];
  Node11 [label="src/dynamic/hil/net\l/rime.h",height=0.2,width=0.4,color="black", fillcolor="white", style="filled",URL="$dc/d4e/dynamic_2hil_2net_2rime_8h.html"];
  Node3 -> Node12 [dir="back",color="midnightblue",fontsize="10",style="solid",fontname="Helvetica"];
  Node12 [label="src/dynamic/include\l/hil/net/mac/csma.h",height=0.2,width=0.4,color="black", fillcolor="white", style="filled",URL="$d6/dcd/dynamic_2include_2hil_2net_2mac_2csma_8h.html"];
  Node3 -> Node13 [dir="back",color="midnightblue",fontsize="10",style="solid",fontname="Helvetica"];
  Node13 [label="src/dynamic/include\l/hil/net/netstack.h",height=0.2,width=0.4,color="black", fillcolor="white", style="filled",URL="$dd/d18/dynamic_2include_2hil_2net_2netstack_8h.html"];
  Node13 -> Node14 [dir="back",color="midnightblue",fontsize="10",style="solid",fontname="Helvetica"];
  Node14 [label="src/dynamic/net/rime\l/collect.c",height=0.2,width=0.4,color="black", fillcolor="white", style="filled",URL="$d0/d71/dynamic_2net_2rime_2collect_8c.html"];
  Node3 -> Node15 [dir="back",color="midnightblue",fontsize="10",style="solid",fontname="Helvetica"];
  Node15 [label="src/dynamic/include\l/hil/net/rime.h",height=0.2,width=0.4,color="black", fillcolor="white", style="filled",URL="$de/d84/dynamic_2include_2hil_2net_2rime_8h.html"];
  Node15 -> Node16 [dir="back",color="midnightblue",fontsize="10",style="solid",fontname="Helvetica"];
  Node16 [label="src/dynamic/net/rime\l/unicast.c",height=0.2,width=0.4,color="black", fillcolor="white", style="filled",URL="$d8/d42/dynamic_2net_2rime_2unicast_8c.html"];
  Node3 -> Node17 [dir="back",color="midnightblue",fontsize="10",style="solid",fontname="Helvetica"];
  Node17 [label="src/dynamic/net/rime\l/rime-udp.h",height=0.2,width=0.4,color="black", fillcolor="white", style="filled",URL="$d1/d56/dynamic_2net_2rime_2rime-udp_8h.html"];
  Node3 -> Node18 [dir="back",color="midnightblue",fontsize="10",style="solid",fontname="Helvetica"];
  Node18 [label="src/static/hil/net\l/mac/csma.h",height=0.2,width=0.4,color="black", fillcolor="white", style="filled",URL="$de/d1c/static_2hil_2net_2mac_2csma_8h.html"];
  Node18 -> Node19 [dir="back",color="midnightblue",fontsize="10",style="solid",fontname="Helvetica"];
  Node19 [label="src/dynamic/hil/net\l/mac/csma.c",height=0.2,width=0.4,color="black", fillcolor="white", style="filled",URL="$d6/dbe/dynamic_2hil_2net_2mac_2csma_8c.html"];
  Node18 -> Node20 [dir="back",color="midnightblue",fontsize="10",style="solid",fontname="Helvetica"];
  Node20 [label="src/static/hil/net\l/mac/csma.c",height=0.2,width=0.4,color="black", fillcolor="white", style="filled",URL="$d1/d0e/static_2hil_2net_2mac_2csma_8c.html"];
  Node3 -> Node21 [dir="back",color="midnightblue",fontsize="10",style="solid",fontname="Helvetica"];
  Node21 [label="src/static/hil/net\l/mac/lpp.c",height=0.2,width=0.4,color="black", fillcolor="white", style="filled",URL="$d8/d6c/static_2hil_2net_2mac_2lpp_8c.html"];
  Node3 -> Node22 [dir="back",color="midnightblue",fontsize="10",style="solid",fontname="Helvetica"];
  Node22 [label="src/static/hil/net\l/mac/nullmac.h",height=0.2,width=0.4,color="black", fillcolor="white", style="filled",URL="$de/d1b/static_2hil_2net_2mac_2nullmac_8h.html"];
  Node22 -> Node23 [dir="back",color="midnightblue",fontsize="10",style="solid",fontname="Helvetica"];
  Node23 [label="src/dynamic/hil/net\l/mac/nullmac.c",height=0.2,width=0.4,color="black", fillcolor="white", style="filled",URL="$d6/d31/dynamic_2hil_2net_2mac_2nullmac_8c.html"];
  Node22 -> Node24 [dir="back",color="midnightblue",fontsize="10",style="solid",fontname="Helvetica"];
  Node24 [label="src/static/hil/net\l/mac/nullmac.c",height=0.2,width=0.4,color="black", fillcolor="white", style="filled",URL="$df/d3b/static_2hil_2net_2mac_2nullmac_8c.html"];
  Node3 -> Node25 [dir="back",color="midnightblue",fontsize="10",style="solid",fontname="Helvetica"];
  Node25 [label="src/static/hil/net\l/mac/rdc.h",height=0.2,width=0.4,color="black", fillcolor="white", style="filled",URL="$d7/ddd/static_2hil_2net_2mac_2rdc_8h.html"];
  Node25 -> Node26 [dir="back",color="midnightblue",fontsize="10",style="solid",fontname="Helvetica"];
  Node26 [label="src/dynamic/hil/net\l/mac/contikimac.h",height=0.2,width=0.4,color="black", fillcolor="white", style="filled",URL="$dd/d18/dynamic_2hil_2net_2mac_2contikimac_8h.html"];
  Node25 -> Node27 [dir="back",color="midnightblue",fontsize="10",style="solid",fontname="Helvetica"];
  Node27 [label="src/dynamic/hil/net\l/mac/cxmac.h",height=0.2,width=0.4,color="black", fillcolor="white", style="filled",URL="$dd/d3a/dynamic_2hil_2net_2mac_2cxmac_8h.html"];
  Node25 -> Node28 [dir="back",color="midnightblue",fontsize="10",style="solid",fontname="Helvetica"];
  Node28 [label="src/dynamic/hil/net\l/mac/lpp.h",height=0.2,width=0.4,color="black", fillcolor="white", style="filled",URL="$d2/d6c/dynamic_2hil_2net_2mac_2lpp_8h.html"];
  Node25 -> Node29 [dir="back",color="midnightblue",fontsize="10",style="solid",fontname="Helvetica"];
  Node29 [label="src/dynamic/hil/net\l/mac/nullrdc-noframer.h",height=0.2,width=0.4,color="black", fillcolor="white", style="filled",URL="$d4/d70/dynamic_2hil_2net_2mac_2nullrdc-noframer_8h.html"];
  Node25 -> Node30 [dir="back",color="midnightblue",fontsize="10",style="solid",fontname="Helvetica"];
  Node30 [label="src/dynamic/hil/net\l/mac/nullrdc.h",height=0.2,width=0.4,color="black", fillcolor="white", style="filled",URL="$d5/dbc/dynamic_2hil_2net_2mac_2nullrdc_8h.html"];
  Node25 -> Node31 [dir="back",color="midnightblue",fontsize="10",style="solid",fontname="Helvetica"];
  Node31 [label="src/dynamic/hil/net\l/mac/sicslowmac.h",height=0.2,width=0.4,color="black", fillcolor="white", style="filled",URL="$d4/de6/dynamic_2hil_2net_2mac_2sicslowmac_8h.html"];
  Node25 -> Node32 [dir="back",color="midnightblue",fontsize="10",style="solid",fontname="Helvetica"];
  Node32 [label="src/dynamic/hil/net\l/mac/xmac.h",height=0.2,width=0.4,color="black", fillcolor="white", style="filled",URL="$d7/dae/dynamic_2hil_2net_2mac_2xmac_8h.html"];
  Node25 -> Node8 [dir="back",color="midnightblue",fontsize="10",style="solid",fontname="Helvetica"];
  Node25 -> Node33 [dir="back",color="midnightblue",fontsize="10",style="solid",fontname="Helvetica"];
  Node33 [label="src/dynamic/include\l/hil/net/mac/xmac.h",height=0.2,width=0.4,color="black", fillcolor="white", style="filled",URL="$d0/dd5/dynamic_2include_2hil_2net_2mac_2xmac_8h.html"];
  Node25 -> Node13 [dir="back",color="midnightblue",fontsize="10",style="solid",fontname="Helvetica"];
  Node25 -> Node34 [dir="back",color="midnightblue",fontsize="10",style="solid",fontname="Helvetica"];
  Node34 [label="src/static/hil/net\l/mac/contikimac.h",height=0.2,width=0.4,color="red", fillcolor="white", style="filled",URL="$d9/d2a/static_2hil_2net_2mac_2contikimac_8h.html"];
  Node34 -> Node35 [dir="back",color="midnightblue",fontsize="10",style="solid",fontname="Helvetica"];
  Node35 [label="src/dynamic/hil/net\l/mac/contikimac.c",height=0.2,width=0.4,color="black", fillcolor="white", style="filled",URL="$d8/db4/dynamic_2hil_2net_2mac_2contikimac_8c.html"];
  Node25 -> Node37 [dir="back",color="midnightblue",fontsize="10",style="solid",fontname="Helvetica"];
  Node37 [label="src/static/hil/net\l/mac/cxmac.h",height=0.2,width=0.4,color="red", fillcolor="white", style="filled",URL="$d1/dc7/static_2hil_2net_2mac_2cxmac_8h.html"];
  Node37 -> Node38 [dir="back",color="midnightblue",fontsize="10",style="solid",fontname="Helvetica"];
  Node38 [label="src/dynamic/hil/net\l/mac/cxmac.c",height=0.2,width=0.4,color="black", fillcolor="white", style="filled",URL="$d5/d1b/dynamic_2hil_2net_2mac_2cxmac_8c.html"];
  Node25 -> Node40 [dir="back",color="midnightblue",fontsize="10",style="solid",fontname="Helvetica"];
  Node40 [label="src/static/hil/net\l/mac/lpp.h",height=0.2,width=0.4,color="black", fillcolor="white", style="filled",URL="$df/d83/static_2hil_2net_2mac_2lpp_8h.html"];
  Node40 -> Node5 [dir="back",color="midnightblue",fontsize="10",style="solid",fontname="Helvetica"];
  Node40 -> Node21 [dir="back",color="midnightblue",fontsize="10",style="solid",fontname="Helvetica"];
  Node25 -> Node41 [dir="back",color="midnightblue",fontsize="10",style="solid",fontname="Helvetica"];
  Node41 [label="src/static/hil/net\l/mac/nullrdc-noframer.h",height=0.2,width=0.4,color="red", fillcolor="white", style="filled",URL="$d4/dbd/static_2hil_2net_2mac_2nullrdc-noframer_8h.html"];
  Node41 -> Node42 [dir="back",color="midnightblue",fontsize="10",style="solid",fontname="Helvetica"];
  Node42 [label="src/dynamic/hil/net\l/mac/nullrdc-noframer.c",height=0.2,width=0.4,color="black", fillcolor="white", style="filled",URL="$d6/d15/dynamic_2hil_2net_2mac_2nullrdc-noframer_8c.html"];
  Node25 -> Node44 [dir="back",color="midnightblue",fontsize="10",style="solid",fontname="Helvetica"];
  Node44 [label="src/static/hil/net\l/mac/nullrdc.h",height=0.2,width=0.4,color="red", fillcolor="white", style="filled",URL="$da/ded/static_2hil_2net_2mac_2nullrdc_8h.html"];
  Node44 -> Node45 [dir="back",color="midnightblue",fontsize="10",style="solid",fontname="Helvetica"];
  Node45 [label="src/dynamic/hil/net\l/mac/nullrdc.c",height=0.2,width=0.4,color="black", fillcolor="white", style="filled",URL="$d2/da9/dynamic_2hil_2net_2mac_2nullrdc_8c.html"];
  Node25 -> Node47 [dir="back",color="midnightblue",fontsize="10",style="solid",fontname="Helvetica"];
  Node47 [label="src/static/hil/net\l/mac/sicslowmac.h",height=0.2,width=0.4,color="red", fillcolor="white", style="filled",URL="$d7/dc8/static_2hil_2net_2mac_2sicslowmac_8h.html"];
  Node47 -> Node48 [dir="back",color="midnightblue",fontsize="10",style="solid",fontname="Helvetica"];
  Node48 [label="src/dynamic/hil/net\l/mac/sicslowmac.c",height=0.2,width=0.4,color="black", fillcolor="white", style="filled",URL="$dd/def/dynamic_2hil_2net_2mac_2sicslowmac_8c.html"];
  Node25 -> Node50 [dir="back",color="midnightblue",fontsize="10",style="solid",fontname="Helvetica"];
  Node50 [label="src/static/hil/net\l/mac/xmac.h",height=0.2,width=0.4,color="red", fillcolor="white", style="filled",URL="$da/de9/static_2hil_2net_2mac_2xmac_8h.html"];
  Node50 -> Node51 [dir="back",color="midnightblue",fontsize="10",style="solid",fontname="Helvetica"];
  Node51 [label="src/dynamic/hil/net\l/mac/xmac.c",height=0.2,width=0.4,color="black", fillcolor="white", style="filled",URL="$de/d67/dynamic_2hil_2net_2mac_2xmac_8c.html"];
  Node25 -> Node55 [dir="back",color="midnightblue",fontsize="10",style="solid",fontname="Helvetica"];
  Node55 [label="src/static/hil/net\l/netstack.h",height=0.2,width=0.4,color="red", fillcolor="white", style="filled",URL="$d3/d54/static_2hil_2net_2netstack_8h.html"];
  Node55 -> Node35 [dir="back",color="midnightblue",fontsize="10",style="solid",fontname="Helvetica"];
  Node55 -> Node19 [dir="back",color="midnightblue",fontsize="10",style="solid",fontname="Helvetica"];
  Node55 -> Node38 [dir="back",color="midnightblue",fontsize="10",style="solid",fontname="Helvetica"];
  Node55 -> Node5 [dir="back",color="midnightblue",fontsize="10",style="solid",fontname="Helvetica"];
  Node55 -> Node23 [dir="back",color="midnightblue",fontsize="10",style="solid",fontname="Helvetica"];
  Node55 -> Node42 [dir="back",color="midnightblue",fontsize="10",style="solid",fontname="Helvetica"];
  Node55 -> Node45 [dir="back",color="midnightblue",fontsize="10",style="solid",fontname="Helvetica"];
  Node55 -> Node56 [dir="back",color="midnightblue",fontsize="10",style="solid",fontname="Helvetica"];
  Node56 [label="src/dynamic/hil/net\l/mac/phase.h",height=0.2,width=0.4,color="black", fillcolor="white", style="filled",URL="$d8/dea/dynamic_2hil_2net_2mac_2phase_8h.html"];
  Node55 -> Node48 [dir="back",color="midnightblue",fontsize="10",style="solid",fontname="Helvetica"];
  Node55 -> Node51 [dir="back",color="midnightblue",fontsize="10",style="solid",fontname="Helvetica"];
  Node55 -> Node10 [dir="back",color="midnightblue",fontsize="10",style="solid",fontname="Helvetica"];
  Node55 -> Node20 [dir="back",color="midnightblue",fontsize="10",style="solid",fontname="Helvetica"];
  Node55 -> Node21 [dir="back",color="midnightblue",fontsize="10",style="solid",fontname="Helvetica"];
  Node55 -> Node24 [dir="back",color="midnightblue",fontsize="10",style="solid",fontname="Helvetica"];
  Node55 -> Node69 [dir="back",color="midnightblue",fontsize="10",style="solid",fontname="Helvetica"];
  Node69 [label="src/static/hil/net\l/rime.c",height=0.2,width=0.4,color="black", fillcolor="white", style="filled",URL="$d8/d1b/static_2hil_2net_2rime_8c.html"];
  Node3 -> Node55 [dir="back",color="midnightblue",fontsize="10",style="solid",fontname="Helvetica"];
  Node3 -> Node71 [dir="back",color="midnightblue",fontsize="10",style="solid",fontname="Helvetica"];
  Node71 [label="src/static/hil/net\l/rime/timesynch.h",height=0.2,width=0.4,color="red", fillcolor="white", style="filled",URL="$d1/d1c/static_2hil_2net_2rime_2timesynch_8h.html"];
  Node71 -> Node38 [dir="back",color="midnightblue",fontsize="10",style="solid",fontname="Helvetica"];
  Node71 -> Node51 [dir="back",color="midnightblue",fontsize="10",style="solid",fontname="Helvetica"];
  Node3 -> Node69 [dir="back",color="midnightblue",fontsize="10",style="solid",fontname="Helvetica"];
  Node3 -> Node74 [dir="back",color="midnightblue",fontsize="10",style="solid",fontname="Helvetica"];
  Node74 [label="src/static/hil/net\l/rime.h",height=0.2,width=0.4,color="red", fillcolor="white", style="filled",URL="$d3/d0e/static_2hil_2net_2rime_8h.html"];
  Node74 -> Node35 [dir="back",color="midnightblue",fontsize="10",style="solid",fontname="Helvetica"];
  Node74 -> Node38 [dir="back",color="midnightblue",fontsize="10",style="solid",fontname="Helvetica"];
  Node74 -> Node5 [dir="back",color="midnightblue",fontsize="10",style="solid",fontname="Helvetica"];
  Node74 -> Node51 [dir="back",color="midnightblue",fontsize="10",style="solid",fontname="Helvetica"];
  Node74 -> Node10 [dir="back",color="midnightblue",fontsize="10",style="solid",fontname="Helvetica"];
  Node74 -> Node21 [dir="back",color="midnightblue",fontsize="10",style="solid",fontname="Helvetica"];
  Node74 -> Node69 [dir="back",color="midnightblue",fontsize="10",style="solid",fontname="Helvetica"];
  Node3 -> Node106 [dir="back",color="midnightblue",fontsize="10",style="solid",fontname="Helvetica"];
  Node106 [label="src/static/net/rime\l/rime-udp.h",height=0.2,width=0.4,color="red", fillcolor="white", style="filled",URL="$d9/d66/static_2net_2rime_2rime-udp_8h.html"];
}
