digraph "src/static/hil/sys/process/pt.h"
{
  edge [fontname="Helvetica",fontsize="10",labelfontname="Helvetica",labelfontsize="10"];
  node [fontname="Helvetica",fontsize="10",shape=record];
  Node2 [label="src/static/hil/sys\l/process/pt.h",height=0.2,width=0.4,color="black", fillcolor="grey75", style="filled", fontcolor="black"];
  Node2 -> Node3 [dir="back",color="midnightblue",fontsize="10",style="solid",fontname="Helvetica"];
  Node3 [label="src/dynamic/hil/sys\l/process/process.h",height=0.2,width=0.4,color="black", fillcolor="white", style="filled",URL="$d4/db1/dynamic_2hil_2sys_2process_2process_8h.html"];
  Node3 -> Node4 [dir="back",color="midnightblue",fontsize="10",style="solid",fontname="Helvetica"];
  Node4 [label="src/dynamic/hil/contiki.h",height=0.2,width=0.4,color="red", fillcolor="white", style="filled",URL="$d8/dac/dynamic_2hil_2contiki_8h_source.html"];
  Node2 -> Node6 [dir="back",color="midnightblue",fontsize="10",style="solid",fontname="Helvetica"];
  Node6 [label="src/dynamic/hil/net\l/mac/contikimac.c",height=0.2,width=0.4,color="black", fillcolor="white", style="filled",URL="$d8/db4/dynamic_2hil_2net_2mac_2contikimac_8c.html"];
  Node2 -> Node7 [dir="back",color="midnightblue",fontsize="10",style="solid",fontname="Helvetica"];
  Node7 [label="src/dynamic/hil/net\l/mac/cxmac.c",height=0.2,width=0.4,color="black", fillcolor="white", style="filled",URL="$d5/d1b/dynamic_2hil_2net_2mac_2cxmac_8c.html"];
  Node2 -> Node8 [dir="back",color="midnightblue",fontsize="10",style="solid",fontname="Helvetica"];
  Node8 [label="src/dynamic/hil/net\l/mac/xmac.c",height=0.2,width=0.4,color="black", fillcolor="white", style="filled",URL="$de/d67/dynamic_2hil_2net_2mac_2xmac_8c.html"];
  Node2 -> Node9 [dir="back",color="midnightblue",fontsize="10",style="solid",fontname="Helvetica"];
  Node9 [label="src/dynamic/include\l/hil/sys/process/process.h",height=0.2,width=0.4,color="black", fillcolor="white", style="filled",URL="$df/d3d/dynamic_2include_2hil_2sys_2process_2process_8h.html"];
  Node9 -> Node10 [dir="back",color="midnightblue",fontsize="10",style="solid",fontname="Helvetica"];
  Node10 [label="src/dynamic/examples\l/rime/example-abc.c",height=0.2,width=0.4,color="black", fillcolor="white", style="filled",URL="$d3/dc7/dynamic_2examples_2rime_2example-abc_8c.html"];
  Node9 -> Node11 [dir="back",color="midnightblue",fontsize="10",style="solid",fontname="Helvetica"];
  Node11 [label="src/dynamic/examples\l/rime/example-announcement.c",height=0.2,width=0.4,color="black", fillcolor="white", style="filled",URL="$dc/d0d/dynamic_2examples_2rime_2example-announcement_8c.html"];
  Node9 -> Node12 [dir="back",color="midnightblue",fontsize="10",style="solid",fontname="Helvetica"];
  Node12 [label="src/dynamic/examples\l/rime/example-broadcast.c",height=0.2,width=0.4,color="black", fillcolor="white", style="filled",URL="$d5/df5/dynamic_2examples_2rime_2example-broadcast_8c.html"];
  Node9 -> Node13 [dir="back",color="midnightblue",fontsize="10",style="solid",fontname="Helvetica"];
  Node13 [label="src/dynamic/examples\l/rime/example-collect.c",height=0.2,width=0.4,color="black", fillcolor="white", style="filled",URL="$d5/d78/dynamic_2examples_2rime_2example-collect_8c.html"];
  Node9 -> Node14 [dir="back",color="midnightblue",fontsize="10",style="solid",fontname="Helvetica"];
  Node14 [label="src/dynamic/examples\l/rime/example-mesh.c",height=0.2,width=0.4,color="black", fillcolor="white", style="filled",URL="$d3/de7/dynamic_2examples_2rime_2example-mesh_8c.html"];
  Node9 -> Node15 [dir="back",color="midnightblue",fontsize="10",style="solid",fontname="Helvetica"];
  Node15 [label="src/dynamic/examples\l/rime/example-multihop.c",height=0.2,width=0.4,color="black", fillcolor="white", style="filled",URL="$d2/db7/dynamic_2examples_2rime_2example-multihop_8c.html"];
  Node9 -> Node16 [dir="back",color="midnightblue",fontsize="10",style="solid",fontname="Helvetica"];
  Node16 [label="src/dynamic/examples\l/rime/example-neighbors.c",height=0.2,width=0.4,color="black", fillcolor="white", style="filled",URL="$d5/dd4/dynamic_2examples_2rime_2example-neighbors_8c.html"];
  Node9 -> Node17 [dir="back",color="midnightblue",fontsize="10",style="solid",fontname="Helvetica"];
  Node17 [label="src/dynamic/examples\l/rime/example-rucb.c",height=0.2,width=0.4,color="black", fillcolor="white", style="filled",URL="$d1/d97/dynamic_2examples_2rime_2example-rucb_8c.html"];
  Node9 -> Node18 [dir="back",color="midnightblue",fontsize="10",style="solid",fontname="Helvetica"];
  Node18 [label="src/dynamic/examples\l/rime/example-rudolph0.c",height=0.2,width=0.4,color="black", fillcolor="white", style="filled",URL="$d5/d9c/dynamic_2examples_2rime_2example-rudolph0_8c.html"];
  Node9 -> Node19 [dir="back",color="midnightblue",fontsize="10",style="solid",fontname="Helvetica"];
  Node19 [label="src/dynamic/examples\l/rime/example-rudolph1.c",height=0.2,width=0.4,color="black", fillcolor="white", style="filled",URL="$d8/dc6/dynamic_2examples_2rime_2example-rudolph1_8c.html"];
  Node9 -> Node20 [dir="back",color="midnightblue",fontsize="10",style="solid",fontname="Helvetica"];
  Node20 [label="src/dynamic/examples\l/rime/example-rudolph2.c",height=0.2,width=0.4,color="black", fillcolor="white", style="filled",URL="$d1/d01/dynamic_2examples_2rime_2example-rudolph2_8c.html"];
  Node9 -> Node21 [dir="back",color="midnightblue",fontsize="10",style="solid",fontname="Helvetica"];
  Node21 [label="src/dynamic/examples\l/rime/example-runicast.c",height=0.2,width=0.4,color="black", fillcolor="white", style="filled",URL="$d8/df8/dynamic_2examples_2rime_2example-runicast_8c.html"];
  Node9 -> Node22 [dir="back",color="midnightblue",fontsize="10",style="solid",fontname="Helvetica"];
  Node22 [label="src/dynamic/examples\l/rime/example-trickle.c",height=0.2,width=0.4,color="black", fillcolor="white", style="filled",URL="$d5/db8/dynamic_2examples_2rime_2example-trickle_8c.html"];
  Node9 -> Node23 [dir="back",color="midnightblue",fontsize="10",style="solid",fontname="Helvetica"];
  Node23 [label="src/dynamic/examples\l/rime/example-unicast.c",height=0.2,width=0.4,color="black", fillcolor="white", style="filled",URL="$db/d4e/dynamic_2examples_2rime_2example-unicast_8c.html"];
  Node9 -> Node24 [dir="back",color="midnightblue",fontsize="10",style="solid",fontname="Helvetica"];
  Node24 [label="src/dynamic/include\l/hil/dev/sensors.h",height=0.2,width=0.4,color="red", fillcolor="white", style="filled",URL="$d9/d0b/dynamic_2include_2hil_2dev_2sensors_8h_source.html"];
  Node9 -> Node26 [dir="back",color="midnightblue",fontsize="10",style="solid",fontname="Helvetica"];
  Node26 [label="src/dynamic/include\l/hil/dev/serial-line.h",height=0.2,width=0.4,color="black", fillcolor="white", style="filled",URL="$df/d00/dynamic_2include_2hil_2dev_2serial-line_8h.html"];
  Node9 -> Node27 [dir="back",color="midnightblue",fontsize="10",style="solid",fontname="Helvetica"];
  Node27 [label="src/dynamic/include\l/hil/sys/process/autostart.h",height=0.2,width=0.4,color="black", fillcolor="white", style="filled",URL="$d7/d64/dynamic_2include_2hil_2sys_2process_2autostart_8h.html"];
  Node27 -> Node10 [dir="back",color="midnightblue",fontsize="10",style="solid",fontname="Helvetica"];
  Node27 -> Node11 [dir="back",color="midnightblue",fontsize="10",style="solid",fontname="Helvetica"];
  Node27 -> Node12 [dir="back",color="midnightblue",fontsize="10",style="solid",fontname="Helvetica"];
  Node27 -> Node13 [dir="back",color="midnightblue",fontsize="10",style="solid",fontname="Helvetica"];
  Node27 -> Node14 [dir="back",color="midnightblue",fontsize="10",style="solid",fontname="Helvetica"];
  Node27 -> Node15 [dir="back",color="midnightblue",fontsize="10",style="solid",fontname="Helvetica"];
  Node27 -> Node16 [dir="back",color="midnightblue",fontsize="10",style="solid",fontname="Helvetica"];
  Node27 -> Node17 [dir="back",color="midnightblue",fontsize="10",style="solid",fontname="Helvetica"];
  Node27 -> Node18 [dir="back",color="midnightblue",fontsize="10",style="solid",fontname="Helvetica"];
  Node27 -> Node19 [dir="back",color="midnightblue",fontsize="10",style="solid",fontname="Helvetica"];
  Node27 -> Node20 [dir="back",color="midnightblue",fontsize="10",style="solid",fontname="Helvetica"];
  Node27 -> Node21 [dir="back",color="midnightblue",fontsize="10",style="solid",fontname="Helvetica"];
  Node27 -> Node22 [dir="back",color="midnightblue",fontsize="10",style="solid",fontname="Helvetica"];
  Node27 -> Node23 [dir="back",color="midnightblue",fontsize="10",style="solid",fontname="Helvetica"];
  Node9 -> Node28 [dir="back",color="midnightblue",fontsize="10",style="solid",fontname="Helvetica"];
  Node28 [label="src/dynamic/include\l/hil/sys/timer/etimer.h",height=0.2,width=0.4,color="red", fillcolor="white", style="filled",URL="$df/da3/dynamic_2include_2hil_2sys_2timer_2etimer_8h.html"];
  Node28 -> Node10 [dir="back",color="midnightblue",fontsize="10",style="solid",fontname="Helvetica"];
  Node28 -> Node11 [dir="back",color="midnightblue",fontsize="10",style="solid",fontname="Helvetica"];
  Node28 -> Node12 [dir="back",color="midnightblue",fontsize="10",style="solid",fontname="Helvetica"];
  Node28 -> Node13 [dir="back",color="midnightblue",fontsize="10",style="solid",fontname="Helvetica"];
  Node28 -> Node16 [dir="back",color="midnightblue",fontsize="10",style="solid",fontname="Helvetica"];
  Node28 -> Node21 [dir="back",color="midnightblue",fontsize="10",style="solid",fontname="Helvetica"];
  Node28 -> Node23 [dir="back",color="midnightblue",fontsize="10",style="solid",fontname="Helvetica"];
  Node2 -> Node71 [dir="back",color="midnightblue",fontsize="10",style="solid",fontname="Helvetica"];
  Node71 [label="src/static/hil/sys\l/process/process.h",height=0.2,width=0.4,color="red", fillcolor="white", style="filled",URL="$dd/d60/static_2hil_2sys_2process_2process_8h.html"];
  Node71 -> Node72 [dir="back",color="midnightblue",fontsize="10",style="solid",fontname="Helvetica"];
  Node72 [label="src/dynamic/hal/cpu\l/msp430/f1xxx/rtimer\l-arch.c",height=0.2,width=0.4,color="black", fillcolor="white", style="filled",URL="$dd/db8/dynamic_2hal_2cpu_2msp430_2f1xxx_2rtimer-arch_8c.html"];
  Node71 -> Node73 [dir="back",color="midnightblue",fontsize="10",style="solid",fontname="Helvetica"];
  Node73 [label="src/dynamic/hal/cpu\l/msp430/f5xxx/rtimer\l-arch.c",height=0.2,width=0.4,color="black", fillcolor="white", style="filled",URL="$d8/d44/dynamic_2hal_2cpu_2msp430_2f5xxx_2rtimer-arch_8c.html"];
  Node71 -> Node74 [dir="back",color="midnightblue",fontsize="10",style="solid",fontname="Helvetica"];
  Node74 [label="src/dynamic/hil/sys\l/process/autostart.h",height=0.2,width=0.4,color="black", fillcolor="white", style="filled",URL="$dd/d29/dynamic_2hil_2sys_2process_2autostart_8h.html"];
  Node74 -> Node4 [dir="back",color="midnightblue",fontsize="10",style="solid",fontname="Helvetica"];
  Node71 -> Node75 [dir="back",color="midnightblue",fontsize="10",style="solid",fontname="Helvetica"];
  Node75 [label="src/dynamic/hil/sys\l/timer/etimer.h",height=0.2,width=0.4,color="black", fillcolor="white", style="filled",URL="$df/d32/dynamic_2hil_2sys_2timer_2etimer_8h.html"];
  Node75 -> Node4 [dir="back",color="midnightblue",fontsize="10",style="solid",fontname="Helvetica"];
  Node71 -> Node76 [dir="back",color="midnightblue",fontsize="10",style="solid",fontname="Helvetica"];
  Node76 [label="src/dynamic/hil/dev\l/sensors.h",height=0.2,width=0.4,color="black", fillcolor="white", style="filled",URL="$d1/dac/dynamic_2hil_2dev_2sensors_8h_source.html"];
  Node71 -> Node77 [dir="back",color="midnightblue",fontsize="10",style="solid",fontname="Helvetica"];
  Node77 [label="src/dynamic/hil/dev\l/serial-line.h",height=0.2,width=0.4,color="black", fillcolor="white", style="filled",URL="$d2/d4c/dynamic_2hil_2dev_2serial-line_8h.html"];
  Node71 -> Node78 [dir="back",color="midnightblue",fontsize="10",style="solid",fontname="Helvetica"];
  Node78 [label="src/dynamic/hil/sys\l/process/process.c",height=0.2,width=0.4,color="black", fillcolor="white", style="filled",URL="$d4/d90/dynamic_2hil_2sys_2process_2process_8c.html"];
  Node71 -> Node79 [dir="back",color="midnightblue",fontsize="10",style="solid",fontname="Helvetica"];
  Node79 [label="src/dynamic/hil/sys\l/timer/etimer.c",height=0.2,width=0.4,color="black", fillcolor="white", style="filled",URL="$df/da2/dynamic_2hil_2sys_2timer_2etimer_8c.html"];
  Node71 -> Node80 [dir="back",color="midnightblue",fontsize="10",style="solid",fontname="Helvetica"];
  Node80 [label="src/dynamic/include\l/hil/sys/process/process\l-object.h",height=0.2,width=0.4,color="red", fillcolor="white", style="filled",URL="$df/dc5/process-object_8h_source.html"];
  Node71 -> Node84 [dir="back",color="midnightblue",fontsize="10",style="solid",fontname="Helvetica"];
  Node84 [label="src/static/examples\l/rime/example-abc.c",height=0.2,width=0.4,color="black", fillcolor="white", style="filled",URL="$d8/d63/static_2examples_2rime_2example-abc_8c.html"];
  Node71 -> Node85 [dir="back",color="midnightblue",fontsize="10",style="solid",fontname="Helvetica"];
  Node85 [label="src/static/examples\l/rime/example-announcement.c",height=0.2,width=0.4,color="black", fillcolor="white", style="filled",URL="$d2/d2c/static_2examples_2rime_2example-announcement_8c.html"];
  Node71 -> Node86 [dir="back",color="midnightblue",fontsize="10",style="solid",fontname="Helvetica"];
  Node86 [label="src/static/examples\l/rime/example-broadcast.c",height=0.2,width=0.4,color="black", fillcolor="white", style="filled",URL="$d9/d8e/static_2examples_2rime_2example-broadcast_8c.html"];
  Node71 -> Node87 [dir="back",color="midnightblue",fontsize="10",style="solid",fontname="Helvetica"];
  Node87 [label="src/static/examples\l/rime/example-collect.c",height=0.2,width=0.4,color="black", fillcolor="white", style="filled",URL="$d5/d25/static_2examples_2rime_2example-collect_8c.html"];
  Node71 -> Node88 [dir="back",color="midnightblue",fontsize="10",style="solid",fontname="Helvetica"];
  Node88 [label="src/static/examples\l/rime/example-mesh.c",height=0.2,width=0.4,color="black", fillcolor="white", style="filled",URL="$d8/d68/static_2examples_2rime_2example-mesh_8c.html"];
  Node71 -> Node89 [dir="back",color="midnightblue",fontsize="10",style="solid",fontname="Helvetica"];
  Node89 [label="src/static/examples\l/rime/example-multihop.c",height=0.2,width=0.4,color="black", fillcolor="white", style="filled",URL="$d5/d0b/static_2examples_2rime_2example-multihop_8c.html"];
  Node71 -> Node90 [dir="back",color="midnightblue",fontsize="10",style="solid",fontname="Helvetica"];
  Node90 [label="src/static/examples\l/rime/example-neighbors.c",height=0.2,width=0.4,color="black", fillcolor="white", style="filled",URL="$dd/da1/static_2examples_2rime_2example-neighbors_8c.html"];
  Node71 -> Node91 [dir="back",color="midnightblue",fontsize="10",style="solid",fontname="Helvetica"];
  Node91 [label="src/static/examples\l/rime/example-rucb.c",height=0.2,width=0.4,color="black", fillcolor="white", style="filled",URL="$dc/dd4/static_2examples_2rime_2example-rucb_8c.html"];
  Node71 -> Node92 [dir="back",color="midnightblue",fontsize="10",style="solid",fontname="Helvetica"];
  Node92 [label="src/static/examples\l/rime/example-rudolph0.c",height=0.2,width=0.4,color="black", fillcolor="white", style="filled",URL="$df/dc2/static_2examples_2rime_2example-rudolph0_8c.html"];
  Node71 -> Node93 [dir="back",color="midnightblue",fontsize="10",style="solid",fontname="Helvetica"];
  Node93 [label="src/static/examples\l/rime/example-rudolph1.c",height=0.2,width=0.4,color="black", fillcolor="white", style="filled",URL="$de/dae/static_2examples_2rime_2example-rudolph1_8c.html"];
  Node71 -> Node94 [dir="back",color="midnightblue",fontsize="10",style="solid",fontname="Helvetica"];
  Node94 [label="src/static/examples\l/rime/example-rudolph2.c",height=0.2,width=0.4,color="black", fillcolor="white", style="filled",URL="$d9/d18/static_2examples_2rime_2example-rudolph2_8c.html"];
  Node71 -> Node100 [dir="back",color="midnightblue",fontsize="10",style="solid",fontname="Helvetica"];
  Node100 [label="src/static/hil/contiki.h",height=0.2,width=0.4,color="red", fillcolor="white", style="filled",URL="$d4/db8/static_2hil_2contiki_8h_source.html"];
  Node100 -> Node72 [dir="back",color="midnightblue",fontsize="10",style="solid",fontname="Helvetica"];
  Node100 -> Node73 [dir="back",color="midnightblue",fontsize="10",style="solid",fontname="Helvetica"];
  Node2 -> Node100 [dir="back",color="midnightblue",fontsize="10",style="solid",fontname="Helvetica"];
  Node2 -> Node229 [dir="back",color="midnightblue",fontsize="10",style="solid",fontname="Helvetica"];
  Node229 [label="src/static/hil/net\l/mac/contikimac.c",height=0.2,width=0.4,color="black", fillcolor="white", style="filled",URL="$da/dde/static_2hil_2net_2mac_2contikimac_8c.html"];
  Node2 -> Node231 [dir="back",color="midnightblue",fontsize="10",style="solid",fontname="Helvetica"];
  Node231 [label="src/static/hil/net\l/mac/cxmac.c",height=0.2,width=0.4,color="black", fillcolor="white", style="filled",URL="$dc/d15/static_2hil_2net_2mac_2cxmac_8c.html"];
  Node2 -> Node317 [dir="back",color="midnightblue",fontsize="10",style="solid",fontname="Helvetica"];
  Node317 [label="src/static/hil/net\l/mac/xmac.c",height=0.2,width=0.4,color="black", fillcolor="white", style="filled",URL="$dd/d35/static_2hil_2net_2mac_2xmac_8c.html"];
}
