digraph "hil_component_db_entry"
{
  edge [fontname="Helvetica",fontsize="10",labelfontname="Helvetica",labelfontsize="10"];
  node [fontname="Helvetica",fontsize="10",shape=record];
  Node1 [label="hil_component_db_entry",height=0.2,width=0.4,color="black", fillcolor="grey75", style="filled", fontcolor="black"];
  Node2 -> Node1 [dir="back",color="darkorchid3",fontsize="10",style="dashed",label=" cmp_ref" ,fontname="Helvetica"];
  Node2 [label="hil_cmp_object",height=0.2,width=0.4,color="black", fillcolor="white", style="filled",URL="$d6/ddd/structhil__cmp__object.html",tooltip="HIL component object structure. "];
  Node3 -> Node2 [dir="back",color="darkorchid3",fontsize="10",style="dashed",label=" interface" ,fontname="Helvetica"];
  Node3 [label="cmp_interface",height=0.2,width=0.4,color="black", fillcolor="white", style="filled",URL="$db/d85/structcmp__interface.html",tooltip="Component interface structure. "];
}
