digraph "Multi-threading library"
{
  edge [fontname="Helvetica",fontsize="10",labelfontname="Helvetica",labelfontsize="10"];
  node [fontname="Helvetica",fontsize="10",shape=record];
  rankdir=LR;
  Node2 [label="Architecture support\l for multi-threading",height=0.2,width=0.4,color="black", fillcolor="white", style="filled",URL="$df/d5a/group__mtarch.html"];
  Node1 [label="Sys",height=0.2,width=0.4,color="black", fillcolor="white", style="filled",URL="$d8/d14/group__sys.html"];
  Node0 [label="Multi-threading library",height=0.2,width=0.4,color="black", fillcolor="grey75", style="filled", fontcolor="black"];
  Node1->Node0 [shape=plaintext, dir="back", style="solid"];
  Node0->Node2 [shape=plaintext, dir="back", style="solid"];
}
