digraph "src/dynamic/hil/sys/process/autostart.h"
{
  edge [fontname="Helvetica",fontsize="10",labelfontname="Helvetica",labelfontsize="10"];
  node [fontname="Helvetica",fontsize="10",shape=record];
  Node2 [label="src/dynamic/hil/sys\l/process/autostart.h",height=0.2,width=0.4,color="black", fillcolor="grey75", style="filled", fontcolor="black"];
  Node2 -> Node3 [dir="back",color="midnightblue",fontsize="10",style="solid",fontname="Helvetica"];
  Node3 [label="src/dynamic/hil/contiki.h",height=0.2,width=0.4,color="black", fillcolor="white", style="filled",URL="$d8/dac/dynamic_2hil_2contiki_8h_source.html"];
  Node3 -> Node4 [dir="back",color="midnightblue",fontsize="10",style="solid",fontname="Helvetica"];
  Node4 [label="src/dynamic/hil/contiki\l-lib.h",height=0.2,width=0.4,color="black", fillcolor="white", style="filled",URL="$d9/de9/dynamic_2hil_2contiki-lib_8h_source.html"];
}
