digraph "src/dynamic" {
  compound=true
  node [ fontsize="10", fontname="Helvetica"];
  edge [ labelfontsize="10", labelfontname="Helvetica"];
  subgraph clusterdir_68267d1309a1af8e8297ef4c3efbcdba {
    graph [ bgcolor="#ddddee", pencolor="black", label="src" fontname="Helvetica", fontsize="10", URL="dir_68267d1309a1af8e8297ef4c3efbcdba.html"]
  subgraph clusterdir_101da30fc6c118b726c448f5a6ab9e53 {
    graph [ bgcolor="#eeeeff", pencolor="black", label="" URL="dir_101da30fc6c118b726c448f5a6ab9e53.html"];
    dir_101da30fc6c118b726c448f5a6ab9e53 [shape=plaintext label="dynamic"];
    dir_b877b59531d5f14f94df70386d1545cc [shape=box label="kernel" color="red" fillcolor="white" style="filled" URL="dir_b877b59531d5f14f94df70386d1545cc.html"];
  }
  }
}
