digraph "build/dynamic/firmware" {
  compound=true
  node [ fontsize="10", fontname="Helvetica"];
  edge [ labelfontsize="10", labelfontname="Helvetica"];
  subgraph clusterdir_760cdf123756a6a3f1941001169c81dc {
    graph [ bgcolor="#ddddee", pencolor="black", label="dynamic" fontname="Helvetica", fontsize="10", URL="dir_760cdf123756a6a3f1941001169c81dc.html"]
  subgraph clusterdir_e760287ae03403d8a38eec912a555487 {
    graph [ bgcolor="#eeeeff", pencolor="black", label="" URL="dir_e760287ae03403d8a38eec912a555487.html"];
    dir_e760287ae03403d8a38eec912a555487 [shape=plaintext label="firmware"];
    dir_c5f50a5baa1b1a66263397faca4000bd [shape=box label="example-mesh-collect" color="black" fillcolor="white" style="filled" URL="dir_c5f50a5baa1b1a66263397faca4000bd.html"];
    dir_de58bb0957dcff22bb04ee20e50e9c16 [shape=box label="example-rime-all" color="black" fillcolor="white" style="filled" URL="dir_de58bb0957dcff22bb04ee20e50e9c16.html"];
  }
  }
  dir_68267d1309a1af8e8297ef4c3efbcdba [shape=box label="src" fillcolor="white" style="filled" color="red" URL="dir_68267d1309a1af8e8297ef4c3efbcdba.html"];
  dir_c5f50a5baa1b1a66263397faca4000bd->dir_68267d1309a1af8e8297ef4c3efbcdba [headlabel="1", labeldistance=1.5 headhref="dir_000003_000007.html"];
  dir_de58bb0957dcff22bb04ee20e50e9c16->dir_68267d1309a1af8e8297ef4c3efbcdba [headlabel="1", labeldistance=1.5 headhref="dir_000004_000007.html"];
}
