digraph "src/dynamic/net" {
  compound=true
  node [ fontsize="10", fontname="Helvetica"];
  edge [ labelfontsize="10", labelfontname="Helvetica"];
  subgraph clusterdir_101da30fc6c118b726c448f5a6ab9e53 {
    graph [ bgcolor="#ddddee", pencolor="black", label="dynamic" fontname="Helvetica", fontsize="10", URL="dir_101da30fc6c118b726c448f5a6ab9e53.html"]
  subgraph clusterdir_31161edbbfba4cd2c5287213db28ef2b {
    graph [ bgcolor="#eeeeff", pencolor="black", label="" URL="dir_31161edbbfba4cd2c5287213db28ef2b.html"];
    dir_31161edbbfba4cd2c5287213db28ef2b [shape=plaintext label="net"];
    dir_96c0503c4fe1ab973dc3134997a43cd8 [shape=box label="rime" color="black" fillcolor="white" style="filled" URL="dir_96c0503c4fe1ab973dc3134997a43cd8.html"];
  }
  }
  dir_ad2be80b59157cf87c36c4b74bb132a7 [shape=box label="include" fillcolor="white" style="filled" color="red" URL="dir_ad2be80b59157cf87c36c4b74bb132a7.html"];
  dir_96c0503c4fe1ab973dc3134997a43cd8->dir_ad2be80b59157cf87c36c4b74bb132a7 [headlabel="85", labeldistance=1.5 headhref="dir_000150_000007.html"];
}
