digraph "src/dynamic/kernel" {
  compound=true
  node [ fontsize="10", fontname="Helvetica"];
  edge [ labelfontsize="10", labelfontname="Helvetica"];
  subgraph clusterdir_101da30fc6c118b726c448f5a6ab9e53 {
    graph [ bgcolor="#ddddee", pencolor="black", label="dynamic" fontname="Helvetica", fontsize="10", URL="dir_101da30fc6c118b726c448f5a6ab9e53.html"]
  subgraph clusterdir_b877b59531d5f14f94df70386d1545cc {
    graph [ bgcolor="#eeeeff", pencolor="black", label="" URL="dir_b877b59531d5f14f94df70386d1545cc.html"];
    dir_b877b59531d5f14f94df70386d1545cc [shape=plaintext label="kernel"];
    dir_7f19dde799be114780b8037b07663a29 [shape=box label="component-facade" color="black" fillcolor="white" style="filled" URL="dir_7f19dde799be114780b8037b07663a29.html"];
    dir_e83dab73db327821e64b86eab119ca5b [shape=box label="core" color="red" fillcolor="white" style="filled" URL="dir_e83dab73db327821e64b86eab119ca5b.html"];
    dir_45faf229a860241b0084848546120a29 [shape=box label="system-facade" color="black" fillcolor="white" style="filled" URL="dir_45faf229a860241b0084848546120a29.html"];
  }
  }
  dir_45faf229a860241b0084848546120a29->dir_e83dab73db327821e64b86eab119ca5b [headlabel="9", labeldistance=1.5 headhref="dir_000013_000011.html"];
  dir_e83dab73db327821e64b86eab119ca5b->dir_45faf229a860241b0084848546120a29 [headlabel="1", labeldistance=1.5 headhref="dir_000011_000013.html"];
  dir_e83dab73db327821e64b86eab119ca5b->dir_7f19dde799be114780b8037b07663a29 [headlabel="1", labeldistance=1.5 headhref="dir_000011_000010.html"];
  dir_7f19dde799be114780b8037b07663a29->dir_e83dab73db327821e64b86eab119ca5b [headlabel="2", labeldistance=1.5 headhref="dir_000010_000011.html"];
}
