digraph "src/dynamic/kernel/component-facade" {
  compound=true
  node [ fontsize="10", fontname="Helvetica"];
  edge [ labelfontsize="10", labelfontname="Helvetica"];
  subgraph clusterdir_b877b59531d5f14f94df70386d1545cc {
    graph [ bgcolor="#ddddee", pencolor="black", label="kernel" fontname="Helvetica", fontsize="10", URL="dir_b877b59531d5f14f94df70386d1545cc.html"]
  dir_7f19dde799be114780b8037b07663a29 [shape=box, label="component-facade", style="filled", fillcolor="#eeeeff", pencolor="black", URL="dir_7f19dde799be114780b8037b07663a29.html"];
  }
  dir_e83dab73db327821e64b86eab119ca5b [shape=box label="core" fillcolor="white" style="filled" color="red" URL="dir_e83dab73db327821e64b86eab119ca5b.html"];
  dir_7f19dde799be114780b8037b07663a29->dir_e83dab73db327821e64b86eab119ca5b [headlabel="2", labeldistance=1.5 headhref="dir_000010_000011.html"];
}
