digraph "src/dynamic/hil" {
  compound=true
  node [ fontsize="10", fontname="Helvetica"];
  edge [ labelfontsize="10", labelfontname="Helvetica"];
  subgraph clusterdir_101da30fc6c118b726c448f5a6ab9e53 {
    graph [ bgcolor="#ddddee", pencolor="black", label="dynamic" fontname="Helvetica", fontsize="10", URL="dir_101da30fc6c118b726c448f5a6ab9e53.html"]
  subgraph clusterdir_a2cf22eaa276e5def284f5e47f1c5114 {
    graph [ bgcolor="#eeeeff", pencolor="black", label="" URL="dir_a2cf22eaa276e5def284f5e47f1c5114.html"];
    dir_a2cf22eaa276e5def284f5e47f1c5114 [shape=plaintext label="hil"];
    dir_56c789190f4bee1ef3b7314385d3a718 [shape=box label="dev" color="black" fillcolor="white" style="filled" URL="dir_56c789190f4bee1ef3b7314385d3a718.html"];
    dir_49e1f9f90a2ef266649f11af391833cb [shape=box label="lib" color="red" fillcolor="white" style="filled" URL="dir_49e1f9f90a2ef266649f11af391833cb.html"];
    dir_fbbf948186256f27f6f1a46e5e6af502 [shape=box label="net" color="red" fillcolor="white" style="filled" URL="dir_fbbf948186256f27f6f1a46e5e6af502.html"];
    dir_bbde05f52f8dd1c41a9a249e6acb1f98 [shape=box label="sys" color="red" fillcolor="white" style="filled" URL="dir_bbde05f52f8dd1c41a9a249e6acb1f98.html"];
    dir_ce623bfbba9da1ed70d677f9037a6cf0 [shape=box label="types" color="black" fillcolor="white" style="filled" URL="dir_ce623bfbba9da1ed70d677f9037a6cf0.html"];
  }
  }
  dir_a2cf22eaa276e5def284f5e47f1c5114->dir_49e1f9f90a2ef266649f11af391833cb [headlabel="2", labeldistance=1.5 headhref="dir_000091_000105.html"];
  dir_a2cf22eaa276e5def284f5e47f1c5114->dir_bbde05f52f8dd1c41a9a249e6acb1f98 [headlabel="7", labeldistance=1.5 headhref="dir_000091_000128.html"];
}
