digraph "Graphical Class Hierarchy"
{
  edge [fontname="Helvetica",fontsize="10",labelfontname="Helvetica",labelfontsize="10"];
  node [fontname="Helvetica",fontsize="10",shape=record];
  rankdir="LR";
  Node0 [label="rudolph0_callbacks",height=0.2,width=0.4,color="black", fillcolor="white", style="filled",URL="$d7/db3/structrudolph0__callbacks.html"];
}
