digraph "Graphical Class Hierarchy"
{
  edge [fontname="Helvetica",fontsize="10",labelfontname="Helvetica",labelfontsize="10"];
  node [fontname="Helvetica",fontsize="10",shape=record];
  rankdir="LR";
  Node0 [label="cle_info",height=0.2,width=0.4,color="black", fillcolor="white", style="filled",URL="$d5/dab/structcle__info.html"];
}
