digraph "src/dynamic/hil/sys/timer/stimer.c"
{
  edge [fontname="Helvetica",fontsize="10",labelfontname="Helvetica",labelfontsize="10"];
  node [fontname="Helvetica",fontsize="10",shape=record];
  Node0 [label="src/dynamic/hil/sys\l/timer/stimer.c",height=0.2,width=0.4,color="black", fillcolor="grey75", style="filled", fontcolor="black"];
  Node0 -> Node1 [color="midnightblue",fontsize="10",style="solid",fontname="Helvetica"];
  Node1 [label="contiki-conf.h",height=0.2,width=0.4,color="grey75", fillcolor="white", style="filled"];
  Node0 -> Node2 [color="midnightblue",fontsize="10",style="solid",fontname="Helvetica"];
  Node2 [label="sys/timer/clock.h",height=0.2,width=0.4,color="grey75", fillcolor="white", style="filled"];
  Node0 -> Node3 [color="midnightblue",fontsize="10",style="solid",fontname="Helvetica"];
  Node3 [label="sys/timer/stimer.h",height=0.2,width=0.4,color="grey75", fillcolor="white", style="filled"];
}
