digraph "Linked list library"
{
  edge [fontname="Helvetica",fontsize="10",labelfontname="Helvetica",labelfontsize="10"];
  node [fontname="Helvetica",fontsize="10",shape=record];
  rankdir=LR;
  Node0 [label="Linked list library",height=0.2,width=0.4,color="black", fillcolor="grey75", style="filled", fontcolor="black"];
  Node1 [label="Lib",height=0.2,width=0.4,color="black", fillcolor="white", style="filled",URL="$d1/dfb/group__lib.html"];
  Node1->Node0 [shape=plaintext, dir="back", style="solid"];
}
