digraph "src/static/hil/sys/process/pt.h"
{
  edge [fontname="Helvetica",fontsize="10",labelfontname="Helvetica",labelfontsize="10"];
  node [fontname="Helvetica",fontsize="10",shape=record];
  Node0 [label="src/static/hil/sys\l/process/pt.h",height=0.2,width=0.4,color="black", fillcolor="grey75", style="filled", fontcolor="black"];
  Node0 -> Node1 [color="midnightblue",fontsize="10",style="solid",fontname="Helvetica"];
  Node1 [label="sys/process/lc.h",height=0.2,width=0.4,color="grey75", fillcolor="white", style="filled"];
}
