digraph "src/static/hil/net/rime/packetqueue.h"
{
  edge [fontname="Helvetica",fontsize="10",labelfontname="Helvetica",labelfontsize="10"];
  node [fontname="Helvetica",fontsize="10",shape=record];
  Node6 [label="src/static/hil/net\l/rime/packetqueue.h",height=0.2,width=0.4,color="black", fillcolor="grey75", style="filled", fontcolor="black"];
  Node6 -> Node7 [dir="back",color="midnightblue",fontsize="10",style="solid",fontname="Helvetica"];
  Node7 [label="src/dynamic/hil/net\l/rime/packetqueue.c",height=0.2,width=0.4,color="black", fillcolor="white", style="filled",URL="$d8/da4/dynamic_2hil_2net_2rime_2packetqueue_8c.html"];
  Node6 -> Node8 [dir="back",color="midnightblue",fontsize="10",style="solid",fontname="Helvetica"];
  Node8 [label="src/dynamic/include\l/hil/net/rime/packetqueue\l-object.h",height=0.2,width=0.4,color="black", fillcolor="white", style="filled",URL="$d9/d3d/packetqueue-object_8h_source.html"];
  Node8 -> Node9 [dir="back",color="midnightblue",fontsize="10",style="solid",fontname="Helvetica"];
  Node9 [label="src/dynamic/include\l/hil-components.h",height=0.2,width=0.4,color="black", fillcolor="white", style="filled",URL="$dc/dc7/dynamic_2include_2hil-components_8h_source.html"];
  Node8 -> Node10 [dir="back",color="midnightblue",fontsize="10",style="solid",fontname="Helvetica"];
  Node10 [label="src/dynamic/kernel\l/system-facade/hil-components.h",height=0.2,width=0.4,color="black", fillcolor="white", style="filled",URL="$da/d34/dynamic_2kernel_2system-facade_2hil-components_8h_source.html"];
  Node8 -> Node11 [dir="back",color="midnightblue",fontsize="10",style="solid",fontname="Helvetica"];
  Node11 [label="src/static/kernel/system\l-facade/hil-components.h",height=0.2,width=0.4,color="black", fillcolor="white", style="filled",URL="$d2/d64/static_2kernel_2system-facade_2hil-components_8h_source.html"];
  Node6 -> Node12 [dir="back",color="midnightblue",fontsize="10",style="solid",fontname="Helvetica"];
  Node12 [label="src/static/hil/net\l/rime/packetqueue.c",height=0.2,width=0.4,color="black", fillcolor="white", style="filled",URL="$d3/d63/static_2hil_2net_2rime_2packetqueue_8c.html"];
  Node6 -> Node13 [dir="back",color="midnightblue",fontsize="10",style="solid",fontname="Helvetica"];
  Node13 [label="src/static/net/rime\l/collect.c",height=0.2,width=0.4,color="black", fillcolor="white", style="filled",URL="$da/d7b/static_2net_2rime_2collect_8c.html"];
  Node6 -> Node14 [dir="back",color="midnightblue",fontsize="10",style="solid",fontname="Helvetica"];
  Node14 [label="src/static/net/rime\l/collect.h",height=0.2,width=0.4,color="black", fillcolor="white", style="filled",URL="$d2/dfa/static_2net_2rime_2collect_8h.html"];
  Node14 -> Node15 [dir="back",color="midnightblue",fontsize="10",style="solid",fontname="Helvetica"];
  Node15 [label="src/dynamic/include\l/net/rime/collect-object.h",height=0.2,width=0.4,color="black", fillcolor="white", style="filled",URL="$d6/dd7/collect-object_8h_source.html"];
  Node15 -> Node16 [dir="back",color="midnightblue",fontsize="10",style="solid",fontname="Helvetica"];
  Node16 [label="src/dynamic/net/rime\l/collect.c",height=0.2,width=0.4,color="black", fillcolor="white", style="filled",URL="$d0/d71/dynamic_2net_2rime_2collect_8c.html"];
  Node14 -> Node16 [dir="back",color="midnightblue",fontsize="10",style="solid",fontname="Helvetica"];
  Node14 -> Node17 [dir="back",color="midnightblue",fontsize="10",style="solid",fontname="Helvetica"];
  Node17 [label="src/static/examples\l/rime/example-collect.c",height=0.2,width=0.4,color="black", fillcolor="white", style="filled",URL="$d5/d25/static_2examples_2rime_2example-collect_8c.html"];
  Node14 -> Node18 [dir="back",color="midnightblue",fontsize="10",style="solid",fontname="Helvetica"];
  Node18 [label="src/static/net/rime\l/collect-link-estimate.c",height=0.2,width=0.4,color="black", fillcolor="white", style="filled",URL="$d2/d2c/static_2net_2rime_2collect-link-estimate_8c.html"];
  Node14 -> Node19 [dir="back",color="midnightblue",fontsize="10",style="solid",fontname="Helvetica"];
  Node19 [label="src/static/net/rime\l/collect-neighbor.c",height=0.2,width=0.4,color="black", fillcolor="white", style="filled",URL="$d9/d52/static_2net_2rime_2collect-neighbor_8c.html"];
  Node14 -> Node13 [dir="back",color="midnightblue",fontsize="10",style="solid",fontname="Helvetica"];
}
