digraph "src/dynamic/net/rime/polite.c"
{
  edge [fontname="Helvetica",fontsize="10",labelfontname="Helvetica",labelfontsize="10"];
  node [fontname="Helvetica",fontsize="10",shape=record];
  Node0 [label="src/dynamic/net/rime\l/polite.c",height=0.2,width=0.4,color="black", fillcolor="grey75", style="filled", fontcolor="black"];
  Node0 -> Node1 [color="midnightblue",fontsize="10",style="solid",fontname="Helvetica"];
  Node1 [label="net/rime/polite.h",height=0.2,width=0.4,color="grey75", fillcolor="white", style="filled"];
  Node0 -> Node2 [color="midnightblue",fontsize="10",style="solid",fontname="Helvetica"];
  Node2 [label="include/hil/lib/util\l/random.h",height=0.2,width=0.4,color="black", fillcolor="white", style="filled",URL="$de/d3b/dynamic_2include_2hil_2lib_2util_2random_8h_source.html"];
  Node2 -> Node3 [color="midnightblue",fontsize="10",style="solid",fontname="Helvetica"];
  Node3 [label="kernel.h",height=0.2,width=0.4,color="grey75", fillcolor="white", style="filled"];
  Node2 -> Node4 [color="midnightblue",fontsize="10",style="solid",fontname="Helvetica"];
  Node4 [label="random-constdef.h",height=0.2,width=0.4,color="black", fillcolor="white", style="filled",URL="$d7/d4f/random-constdef_8h_source.html"];
  Node0 -> Node5 [color="midnightblue",fontsize="10",style="solid",fontname="Helvetica"];
  Node5 [label="include/hil/lib/util\l/string.h",height=0.2,width=0.4,color="black", fillcolor="white", style="filled",URL="$da/d66/string_8h_source.html"];
  Node5 -> Node3 [color="midnightblue",fontsize="10",style="solid",fontname="Helvetica"];
  Node5 -> Node6 [color="midnightblue",fontsize="10",style="solid",fontname="Helvetica"];
  Node6 [label="string-constdef.h",height=0.2,width=0.4,color="black", fillcolor="white", style="filled",URL="$d1/da7/string-constdef_8h_source.html"];
  Node0 -> Node7 [color="midnightblue",fontsize="10",style="solid",fontname="Helvetica"];
  Node7 [label="include/net/rime/polite\l-object.h",height=0.2,width=0.4,color="black", fillcolor="white", style="filled",URL="$da/df4/polite-object_8h_source.html"];
  Node7 -> Node1 [color="midnightblue",fontsize="10",style="solid",fontname="Helvetica"];
  Node7 -> Node8 [color="midnightblue",fontsize="10",style="solid",fontname="Helvetica"];
  Node8 [label="include/net/rime/polite\l-constdef.h",height=0.2,width=0.4,color="black", fillcolor="white", style="filled",URL="$df/d80/polite-constdef_8h_source.html"];
}
