digraph "src/dynamic/include/net/rime/unicast.h"
{
  edge [fontname="Helvetica",fontsize="10",labelfontname="Helvetica",labelfontsize="10"];
  node [fontname="Helvetica",fontsize="10",shape=record];
  Node16 [label="src/dynamic/include\l/net/rime/unicast.h",height=0.2,width=0.4,color="black", fillcolor="grey75", style="filled", fontcolor="black"];
  Node16 -> Node17 [dir="back",color="midnightblue",fontsize="10",style="solid",fontname="Helvetica"];
  Node17 [label="src/dynamic/examples\l/rime/example-neighbors.c",height=0.2,width=0.4,color="black", fillcolor="white", style="filled",URL="$d5/dd4/dynamic_2examples_2rime_2example-neighbors_8c.html"];
  Node16 -> Node18 [dir="back",color="midnightblue",fontsize="10",style="solid",fontname="Helvetica"];
  Node18 [label="src/dynamic/examples\l/rime/example-unicast.c",height=0.2,width=0.4,color="black", fillcolor="white", style="filled",URL="$db/d4e/dynamic_2examples_2rime_2example-unicast_8c.html"];
  Node16 -> Node19 [dir="back",color="midnightblue",fontsize="10",style="solid",fontname="Helvetica"];
  Node19 [label="src/dynamic/include\l/net/rime/collect.h",height=0.2,width=0.4,color="black", fillcolor="white", style="filled",URL="$d7/d59/dynamic_2include_2net_2rime_2collect_8h.html"];
  Node19 -> Node20 [dir="back",color="midnightblue",fontsize="10",style="solid",fontname="Helvetica"];
  Node20 [label="src/dynamic/examples\l/rime/example-collect.c",height=0.2,width=0.4,color="black", fillcolor="white", style="filled",URL="$d5/d78/dynamic_2examples_2rime_2example-collect_8c.html"];
  Node19 -> Node21 [dir="back",color="midnightblue",fontsize="10",style="solid",fontname="Helvetica"];
  Node21 [label="src/dynamic/net/rime\l/collect-link-estimate.c",height=0.2,width=0.4,color="black", fillcolor="white", style="filled",URL="$d6/dd6/dynamic_2net_2rime_2collect-link-estimate_8c.html"];
  Node19 -> Node22 [dir="back",color="midnightblue",fontsize="10",style="solid",fontname="Helvetica"];
  Node22 [label="src/dynamic/net/rime\l/collect-neighbor.c",height=0.2,width=0.4,color="black", fillcolor="white", style="filled",URL="$df/d59/dynamic_2net_2rime_2collect-neighbor_8c.html"];
  Node16 -> Node23 [dir="back",color="midnightblue",fontsize="10",style="solid",fontname="Helvetica"];
  Node23 [label="src/dynamic/include\l/net/rime/multihop.h",height=0.2,width=0.4,color="black", fillcolor="white", style="filled",URL="$da/d74/dynamic_2include_2net_2rime_2multihop_8h.html"];
  Node23 -> Node24 [dir="back",color="midnightblue",fontsize="10",style="solid",fontname="Helvetica"];
  Node24 [label="src/dynamic/examples\l/rime/example-multihop.c",height=0.2,width=0.4,color="black", fillcolor="white", style="filled",URL="$d2/db7/dynamic_2examples_2rime_2example-multihop_8c.html"];
  Node23 -> Node25 [dir="back",color="midnightblue",fontsize="10",style="solid",fontname="Helvetica"];
  Node25 [label="src/dynamic/include\l/net/rime/mesh.h",height=0.2,width=0.4,color="black", fillcolor="white", style="filled",URL="$d0/d8a/dynamic_2include_2net_2rime_2mesh_8h.html"];
  Node25 -> Node26 [dir="back",color="midnightblue",fontsize="10",style="solid",fontname="Helvetica"];
  Node26 [label="src/dynamic/examples\l/rime/example-mesh.c",height=0.2,width=0.4,color="black", fillcolor="white", style="filled",URL="$d3/de7/dynamic_2examples_2rime_2example-mesh_8c.html"];
  Node23 -> Node27 [dir="back",color="midnightblue",fontsize="10",style="solid",fontname="Helvetica"];
  Node27 [label="src/dynamic/net/rime\l/mesh.h",height=0.2,width=0.4,color="black", fillcolor="white", style="filled",URL="$d5/d21/dynamic_2net_2rime_2mesh_8h.html"];
  Node16 -> Node28 [dir="back",color="midnightblue",fontsize="10",style="solid",fontname="Helvetica"];
  Node28 [label="src/dynamic/include\l/net/rime/route-discovery.h",height=0.2,width=0.4,color="black", fillcolor="white", style="filled",URL="$d3/d80/dynamic_2include_2net_2rime_2route-discovery_8h.html"];
  Node28 -> Node25 [dir="back",color="midnightblue",fontsize="10",style="solid",fontname="Helvetica"];
  Node28 -> Node27 [dir="back",color="midnightblue",fontsize="10",style="solid",fontname="Helvetica"];
  Node16 -> Node29 [dir="back",color="midnightblue",fontsize="10",style="solid",fontname="Helvetica"];
  Node29 [label="src/dynamic/include\l/net/rime/stunicast.h",height=0.2,width=0.4,color="black", fillcolor="white", style="filled",URL="$dd/d88/dynamic_2include_2net_2rime_2stunicast_8h.html"];
  Node29 -> Node30 [dir="back",color="midnightblue",fontsize="10",style="solid",fontname="Helvetica"];
  Node30 [label="src/dynamic/include\l/net/rime/runicast.h",height=0.2,width=0.4,color="black", fillcolor="white", style="filled",URL="$d0/de9/dynamic_2include_2net_2rime_2runicast_8h.html"];
  Node30 -> Node31 [dir="back",color="midnightblue",fontsize="10",style="solid",fontname="Helvetica"];
  Node31 [label="src/dynamic/examples\l/rime/example-runicast.c",height=0.2,width=0.4,color="black", fillcolor="white", style="filled",URL="$d8/df8/dynamic_2examples_2rime_2example-runicast_8c.html"];
  Node30 -> Node32 [dir="back",color="midnightblue",fontsize="10",style="solid",fontname="Helvetica"];
  Node32 [label="src/dynamic/include\l/net/rime/rmh.h",height=0.2,width=0.4,color="black", fillcolor="white", style="filled",URL="$de/d67/dynamic_2include_2net_2rime_2rmh_8h.html"];
  Node30 -> Node33 [dir="back",color="midnightblue",fontsize="10",style="solid",fontname="Helvetica"];
  Node33 [label="src/dynamic/include\l/net/rime/rucb.h",height=0.2,width=0.4,color="black", fillcolor="white", style="filled",URL="$d9/d04/dynamic_2include_2net_2rime_2rucb_8h.html"];
  Node33 -> Node34 [dir="back",color="midnightblue",fontsize="10",style="solid",fontname="Helvetica"];
  Node34 [label="src/dynamic/examples\l/rime/example-rucb.c",height=0.2,width=0.4,color="black", fillcolor="white", style="filled",URL="$d1/d97/dynamic_2examples_2rime_2example-rucb_8c.html"];
  Node30 -> Node35 [dir="back",color="midnightblue",fontsize="10",style="solid",fontname="Helvetica"];
  Node35 [label="src/dynamic/net/rime\l/rmh.h",height=0.2,width=0.4,color="black", fillcolor="white", style="filled",URL="$d9/d7c/dynamic_2net_2rime_2rmh_8h.html"];
  Node30 -> Node36 [dir="back",color="midnightblue",fontsize="10",style="solid",fontname="Helvetica"];
  Node36 [label="src/dynamic/net/rime\l/rucb.h",height=0.2,width=0.4,color="black", fillcolor="white", style="filled",URL="$d5/dcc/dynamic_2net_2rime_2rucb_8h.html"];
  Node29 -> Node37 [dir="back",color="midnightblue",fontsize="10",style="solid",fontname="Helvetica"];
  Node37 [label="src/dynamic/net/rime\l/runicast.h",height=0.2,width=0.4,color="black", fillcolor="white", style="filled",URL="$d3/d2c/dynamic_2net_2rime_2runicast_8h.html"];
  Node16 -> Node38 [dir="back",color="midnightblue",fontsize="10",style="solid",fontname="Helvetica"];
  Node38 [label="src/dynamic/net/rime\l/collect.h",height=0.2,width=0.4,color="black", fillcolor="white", style="filled",URL="$d8/d45/dynamic_2net_2rime_2collect_8h.html"];
  Node16 -> Node39 [dir="back",color="midnightblue",fontsize="10",style="solid",fontname="Helvetica"];
  Node39 [label="src/dynamic/net/rime\l/multihop.h",height=0.2,width=0.4,color="black", fillcolor="white", style="filled",URL="$df/dcb/dynamic_2net_2rime_2multihop_8h.html"];
  Node16 -> Node40 [dir="back",color="midnightblue",fontsize="10",style="solid",fontname="Helvetica"];
  Node40 [label="src/dynamic/net/rime\l/route-discovery.h",height=0.2,width=0.4,color="black", fillcolor="white", style="filled",URL="$de/d03/dynamic_2net_2rime_2route-discovery_8h.html"];
  Node16 -> Node41 [dir="back",color="midnightblue",fontsize="10",style="solid",fontname="Helvetica"];
  Node41 [label="src/dynamic/net/rime\l/stunicast.h",height=0.2,width=0.4,color="black", fillcolor="white", style="filled",URL="$dc/d98/dynamic_2net_2rime_2stunicast_8h.html"];
}
