digraph "src/static/net/rime/rudolph0.h"
{
  edge [fontname="Helvetica",fontsize="10",labelfontname="Helvetica",labelfontsize="10"];
  node [fontname="Helvetica",fontsize="10",shape=record];
  Node3 [label="src/static/net/rime\l/rudolph0.h",height=0.2,width=0.4,color="black", fillcolor="grey75", style="filled", fontcolor="black"];
  Node3 -> Node4 [dir="back",color="midnightblue",fontsize="10",style="solid",fontname="Helvetica"];
  Node4 [label="src/dynamic/include\l/net/rime/rudolph0-object.h",height=0.2,width=0.4,color="black", fillcolor="white", style="filled",URL="$d1/d96/rudolph0-object_8h_source.html"];
  Node4 -> Node5 [dir="back",color="midnightblue",fontsize="10",style="solid",fontname="Helvetica"];
  Node5 [label="src/dynamic/net/rime\l/rudolph0.c",height=0.2,width=0.4,color="black", fillcolor="white", style="filled",URL="$d7/d69/dynamic_2net_2rime_2rudolph0_8c.html"];
  Node3 -> Node5 [dir="back",color="midnightblue",fontsize="10",style="solid",fontname="Helvetica"];
  Node3 -> Node6 [dir="back",color="midnightblue",fontsize="10",style="solid",fontname="Helvetica"];
  Node6 [label="src/static/examples\l/rime/example-rudolph0.c",height=0.2,width=0.4,color="black", fillcolor="white", style="filled",URL="$df/dc2/static_2examples_2rime_2example-rudolph0_8c.html"];
  Node3 -> Node7 [dir="back",color="midnightblue",fontsize="10",style="solid",fontname="Helvetica"];
  Node7 [label="src/static/net/rime\l/rudolph0.c",height=0.2,width=0.4,color="black", fillcolor="white", style="filled",URL="$df/d82/static_2net_2rime_2rudolph0_8c.html"];
}
