digraph "src/static/hil/sys/timer/timer.h"
{
  edge [fontname="Helvetica",fontsize="10",labelfontname="Helvetica",labelfontsize="10"];
  node [fontname="Helvetica",fontsize="10",shape=record];
  Node2 [label="src/static/hil/sys\l/timer/timer.h",height=0.2,width=0.4,color="black", fillcolor="grey75", style="filled", fontcolor="black"];
  Node2 -> Node3 [dir="back",color="midnightblue",fontsize="10",style="solid",fontname="Helvetica"];
  Node3 [label="src/dynamic/hil/sys\l/timer/etimer.h",height=0.2,width=0.4,color="black", fillcolor="white", style="filled",URL="$df/d32/dynamic_2hil_2sys_2timer_2etimer_8h.html"];
  Node3 -> Node4 [dir="back",color="midnightblue",fontsize="10",style="solid",fontname="Helvetica"];
  Node4 [label="src/dynamic/hil/contiki.h",height=0.2,width=0.4,color="red", fillcolor="white", style="filled",URL="$d8/dac/dynamic_2hil_2contiki_8h_source.html"];
  Node2 -> Node6 [dir="back",color="midnightblue",fontsize="10",style="solid",fontname="Helvetica"];
  Node6 [label="src/dynamic/hil/net\l/mac/phase.h",height=0.2,width=0.4,color="black", fillcolor="white", style="filled",URL="$d8/dea/dynamic_2hil_2net_2mac_2phase_8h.html"];
  Node2 -> Node7 [dir="back",color="midnightblue",fontsize="10",style="solid",fontname="Helvetica"];
  Node7 [label="src/dynamic/hil/sys\l/timer/timer.c",height=0.2,width=0.4,color="black", fillcolor="white", style="filled",URL="$dc/d6b/dynamic_2hil_2sys_2timer_2timer_8c.html"];
  Node2 -> Node8 [dir="back",color="midnightblue",fontsize="10",style="solid",fontname="Helvetica"];
  Node8 [label="src/dynamic/include\l/hil/sys/timer/timer\l-object.h",height=0.2,width=0.4,color="black", fillcolor="white", style="filled",URL="$de/d7b/timer-object_8h_source.html"];
  Node8 -> Node9 [dir="back",color="midnightblue",fontsize="10",style="solid",fontname="Helvetica"];
  Node9 [label="src/dynamic/include\l/hil-components.h",height=0.2,width=0.4,color="black", fillcolor="white", style="filled",URL="$dc/dc7/dynamic_2include_2hil-components_8h_source.html"];
  Node8 -> Node10 [dir="back",color="midnightblue",fontsize="10",style="solid",fontname="Helvetica"];
  Node10 [label="src/dynamic/kernel\l/system-facade/hil-components.h",height=0.2,width=0.4,color="black", fillcolor="white", style="filled",URL="$da/d34/dynamic_2kernel_2system-facade_2hil-components_8h_source.html"];
  Node8 -> Node11 [dir="back",color="midnightblue",fontsize="10",style="solid",fontname="Helvetica"];
  Node11 [label="src/static/kernel/system\l-facade/hil-components.h",height=0.2,width=0.4,color="black", fillcolor="white", style="filled",URL="$d2/d64/static_2kernel_2system-facade_2hil-components_8h_source.html"];
  Node2 -> Node12 [dir="back",color="midnightblue",fontsize="10",style="solid",fontname="Helvetica"];
  Node12 [label="src/static/hil/contiki.h",height=0.2,width=0.4,color="red", fillcolor="white", style="filled",URL="$d4/db8/static_2hil_2contiki_8h_source.html"];
  Node12 -> Node13 [dir="back",color="midnightblue",fontsize="10",style="solid",fontname="Helvetica"];
  Node13 [label="src/dynamic/hal/chips\l/cc2420/cc2420-aes.c",height=0.2,width=0.4,color="black", fillcolor="white", style="filled",URL="$db/d3e/dynamic_2hal_2chips_2cc2420_2cc2420-aes_8c.html"];
  Node12 -> Node14 [dir="back",color="midnightblue",fontsize="10",style="solid",fontname="Helvetica"];
  Node14 [label="src/dynamic/hal/chips\l/cc2420/cc2420.h",height=0.2,width=0.4,color="black", fillcolor="white", style="filled",URL="$d0/dfd/dynamic_2hal_2chips_2cc2420_2cc2420_8h.html"];
  Node12 -> Node15 [dir="back",color="midnightblue",fontsize="10",style="solid",fontname="Helvetica"];
  Node15 [label="src/dynamic/hal/chips\l/cc2520/cc2520.h",height=0.2,width=0.4,color="black", fillcolor="white", style="filled",URL="$d7/d98/dynamic_2hal_2chips_2cc2520_2cc2520_8h.html"];
  Node12 -> Node16 [dir="back",color="midnightblue",fontsize="10",style="solid",fontname="Helvetica"];
  Node16 [label="src/dynamic/hal/cpu\l/msp430/dev/flash.c",height=0.2,width=0.4,color="black", fillcolor="white", style="filled",URL="$d7/d63/dynamic_2hal_2cpu_2msp430_2dev_2flash_8c.html"];
  Node12 -> Node17 [dir="back",color="midnightblue",fontsize="10",style="solid",fontname="Helvetica"];
  Node17 [label="src/dynamic/hal/cpu\l/msp430/dev/hwconf.h",height=0.2,width=0.4,color="black", fillcolor="white", style="filled",URL="$d8/d99/dynamic_2hal_2cpu_2msp430_2dev_2hwconf_8h_source.html"];
  Node12 -> Node18 [dir="back",color="midnightblue",fontsize="10",style="solid",fontname="Helvetica"];
  Node18 [label="src/dynamic/hal/cpu\l/msp430/dev/uart0.h",height=0.2,width=0.4,color="black", fillcolor="white", style="filled",URL="$dd/dbd/dynamic_2hal_2cpu_2msp430_2dev_2uart0_8h.html"];
  Node12 -> Node19 [dir="back",color="midnightblue",fontsize="10",style="solid",fontname="Helvetica"];
  Node19 [label="src/dynamic/hal/cpu\l/msp430/dev/uart0X.h",height=0.2,width=0.4,color="black", fillcolor="white", style="filled",URL="$dc/da9/dynamic_2hal_2cpu_2msp430_2dev_2uart0X_8h.html"];
  Node12 -> Node20 [dir="back",color="midnightblue",fontsize="10",style="solid",fontname="Helvetica"];
  Node20 [label="src/dynamic/hal/cpu\l/msp430/dev/uart1.h",height=0.2,width=0.4,color="black", fillcolor="white", style="filled",URL="$d5/dd5/dynamic_2hal_2cpu_2msp430_2dev_2uart1_8h.html"];
  Node12 -> Node21 [dir="back",color="midnightblue",fontsize="10",style="solid",fontname="Helvetica"];
  Node21 [label="src/dynamic/hal/cpu\l/msp430/f1xxx/rtimer\l-arch.c",height=0.2,width=0.4,color="black", fillcolor="white", style="filled",URL="$dd/db8/dynamic_2hal_2cpu_2msp430_2f1xxx_2rtimer-arch_8c.html"];
  Node12 -> Node22 [dir="back",color="midnightblue",fontsize="10",style="solid",fontname="Helvetica"];
  Node22 [label="src/dynamic/hal/cpu\l/msp430/f5xxx/rtimer\l-arch.c",height=0.2,width=0.4,color="black", fillcolor="white", style="filled",URL="$d8/d44/dynamic_2hal_2cpu_2msp430_2f5xxx_2rtimer-arch_8c.html"];
  Node12 -> Node23 [dir="back",color="midnightblue",fontsize="10",style="solid",fontname="Helvetica"];
  Node23 [label="src/dynamic/hal/cpu\l/msp430/sys/process\l/mtarch.h",height=0.2,width=0.4,color="black", fillcolor="white", style="filled",URL="$dd/d1c/dynamic_2hal_2cpu_2msp430_2sys_2process_2mtarch_8h_source.html"];
  Node12 -> Node24 [dir="back",color="midnightblue",fontsize="10",style="solid",fontname="Helvetica"];
  Node24 [label="src/dynamic/hal/platform\l/rm090/dev/flash.c",height=0.2,width=0.4,color="black", fillcolor="white", style="filled",URL="$df/d7e/dynamic_2hal_2platform_2rm090_2dev_2flash_8c.html"];
  Node12 -> Node25 [dir="back",color="midnightblue",fontsize="10",style="solid",fontname="Helvetica"];
  Node25 [label="src/dynamic/hal/platform\l/sky/apps/blink.c",height=0.2,width=0.4,color="black", fillcolor="white", style="filled",URL="$d0/dab/dynamic_2hal_2platform_2sky_2apps_2blink_8c.html"];
  Node12 -> Node26 [dir="back",color="midnightblue",fontsize="10",style="solid",fontname="Helvetica"];
  Node26 [label="src/dynamic/hal/platform\l/sky/apps/burn-nodeid.c",height=0.2,width=0.4,color="black", fillcolor="white", style="filled",URL="$d5/d2c/dynamic_2hal_2platform_2sky_2apps_2burn-nodeid_8c.html"];
  Node12 -> Node27 [dir="back",color="midnightblue",fontsize="10",style="solid",fontname="Helvetica"];
  Node27 [label="src/dynamic/hal/platform\l/sky/dev/temperature-sensor.c",height=0.2,width=0.4,color="black", fillcolor="white", style="filled",URL="$d2/d53/dynamic_2hal_2platform_2sky_2dev_2temperature-sensor_8c.html"];
  Node12 -> Node28 [dir="back",color="midnightblue",fontsize="10",style="solid",fontname="Helvetica"];
  Node28 [label="src/dynamic/hal/platform\l/sky/dev/xmem.c",height=0.2,width=0.4,color="black", fillcolor="white", style="filled",URL="$d8/d94/dynamic_2hal_2platform_2sky_2dev_2xmem_8c.html"];
  Node12 -> Node29 [dir="back",color="midnightblue",fontsize="10",style="solid",fontname="Helvetica"];
  Node29 [label="src/dynamic/hal/platform\l/sky/lib/util/checkpoint-arch.c",height=0.2,width=0.4,color="black", fillcolor="white", style="filled",URL="$d1/de1/dynamic_2hal_2platform_2sky_2lib_2util_2checkpoint-arch_8c.html"];
  Node12 -> Node30 [dir="back",color="midnightblue",fontsize="10",style="solid",fontname="Helvetica"];
  Node30 [label="src/dynamic/hal/platform\l/z1/checkpoint-arch.c",height=0.2,width=0.4,color="black", fillcolor="white", style="filled",URL="$de/d8f/dynamic_2hal_2platform_2z1_2checkpoint-arch_8c.html"];
  Node12 -> Node31 [dir="back",color="midnightblue",fontsize="10",style="solid",fontname="Helvetica"];
  Node31 [label="src/dynamic/hal/platform\l/z1/dev/adxl345.c",height=0.2,width=0.4,color="black", fillcolor="white", style="filled",URL="$d6/dae/dynamic_2hal_2platform_2z1_2dev_2adxl345_8c.html"];
  Node12 -> Node32 [dir="back",color="midnightblue",fontsize="10",style="solid",fontname="Helvetica"];
  Node32 [label="src/dynamic/hal/platform\l/z1/dev/i2cmaster.h",height=0.2,width=0.4,color="red", fillcolor="white", style="filled",URL="$d3/d94/dynamic_2hal_2platform_2z1_2dev_2i2cmaster_8h.html"];
  Node32 -> Node31 [dir="back",color="midnightblue",fontsize="10",style="solid",fontname="Helvetica"];
  Node32 -> Node34 [dir="back",color="midnightblue",fontsize="10",style="solid",fontname="Helvetica"];
  Node34 [label="src/dynamic/hal/platform\l/z1/dev/light-ziglet.c",height=0.2,width=0.4,color="black", fillcolor="white", style="filled",URL="$d7/de2/dynamic_2hal_2platform_2z1_2dev_2light-ziglet_8c.html"];
  Node32 -> Node36 [dir="back",color="midnightblue",fontsize="10",style="solid",fontname="Helvetica"];
  Node36 [label="src/dynamic/hal/platform\l/z1/dev/tlc59116.c",height=0.2,width=0.4,color="black", fillcolor="white", style="filled",URL="$dc/de2/dynamic_2hal_2platform_2z1_2dev_2tlc59116_8c.html"];
  Node32 -> Node37 [dir="back",color="midnightblue",fontsize="10",style="solid",fontname="Helvetica"];
  Node37 [label="src/dynamic/hal/platform\l/z1/dev/tmp102.c",height=0.2,width=0.4,color="black", fillcolor="white", style="filled",URL="$db/d7d/dynamic_2hal_2platform_2z1_2dev_2tmp102_8c.html"];
  Node12 -> Node34 [dir="back",color="midnightblue",fontsize="10",style="solid",fontname="Helvetica"];
  Node12 -> Node39 [dir="back",color="midnightblue",fontsize="10",style="solid",fontname="Helvetica"];
  Node39 [label="src/dynamic/hal/platform\l/z1/dev/temperature-sensor.c",height=0.2,width=0.4,color="black", fillcolor="white", style="filled",URL="$d6/d7e/dynamic_2hal_2platform_2z1_2dev_2temperature-sensor_8c.html"];
  Node12 -> Node36 [dir="back",color="midnightblue",fontsize="10",style="solid",fontname="Helvetica"];
  Node12 -> Node37 [dir="back",color="midnightblue",fontsize="10",style="solid",fontname="Helvetica"];
  Node12 -> Node40 [dir="back",color="midnightblue",fontsize="10",style="solid",fontname="Helvetica"];
  Node40 [label="src/dynamic/hal/platform\l/z1/dev/xmem.c",height=0.2,width=0.4,color="black", fillcolor="white", style="filled",URL="$d1/d2d/dynamic_2hal_2platform_2z1_2dev_2xmem_8c.html"];
  Node12 -> Node41 [dir="back",color="midnightblue",fontsize="10",style="solid",fontname="Helvetica"];
  Node41 [label="src/dynamic/hil/dev\l/slip.h",height=0.2,width=0.4,color="black", fillcolor="white", style="filled",URL="$d9/d73/src_2dynamic_2hil_2dev_2slip_8h_source.html"];
  Node12 -> Node42 [dir="back",color="midnightblue",fontsize="10",style="solid",fontname="Helvetica"];
  Node42 [label="src/dynamic/hil/lib\l/cfs/cfs.h",height=0.2,width=0.4,color="black", fillcolor="white", style="filled",URL="$d2/d91/dynamic_2hil_2lib_2cfs_2cfs_8h.html"];
  Node12 -> Node43 [dir="back",color="midnightblue",fontsize="10",style="solid",fontname="Helvetica"];
  Node43 [label="src/dynamic/hil/lib\l/util/arg.c",height=0.2,width=0.4,color="black", fillcolor="white", style="filled",URL="$d0/d30/dynamic_2hil_2lib_2util_2arg_8c.html"];
  Node12 -> Node44 [dir="back",color="midnightblue",fontsize="10",style="solid",fontname="Helvetica"];
  Node44 [label="src/dynamic/hil/lib\l/util/checkpoint.h",height=0.2,width=0.4,color="black", fillcolor="white", style="filled",URL="$d3/db9/dynamic_2hil_2lib_2util_2checkpoint_8h.html"];
  Node12 -> Node45 [dir="back",color="midnightblue",fontsize="10",style="solid",fontname="Helvetica"];
  Node45 [label="src/dynamic/hil/lib\l/util/memb.c",height=0.2,width=0.4,color="black", fillcolor="white", style="filled",URL="$da/da7/dynamic_2hil_2lib_2util_2memb_8c.html"];
  Node12 -> Node46 [dir="back",color="midnightblue",fontsize="10",style="solid",fontname="Helvetica"];
  Node46 [label="src/dynamic/hil/net\l/rime/broadcast-announcement.c",height=0.2,width=0.4,color="black", fillcolor="white", style="filled",URL="$d2/dbd/dynamic_2hil_2net_2rime_2broadcast-announcement_8c.html"];
  Node12 -> Node47 [dir="back",color="midnightblue",fontsize="10",style="solid",fontname="Helvetica"];
  Node47 [label="src/dynamic/hil/net\l/rime/nbr-table.h",height=0.2,width=0.4,color="black", fillcolor="white", style="filled",URL="$d1/dae/dynamic_2hil_2net_2rime_2nbr-table_8h_source.html"];
  Node12 -> Node48 [dir="back",color="midnightblue",fontsize="10",style="solid",fontname="Helvetica"];
  Node48 [label="src/dynamic/hil/net\l/rime/timesynch.c",height=0.2,width=0.4,color="black", fillcolor="white", style="filled",URL="$dd/ddb/dynamic_2hil_2net_2rime_2timesynch_8c.html"];
  Node12 -> Node49 [dir="back",color="midnightblue",fontsize="10",style="solid",fontname="Helvetica"];
  Node49 [label="src/dynamic/hil/sys\l/process/mt.c",height=0.2,width=0.4,color="black", fillcolor="white", style="filled",URL="$de/d8d/dynamic_2hil_2sys_2process_2mt_8c.html"];
  Node12 -> Node50 [dir="back",color="midnightblue",fontsize="10",style="solid",fontname="Helvetica"];
  Node50 [label="src/dynamic/hil/sys\l/process/mt.h",height=0.2,width=0.4,color="black", fillcolor="white", style="filled",URL="$dc/de9/dynamic_2hil_2sys_2process_2mt_8h.html"];
  Node12 -> Node51 [dir="back",color="midnightblue",fontsize="10",style="solid",fontname="Helvetica"];
  Node51 [label="src/dynamic/hil/sys\l/timer/ctimer.c",height=0.2,width=0.4,color="black", fillcolor="white", style="filled",URL="$d7/d43/dynamic_2hil_2sys_2timer_2ctimer_8c.html"];
  Node12 -> Node52 [dir="back",color="midnightblue",fontsize="10",style="solid",fontname="Helvetica"];
  Node52 [label="src/dynamic/hil/sys\l/timer/rtimer.c",height=0.2,width=0.4,color="black", fillcolor="white", style="filled",URL="$db/d83/dynamic_2hil_2sys_2timer_2rtimer_8c.html"];
  Node2 -> Node137 [dir="back",color="midnightblue",fontsize="10",style="solid",fontname="Helvetica"];
  Node137 [label="src/static/hil/sys\l/timer/etimer.h",height=0.2,width=0.4,color="red", fillcolor="white", style="filled",URL="$da/d61/static_2hil_2sys_2timer_2etimer_8h.html"];
  Node137 -> Node12 [dir="back",color="midnightblue",fontsize="10",style="solid",fontname="Helvetica"];
  Node2 -> Node227 [dir="back",color="midnightblue",fontsize="10",style="solid",fontname="Helvetica"];
  Node227 [label="src/static/hil/net\l/mac/phase.h",height=0.2,width=0.4,color="red", fillcolor="white", style="filled",URL="$d3/d52/static_2hil_2net_2mac_2phase_8h.html"];
  Node2 -> Node229 [dir="back",color="midnightblue",fontsize="10",style="solid",fontname="Helvetica"];
  Node229 [label="src/static/hil/sys\l/timer/timer.c",height=0.2,width=0.4,color="black", fillcolor="white", style="filled",URL="$d6/d4f/static_2hil_2sys_2timer_2timer_8c.html"];
}
