digraph "src/dynamic/net/rime/mesh.h"
{
  edge [fontname="Helvetica",fontsize="10",labelfontname="Helvetica",labelfontsize="10"];
  node [fontname="Helvetica",fontsize="10",shape=record];
  Node0 [label="src/dynamic/net/rime\l/mesh.h",height=0.2,width=0.4,color="black", fillcolor="grey75", style="filled", fontcolor="black"];
  Node0 -> Node1 [color="midnightblue",fontsize="10",style="solid",fontname="Helvetica"];
  Node1 [label="include/hil/net/rime\l/queuebuf.h",height=0.2,width=0.4,color="black", fillcolor="white", style="filled",URL="$dc/d5c/dynamic_2include_2hil_2net_2rime_2queuebuf_8h.html"];
  Node1 -> Node2 [color="midnightblue",fontsize="10",style="solid",fontname="Helvetica"];
  Node2 [label="kernel.h",height=0.2,width=0.4,color="grey75", fillcolor="white", style="filled"];
  Node1 -> Node3 [color="midnightblue",fontsize="10",style="solid",fontname="Helvetica"];
  Node3 [label="queuebuf-constdef.h",height=0.2,width=0.4,color="black", fillcolor="white", style="filled",URL="$dd/d36/queuebuf-constdef_8h_source.html"];
  Node1 -> Node4 [color="midnightblue",fontsize="10",style="solid",fontname="Helvetica"];
  Node4 [label="include/hil/net/rime\l/packetbuf.h",height=0.2,width=0.4,color="black", fillcolor="white", style="filled",URL="$dc/d3a/dynamic_2include_2hil_2net_2rime_2packetbuf_8h.html"];
  Node4 -> Node2 [color="midnightblue",fontsize="10",style="solid",fontname="Helvetica"];
  Node4 -> Node5 [color="midnightblue",fontsize="10",style="solid",fontname="Helvetica"];
  Node5 [label="packetbuf-constdef.h",height=0.2,width=0.4,color="black", fillcolor="white", style="filled",URL="$d7/dc2/packetbuf-constdef_8h_source.html"];
  Node4 -> Node6 [color="midnightblue",fontsize="10",style="solid",fontname="Helvetica"];
  Node6 [label="contiki-conf.h",height=0.2,width=0.4,color="grey75", fillcolor="white", style="filled"];
  Node4 -> Node7 [color="midnightblue",fontsize="10",style="solid",fontname="Helvetica"];
  Node7 [label="include/hil/net/rime\l/rimeaddr.h",height=0.2,width=0.4,color="black", fillcolor="white", style="filled",URL="$d6/d1a/dynamic_2include_2hil_2net_2rime_2rimeaddr_8h.html"];
  Node7 -> Node2 [color="midnightblue",fontsize="10",style="solid",fontname="Helvetica"];
  Node7 -> Node8 [color="midnightblue",fontsize="10",style="solid",fontname="Helvetica"];
  Node8 [label="rimeaddr-constdef.h",height=0.2,width=0.4,color="black", fillcolor="white", style="filled",URL="$d0/d88/rimeaddr-constdef_8h_source.html"];
  Node7 -> Node6 [color="midnightblue",fontsize="10",style="solid",fontname="Helvetica"];
  Node0 -> Node9 [color="midnightblue",fontsize="10",style="solid",fontname="Helvetica"];
  Node9 [label="include/net/rime/multihop.h",height=0.2,width=0.4,color="black", fillcolor="white", style="filled",URL="$da/d74/dynamic_2include_2net_2rime_2multihop_8h.html"];
  Node9 -> Node2 [color="midnightblue",fontsize="10",style="solid",fontname="Helvetica"];
  Node9 -> Node10 [color="midnightblue",fontsize="10",style="solid",fontname="Helvetica"];
  Node10 [label="multihop-constdef.h",height=0.2,width=0.4,color="black", fillcolor="white", style="filled",URL="$d7/d67/multihop-constdef_8h_source.html"];
  Node9 -> Node7 [color="midnightblue",fontsize="10",style="solid",fontname="Helvetica"];
  Node9 -> Node11 [color="midnightblue",fontsize="10",style="solid",fontname="Helvetica"];
  Node11 [label="include/net/rime/unicast.h",height=0.2,width=0.4,color="black", fillcolor="white", style="filled",URL="$d6/d21/dynamic_2include_2net_2rime_2unicast_8h.html"];
  Node11 -> Node2 [color="midnightblue",fontsize="10",style="solid",fontname="Helvetica"];
  Node11 -> Node12 [color="midnightblue",fontsize="10",style="solid",fontname="Helvetica"];
  Node12 [label="unicast-constdef.h",height=0.2,width=0.4,color="black", fillcolor="white", style="filled",URL="$d3/db8/unicast-constdef_8h_source.html"];
  Node11 -> Node13 [color="midnightblue",fontsize="10",style="solid",fontname="Helvetica"];
  Node13 [label="include/net/rime/broadcast.h",height=0.2,width=0.4,color="black", fillcolor="white", style="filled",URL="$d2/dca/dynamic_2include_2net_2rime_2broadcast_8h.html"];
  Node13 -> Node2 [color="midnightblue",fontsize="10",style="solid",fontname="Helvetica"];
  Node13 -> Node14 [color="midnightblue",fontsize="10",style="solid",fontname="Helvetica"];
  Node14 [label="broadcast-constdef.h",height=0.2,width=0.4,color="black", fillcolor="white", style="filled",URL="$dd/d6f/broadcast-constdef_8h_source.html"];
  Node13 -> Node15 [color="midnightblue",fontsize="10",style="solid",fontname="Helvetica"];
  Node15 [label="include/hil/net/rime\l/abc.h",height=0.2,width=0.4,color="black", fillcolor="white", style="filled",URL="$d7/d32/dynamic_2include_2hil_2net_2rime_2abc_8h.html"];
  Node15 -> Node2 [color="midnightblue",fontsize="10",style="solid",fontname="Helvetica"];
  Node15 -> Node16 [color="midnightblue",fontsize="10",style="solid",fontname="Helvetica"];
  Node16 [label="abc-constdef.h",height=0.2,width=0.4,color="black", fillcolor="white", style="filled",URL="$d9/d4f/abc-constdef_8h_source.html"];
  Node15 -> Node4 [color="midnightblue",fontsize="10",style="solid",fontname="Helvetica"];
  Node15 -> Node17 [color="midnightblue",fontsize="10",style="solid",fontname="Helvetica"];
  Node17 [label="include/hil/net/rime\l/channel.h",height=0.2,width=0.4,color="black", fillcolor="white", style="filled",URL="$d0/d64/dynamic_2include_2hil_2net_2rime_2channel_8h.html"];
  Node17 -> Node2 [color="midnightblue",fontsize="10",style="solid",fontname="Helvetica"];
  Node17 -> Node18 [color="midnightblue",fontsize="10",style="solid",fontname="Helvetica"];
  Node18 [label="channel-constdef.h",height=0.2,width=0.4,color="black", fillcolor="white", style="filled",URL="$db/df5/channel-constdef_8h_source.html"];
  Node17 -> Node6 [color="midnightblue",fontsize="10",style="solid",fontname="Helvetica"];
  Node17 -> Node4 [color="midnightblue",fontsize="10",style="solid",fontname="Helvetica"];
  Node17 -> Node19 [color="midnightblue",fontsize="10",style="solid",fontname="Helvetica"];
  Node19 [label="include/hil/net/rime\l/chameleon.h",height=0.2,width=0.4,color="black", fillcolor="white", style="filled",URL="$d1/d5b/dynamic_2include_2hil_2net_2rime_2chameleon_8h.html"];
  Node19 -> Node2 [color="midnightblue",fontsize="10",style="solid",fontname="Helvetica"];
  Node19 -> Node20 [color="midnightblue",fontsize="10",style="solid",fontname="Helvetica"];
  Node20 [label="chameleon-constdef.h",height=0.2,width=0.4,color="black", fillcolor="white", style="filled",URL="$dd/df4/chameleon-constdef_8h_source.html"];
  Node19 -> Node17 [color="midnightblue",fontsize="10",style="solid",fontname="Helvetica"];
  Node13 -> Node7 [color="midnightblue",fontsize="10",style="solid",fontname="Helvetica"];
  Node0 -> Node21 [color="midnightblue",fontsize="10",style="solid",fontname="Helvetica"];
  Node21 [label="include/net/rime/route\l-discovery.h",height=0.2,width=0.4,color="black", fillcolor="white", style="filled",URL="$d3/d80/dynamic_2include_2net_2rime_2route-discovery_8h.html"];
  Node21 -> Node2 [color="midnightblue",fontsize="10",style="solid",fontname="Helvetica"];
  Node21 -> Node22 [color="midnightblue",fontsize="10",style="solid",fontname="Helvetica"];
  Node22 [label="route-discovery-constdef.h",height=0.2,width=0.4,color="black", fillcolor="white", style="filled",URL="$d2/da5/route-discovery-constdef_8h_source.html"];
  Node21 -> Node11 [color="midnightblue",fontsize="10",style="solid",fontname="Helvetica"];
  Node21 -> Node23 [color="midnightblue",fontsize="10",style="solid",fontname="Helvetica"];
  Node23 [label="include/net/rime/netflood.h",height=0.2,width=0.4,color="black", fillcolor="white", style="filled",URL="$d3/de6/dynamic_2include_2net_2rime_2netflood_8h.html"];
  Node23 -> Node2 [color="midnightblue",fontsize="10",style="solid",fontname="Helvetica"];
  Node23 -> Node24 [color="midnightblue",fontsize="10",style="solid",fontname="Helvetica"];
  Node24 [label="netflood-constdef.h",height=0.2,width=0.4,color="black", fillcolor="white", style="filled",URL="$d8/ddf/netflood-constdef_8h_source.html"];
  Node23 -> Node1 [color="midnightblue",fontsize="10",style="solid",fontname="Helvetica"];
  Node23 -> Node25 [color="midnightblue",fontsize="10",style="solid",fontname="Helvetica"];
  Node25 [label="include/net/rime/ipolite.h",height=0.2,width=0.4,color="black", fillcolor="white", style="filled",URL="$d3/dc2/dynamic_2include_2net_2rime_2ipolite_8h.html"];
  Node25 -> Node2 [color="midnightblue",fontsize="10",style="solid",fontname="Helvetica"];
  Node25 -> Node26 [color="midnightblue",fontsize="10",style="solid",fontname="Helvetica"];
  Node26 [label="ipolite-constdef.h",height=0.2,width=0.4,color="black", fillcolor="white", style="filled",URL="$d6/dae/ipolite-constdef_8h_source.html"];
  Node25 -> Node13 [color="midnightblue",fontsize="10",style="solid",fontname="Helvetica"];
  Node25 -> Node27 [color="midnightblue",fontsize="10",style="solid",fontname="Helvetica"];
  Node27 [label="include/hil/sys/timer\l/ctimer.h",height=0.2,width=0.4,color="black", fillcolor="white", style="filled",URL="$df/d95/dynamic_2include_2hil_2sys_2timer_2ctimer_8h.html"];
  Node27 -> Node2 [color="midnightblue",fontsize="10",style="solid",fontname="Helvetica"];
  Node27 -> Node28 [color="midnightblue",fontsize="10",style="solid",fontname="Helvetica"];
  Node28 [label="ctimer-constdef.h",height=0.2,width=0.4,color="black", fillcolor="white", style="filled",URL="$df/ded/ctimer-constdef_8h_source.html"];
  Node27 -> Node29 [color="midnightblue",fontsize="10",style="solid",fontname="Helvetica"];
  Node29 [label="include/hil/sys/timer\l/etimer.h",height=0.2,width=0.4,color="black", fillcolor="white", style="filled",URL="$df/da3/dynamic_2include_2hil_2sys_2timer_2etimer_8h.html"];
  Node29 -> Node2 [color="midnightblue",fontsize="10",style="solid",fontname="Helvetica"];
  Node29 -> Node30 [color="midnightblue",fontsize="10",style="solid",fontname="Helvetica"];
  Node30 [label="etimer-constdef.h",height=0.2,width=0.4,color="black", fillcolor="white", style="filled",URL="$d3/df1/etimer-constdef_8h_source.html"];
  Node29 -> Node31 [color="midnightblue",fontsize="10",style="solid",fontname="Helvetica"];
  Node31 [label="include/hil/sys/timer\l/timer.h",height=0.2,width=0.4,color="black", fillcolor="white", style="filled",URL="$d2/dd4/dynamic_2include_2hil_2sys_2timer_2timer_8h.html"];
  Node31 -> Node2 [color="midnightblue",fontsize="10",style="solid",fontname="Helvetica"];
  Node31 -> Node32 [color="midnightblue",fontsize="10",style="solid",fontname="Helvetica"];
  Node32 [label="timer-constdef.h",height=0.2,width=0.4,color="black", fillcolor="white", style="filled",URL="$d0/d4e/timer-constdef_8h_source.html"];
  Node31 -> Node33 [color="midnightblue",fontsize="10",style="solid",fontname="Helvetica"];
  Node33 [label="include/hil/sys/timer\l/clock.h",height=0.2,width=0.4,color="black", fillcolor="white", style="filled",URL="$de/d4b/dynamic_2include_2hil_2sys_2timer_2clock_8h_source.html"];
  Node33 -> Node2 [color="midnightblue",fontsize="10",style="solid",fontname="Helvetica"];
  Node33 -> Node34 [color="midnightblue",fontsize="10",style="solid",fontname="Helvetica"];
  Node34 [label="clock-constdef.h",height=0.2,width=0.4,color="black", fillcolor="white", style="filled",URL="$df/d4a/clock-constdef_8h_source.html"];
  Node33 -> Node6 [color="midnightblue",fontsize="10",style="solid",fontname="Helvetica"];
  Node29 -> Node35 [color="midnightblue",fontsize="10",style="solid",fontname="Helvetica"];
  Node35 [label="include/hil/sys/process\l/process.h",height=0.2,width=0.4,color="black", fillcolor="white", style="filled",URL="$df/d3d/dynamic_2include_2hil_2sys_2process_2process_8h.html"];
  Node35 -> Node2 [color="midnightblue",fontsize="10",style="solid",fontname="Helvetica"];
  Node35 -> Node36 [color="midnightblue",fontsize="10",style="solid",fontname="Helvetica"];
  Node36 [label="process-constdef.h",height=0.2,width=0.4,color="black", fillcolor="white", style="filled",URL="$df/dd3/process-constdef_8h_source.html"];
  Node35 -> Node37 [color="midnightblue",fontsize="10",style="solid",fontname="Helvetica"];
  Node37 [label="sys/process/pt.h",height=0.2,width=0.4,color="grey75", fillcolor="white", style="filled"];
  Node35 -> Node38 [color="midnightblue",fontsize="10",style="solid",fontname="Helvetica"];
  Node38 [label="sys/process/cc.h",height=0.2,width=0.4,color="grey75", fillcolor="white", style="filled"];
  Node25 -> Node1 [color="midnightblue",fontsize="10",style="solid",fontname="Helvetica"];
  Node21 -> Node27 [color="midnightblue",fontsize="10",style="solid",fontname="Helvetica"];
}
