digraph "src/dynamic/include/net/rime/broadcast.h"
{
  edge [fontname="Helvetica",fontsize="10",labelfontname="Helvetica",labelfontsize="10"];
  node [fontname="Helvetica",fontsize="10",shape=record];
  Node0 [label="src/dynamic/include\l/net/rime/broadcast.h",height=0.2,width=0.4,color="black", fillcolor="grey75", style="filled", fontcolor="black"];
  Node0 -> Node1 [color="midnightblue",fontsize="10",style="solid",fontname="Helvetica"];
  Node1 [label="kernel.h",height=0.2,width=0.4,color="grey75", fillcolor="white", style="filled"];
  Node0 -> Node2 [color="midnightblue",fontsize="10",style="solid",fontname="Helvetica"];
  Node2 [label="broadcast-constdef.h",height=0.2,width=0.4,color="black", fillcolor="white", style="filled",URL="$dd/d6f/broadcast-constdef_8h_source.html"];
  Node0 -> Node3 [color="midnightblue",fontsize="10",style="solid",fontname="Helvetica"];
  Node3 [label="include/hil/net/rime\l/abc.h",height=0.2,width=0.4,color="black", fillcolor="white", style="filled",URL="$d7/d32/dynamic_2include_2hil_2net_2rime_2abc_8h.html"];
  Node3 -> Node1 [color="midnightblue",fontsize="10",style="solid",fontname="Helvetica"];
  Node3 -> Node4 [color="midnightblue",fontsize="10",style="solid",fontname="Helvetica"];
  Node4 [label="abc-constdef.h",height=0.2,width=0.4,color="black", fillcolor="white", style="filled",URL="$d9/d4f/abc-constdef_8h_source.html"];
  Node3 -> Node5 [color="midnightblue",fontsize="10",style="solid",fontname="Helvetica"];
  Node5 [label="include/hil/net/rime\l/packetbuf.h",height=0.2,width=0.4,color="black", fillcolor="white", style="filled",URL="$dc/d3a/dynamic_2include_2hil_2net_2rime_2packetbuf_8h.html"];
  Node5 -> Node1 [color="midnightblue",fontsize="10",style="solid",fontname="Helvetica"];
  Node5 -> Node6 [color="midnightblue",fontsize="10",style="solid",fontname="Helvetica"];
  Node6 [label="packetbuf-constdef.h",height=0.2,width=0.4,color="black", fillcolor="white", style="filled",URL="$d7/dc2/packetbuf-constdef_8h_source.html"];
  Node5 -> Node7 [color="midnightblue",fontsize="10",style="solid",fontname="Helvetica"];
  Node7 [label="contiki-conf.h",height=0.2,width=0.4,color="grey75", fillcolor="white", style="filled"];
  Node5 -> Node8 [color="midnightblue",fontsize="10",style="solid",fontname="Helvetica"];
  Node8 [label="include/hil/net/rime\l/rimeaddr.h",height=0.2,width=0.4,color="black", fillcolor="white", style="filled",URL="$d6/d1a/dynamic_2include_2hil_2net_2rime_2rimeaddr_8h.html"];
  Node8 -> Node1 [color="midnightblue",fontsize="10",style="solid",fontname="Helvetica"];
  Node8 -> Node9 [color="midnightblue",fontsize="10",style="solid",fontname="Helvetica"];
  Node9 [label="rimeaddr-constdef.h",height=0.2,width=0.4,color="black", fillcolor="white", style="filled",URL="$d0/d88/rimeaddr-constdef_8h_source.html"];
  Node8 -> Node7 [color="midnightblue",fontsize="10",style="solid",fontname="Helvetica"];
  Node3 -> Node10 [color="midnightblue",fontsize="10",style="solid",fontname="Helvetica"];
  Node10 [label="include/hil/net/rime\l/channel.h",height=0.2,width=0.4,color="black", fillcolor="white", style="filled",URL="$d0/d64/dynamic_2include_2hil_2net_2rime_2channel_8h.html"];
  Node10 -> Node1 [color="midnightblue",fontsize="10",style="solid",fontname="Helvetica"];
  Node10 -> Node11 [color="midnightblue",fontsize="10",style="solid",fontname="Helvetica"];
  Node11 [label="channel-constdef.h",height=0.2,width=0.4,color="black", fillcolor="white", style="filled",URL="$db/df5/channel-constdef_8h_source.html"];
  Node10 -> Node7 [color="midnightblue",fontsize="10",style="solid",fontname="Helvetica"];
  Node10 -> Node5 [color="midnightblue",fontsize="10",style="solid",fontname="Helvetica"];
  Node10 -> Node12 [color="midnightblue",fontsize="10",style="solid",fontname="Helvetica"];
  Node12 [label="include/hil/net/rime\l/chameleon.h",height=0.2,width=0.4,color="black", fillcolor="white", style="filled",URL="$d1/d5b/dynamic_2include_2hil_2net_2rime_2chameleon_8h.html"];
  Node12 -> Node1 [color="midnightblue",fontsize="10",style="solid",fontname="Helvetica"];
  Node12 -> Node13 [color="midnightblue",fontsize="10",style="solid",fontname="Helvetica"];
  Node13 [label="chameleon-constdef.h",height=0.2,width=0.4,color="black", fillcolor="white", style="filled",URL="$dd/df4/chameleon-constdef_8h_source.html"];
  Node12 -> Node10 [color="midnightblue",fontsize="10",style="solid",fontname="Helvetica"];
  Node0 -> Node8 [color="midnightblue",fontsize="10",style="solid",fontname="Helvetica"];
}
