digraph "src/dynamic/net/rime/collect-neighbor.c"
{
  edge [fontname="Helvetica",fontsize="10",labelfontname="Helvetica",labelfontsize="10"];
  node [fontname="Helvetica",fontsize="10",shape=record];
  Node0 [label="src/dynamic/net/rime\l/collect-neighbor.c",height=0.2,width=0.4,color="black", fillcolor="grey75", style="filled", fontcolor="black"];
  Node0 -> Node1 [color="midnightblue",fontsize="10",style="solid",fontname="Helvetica"];
  Node1 [label="contiki-conf.h",height=0.2,width=0.4,color="grey75", fillcolor="white", style="filled"];
  Node0 -> Node2 [color="midnightblue",fontsize="10",style="solid",fontname="Helvetica"];
  Node2 [label="net/rime/collect-neighbor.h",height=0.2,width=0.4,color="grey75", fillcolor="white", style="filled"];
  Node0 -> Node3 [color="midnightblue",fontsize="10",style="solid",fontname="Helvetica"];
  Node3 [label="include/hil/lib/util\l/memb.h",height=0.2,width=0.4,color="black", fillcolor="white", style="filled",URL="$d2/d1b/dynamic_2include_2hil_2lib_2util_2memb_8h.html"];
  Node3 -> Node4 [color="midnightblue",fontsize="10",style="solid",fontname="Helvetica"];
  Node4 [label="kernel.h",height=0.2,width=0.4,color="grey75", fillcolor="white", style="filled"];
  Node3 -> Node5 [color="midnightblue",fontsize="10",style="solid",fontname="Helvetica"];
  Node5 [label="memb-constdef.h",height=0.2,width=0.4,color="black", fillcolor="white", style="filled",URL="$df/df7/memb-constdef_8h_source.html"];
  Node3 -> Node6 [color="midnightblue",fontsize="10",style="solid",fontname="Helvetica"];
  Node6 [label="sys/process/cc.h",height=0.2,width=0.4,color="grey75", fillcolor="white", style="filled"];
  Node0 -> Node7 [color="midnightblue",fontsize="10",style="solid",fontname="Helvetica"];
  Node7 [label="include/hil/lib/util\l/list.h",height=0.2,width=0.4,color="black", fillcolor="white", style="filled",URL="$d1/dfd/dynamic_2include_2hil_2lib_2util_2list_8h.html"];
  Node7 -> Node4 [color="midnightblue",fontsize="10",style="solid",fontname="Helvetica"];
  Node7 -> Node8 [color="midnightblue",fontsize="10",style="solid",fontname="Helvetica"];
  Node8 [label="list-constdef.h",height=0.2,width=0.4,color="black", fillcolor="white", style="filled",URL="$db/de5/list-constdef_8h_source.html"];
  Node0 -> Node9 [color="midnightblue",fontsize="10",style="solid",fontname="Helvetica"];
  Node9 [label="include/net/rime/collect.h",height=0.2,width=0.4,color="black", fillcolor="white", style="filled",URL="$d7/d59/dynamic_2include_2net_2rime_2collect_8h.html"];
  Node9 -> Node4 [color="midnightblue",fontsize="10",style="solid",fontname="Helvetica"];
  Node9 -> Node10 [color="midnightblue",fontsize="10",style="solid",fontname="Helvetica"];
  Node10 [label="collect-constdef.h",height=0.2,width=0.4,color="black", fillcolor="white", style="filled",URL="$d0/dcf/collect-constdef_8h_source.html"];
  Node9 -> Node11 [color="midnightblue",fontsize="10",style="solid",fontname="Helvetica"];
  Node11 [label="include/net/rime/unicast.h",height=0.2,width=0.4,color="black", fillcolor="white", style="filled",URL="$d6/d21/dynamic_2include_2net_2rime_2unicast_8h.html"];
  Node11 -> Node4 [color="midnightblue",fontsize="10",style="solid",fontname="Helvetica"];
  Node11 -> Node12 [color="midnightblue",fontsize="10",style="solid",fontname="Helvetica"];
  Node12 [label="unicast-constdef.h",height=0.2,width=0.4,color="black", fillcolor="white", style="filled",URL="$d3/db8/unicast-constdef_8h_source.html"];
  Node11 -> Node13 [color="midnightblue",fontsize="10",style="solid",fontname="Helvetica"];
  Node13 [label="include/net/rime/broadcast.h",height=0.2,width=0.4,color="black", fillcolor="white", style="filled",URL="$d2/dca/dynamic_2include_2net_2rime_2broadcast_8h.html"];
  Node13 -> Node4 [color="midnightblue",fontsize="10",style="solid",fontname="Helvetica"];
  Node13 -> Node14 [color="midnightblue",fontsize="10",style="solid",fontname="Helvetica"];
  Node14 [label="broadcast-constdef.h",height=0.2,width=0.4,color="black", fillcolor="white", style="filled",URL="$dd/d6f/broadcast-constdef_8h_source.html"];
  Node13 -> Node15 [color="midnightblue",fontsize="10",style="solid",fontname="Helvetica"];
  Node15 [label="include/hil/net/rime\l/abc.h",height=0.2,width=0.4,color="black", fillcolor="white", style="filled",URL="$d7/d32/dynamic_2include_2hil_2net_2rime_2abc_8h.html"];
  Node15 -> Node4 [color="midnightblue",fontsize="10",style="solid",fontname="Helvetica"];
  Node15 -> Node16 [color="midnightblue",fontsize="10",style="solid",fontname="Helvetica"];
  Node16 [label="abc-constdef.h",height=0.2,width=0.4,color="black", fillcolor="white", style="filled",URL="$d9/d4f/abc-constdef_8h_source.html"];
  Node15 -> Node17 [color="midnightblue",fontsize="10",style="solid",fontname="Helvetica"];
  Node17 [label="include/hil/net/rime\l/packetbuf.h",height=0.2,width=0.4,color="black", fillcolor="white", style="filled",URL="$dc/d3a/dynamic_2include_2hil_2net_2rime_2packetbuf_8h.html"];
  Node17 -> Node4 [color="midnightblue",fontsize="10",style="solid",fontname="Helvetica"];
  Node17 -> Node18 [color="midnightblue",fontsize="10",style="solid",fontname="Helvetica"];
  Node18 [label="packetbuf-constdef.h",height=0.2,width=0.4,color="black", fillcolor="white", style="filled",URL="$d7/dc2/packetbuf-constdef_8h_source.html"];
  Node17 -> Node1 [color="midnightblue",fontsize="10",style="solid",fontname="Helvetica"];
  Node17 -> Node19 [color="midnightblue",fontsize="10",style="solid",fontname="Helvetica"];
  Node19 [label="include/hil/net/rime\l/rimeaddr.h",height=0.2,width=0.4,color="black", fillcolor="white", style="filled",URL="$d6/d1a/dynamic_2include_2hil_2net_2rime_2rimeaddr_8h.html"];
  Node19 -> Node4 [color="midnightblue",fontsize="10",style="solid",fontname="Helvetica"];
  Node19 -> Node20 [color="midnightblue",fontsize="10",style="solid",fontname="Helvetica"];
  Node20 [label="rimeaddr-constdef.h",height=0.2,width=0.4,color="black", fillcolor="white", style="filled",URL="$d0/d88/rimeaddr-constdef_8h_source.html"];
  Node19 -> Node1 [color="midnightblue",fontsize="10",style="solid",fontname="Helvetica"];
  Node15 -> Node21 [color="midnightblue",fontsize="10",style="solid",fontname="Helvetica"];
  Node21 [label="include/hil/net/rime\l/channel.h",height=0.2,width=0.4,color="black", fillcolor="white", style="filled",URL="$d0/d64/dynamic_2include_2hil_2net_2rime_2channel_8h.html"];
  Node21 -> Node4 [color="midnightblue",fontsize="10",style="solid",fontname="Helvetica"];
  Node21 -> Node22 [color="midnightblue",fontsize="10",style="solid",fontname="Helvetica"];
  Node22 [label="channel-constdef.h",height=0.2,width=0.4,color="black", fillcolor="white", style="filled",URL="$db/df5/channel-constdef_8h_source.html"];
  Node21 -> Node1 [color="midnightblue",fontsize="10",style="solid",fontname="Helvetica"];
  Node21 -> Node17 [color="midnightblue",fontsize="10",style="solid",fontname="Helvetica"];
  Node21 -> Node23 [color="midnightblue",fontsize="10",style="solid",fontname="Helvetica"];
  Node23 [label="include/hil/net/rime\l/chameleon.h",height=0.2,width=0.4,color="black", fillcolor="white", style="filled",URL="$d1/d5b/dynamic_2include_2hil_2net_2rime_2chameleon_8h.html"];
  Node23 -> Node4 [color="midnightblue",fontsize="10",style="solid",fontname="Helvetica"];
  Node23 -> Node24 [color="midnightblue",fontsize="10",style="solid",fontname="Helvetica"];
  Node24 [label="chameleon-constdef.h",height=0.2,width=0.4,color="black", fillcolor="white", style="filled",URL="$dd/df4/chameleon-constdef_8h_source.html"];
  Node23 -> Node21 [color="midnightblue",fontsize="10",style="solid",fontname="Helvetica"];
  Node13 -> Node19 [color="midnightblue",fontsize="10",style="solid",fontname="Helvetica"];
  Node9 -> Node25 [color="midnightblue",fontsize="10",style="solid",fontname="Helvetica"];
  Node25 [label="include/hil/net/rime\l/packetqueue.h",height=0.2,width=0.4,color="black", fillcolor="white", style="filled",URL="$dc/d29/dynamic_2include_2hil_2net_2rime_2packetqueue_8h.html"];
  Node25 -> Node4 [color="midnightblue",fontsize="10",style="solid",fontname="Helvetica"];
  Node25 -> Node26 [color="midnightblue",fontsize="10",style="solid",fontname="Helvetica"];
  Node26 [label="packetqueue-constdef.h",height=0.2,width=0.4,color="black", fillcolor="white", style="filled",URL="$dc/dd4/packetqueue-constdef_8h_source.html"];
  Node25 -> Node7 [color="midnightblue",fontsize="10",style="solid",fontname="Helvetica"];
  Node25 -> Node3 [color="midnightblue",fontsize="10",style="solid",fontname="Helvetica"];
  Node25 -> Node27 [color="midnightblue",fontsize="10",style="solid",fontname="Helvetica"];
  Node27 [label="include/hil/sys/timer\l/ctimer.h",height=0.2,width=0.4,color="black", fillcolor="white", style="filled",URL="$df/d95/dynamic_2include_2hil_2sys_2timer_2ctimer_8h.html"];
  Node27 -> Node4 [color="midnightblue",fontsize="10",style="solid",fontname="Helvetica"];
  Node27 -> Node28 [color="midnightblue",fontsize="10",style="solid",fontname="Helvetica"];
  Node28 [label="ctimer-constdef.h",height=0.2,width=0.4,color="black", fillcolor="white", style="filled",URL="$df/ded/ctimer-constdef_8h_source.html"];
  Node27 -> Node29 [color="midnightblue",fontsize="10",style="solid",fontname="Helvetica"];
  Node29 [label="include/hil/sys/timer\l/etimer.h",height=0.2,width=0.4,color="black", fillcolor="white", style="filled",URL="$df/da3/dynamic_2include_2hil_2sys_2timer_2etimer_8h.html"];
  Node29 -> Node4 [color="midnightblue",fontsize="10",style="solid",fontname="Helvetica"];
  Node29 -> Node30 [color="midnightblue",fontsize="10",style="solid",fontname="Helvetica"];
  Node30 [label="etimer-constdef.h",height=0.2,width=0.4,color="black", fillcolor="white", style="filled",URL="$d3/df1/etimer-constdef_8h_source.html"];
  Node29 -> Node31 [color="midnightblue",fontsize="10",style="solid",fontname="Helvetica"];
  Node31 [label="include/hil/sys/timer\l/timer.h",height=0.2,width=0.4,color="black", fillcolor="white", style="filled",URL="$d2/dd4/dynamic_2include_2hil_2sys_2timer_2timer_8h.html"];
  Node31 -> Node4 [color="midnightblue",fontsize="10",style="solid",fontname="Helvetica"];
  Node31 -> Node32 [color="midnightblue",fontsize="10",style="solid",fontname="Helvetica"];
  Node32 [label="timer-constdef.h",height=0.2,width=0.4,color="black", fillcolor="white", style="filled",URL="$d0/d4e/timer-constdef_8h_source.html"];
  Node31 -> Node33 [color="midnightblue",fontsize="10",style="solid",fontname="Helvetica"];
  Node33 [label="include/hil/sys/timer\l/clock.h",height=0.2,width=0.4,color="black", fillcolor="white", style="filled",URL="$de/d4b/dynamic_2include_2hil_2sys_2timer_2clock_8h_source.html"];
  Node33 -> Node4 [color="midnightblue",fontsize="10",style="solid",fontname="Helvetica"];
  Node33 -> Node34 [color="midnightblue",fontsize="10",style="solid",fontname="Helvetica"];
  Node34 [label="clock-constdef.h",height=0.2,width=0.4,color="black", fillcolor="white", style="filled",URL="$df/d4a/clock-constdef_8h_source.html"];
  Node33 -> Node1 [color="midnightblue",fontsize="10",style="solid",fontname="Helvetica"];
  Node29 -> Node35 [color="midnightblue",fontsize="10",style="solid",fontname="Helvetica"];
  Node35 [label="include/hil/sys/process\l/process.h",height=0.2,width=0.4,color="black", fillcolor="white", style="filled",URL="$df/d3d/dynamic_2include_2hil_2sys_2process_2process_8h.html"];
  Node35 -> Node4 [color="midnightblue",fontsize="10",style="solid",fontname="Helvetica"];
  Node35 -> Node36 [color="midnightblue",fontsize="10",style="solid",fontname="Helvetica"];
  Node36 [label="process-constdef.h",height=0.2,width=0.4,color="black", fillcolor="white", style="filled",URL="$df/dd3/process-constdef_8h_source.html"];
  Node35 -> Node37 [color="midnightblue",fontsize="10",style="solid",fontname="Helvetica"];
  Node37 [label="sys/process/pt.h",height=0.2,width=0.4,color="grey75", fillcolor="white", style="filled"];
  Node35 -> Node6 [color="midnightblue",fontsize="10",style="solid",fontname="Helvetica"];
  Node25 -> Node17 [color="midnightblue",fontsize="10",style="solid",fontname="Helvetica"];
  Node25 -> Node38 [color="midnightblue",fontsize="10",style="solid",fontname="Helvetica"];
  Node38 [label="include/hil/net/rime\l/queuebuf.h",height=0.2,width=0.4,color="black", fillcolor="white", style="filled",URL="$dc/d5c/dynamic_2include_2hil_2net_2rime_2queuebuf_8h.html"];
  Node38 -> Node4 [color="midnightblue",fontsize="10",style="solid",fontname="Helvetica"];
  Node38 -> Node39 [color="midnightblue",fontsize="10",style="solid",fontname="Helvetica"];
  Node39 [label="queuebuf-constdef.h",height=0.2,width=0.4,color="black", fillcolor="white", style="filled",URL="$dd/d36/queuebuf-constdef_8h_source.html"];
  Node38 -> Node17 [color="midnightblue",fontsize="10",style="solid",fontname="Helvetica"];
  Node9 -> Node27 [color="midnightblue",fontsize="10",style="solid",fontname="Helvetica"];
  Node9 -> Node7 [color="midnightblue",fontsize="10",style="solid",fontname="Helvetica"];
  Node9 -> Node40 [color="midnightblue",fontsize="10",style="solid",fontname="Helvetica"];
  Node40 [label="include/hil/net/rime\l/announcement.h",height=0.2,width=0.4,color="black", fillcolor="white", style="filled",URL="$d3/d5b/dynamic_2include_2hil_2net_2rime_2announcement_8h.html"];
  Node40 -> Node4 [color="midnightblue",fontsize="10",style="solid",fontname="Helvetica"];
  Node40 -> Node41 [color="midnightblue",fontsize="10",style="solid",fontname="Helvetica"];
  Node41 [label="announcement-constdef.h",height=0.2,width=0.4,color="black", fillcolor="white", style="filled",URL="$d8/d3f/announcement-constdef_8h_source.html"];
  Node40 -> Node19 [color="midnightblue",fontsize="10",style="solid",fontname="Helvetica"];
  Node9 -> Node42 [color="midnightblue",fontsize="10",style="solid",fontname="Helvetica"];
  Node42 [label="include/net/rime/neighbor\l-discovery.h",height=0.2,width=0.4,color="black", fillcolor="white", style="filled",URL="$d6/dbe/dynamic_2include_2net_2rime_2neighbor-discovery_8h.html"];
  Node42 -> Node4 [color="midnightblue",fontsize="10",style="solid",fontname="Helvetica"];
  Node42 -> Node43 [color="midnightblue",fontsize="10",style="solid",fontname="Helvetica"];
  Node43 [label="neighbor-discovery\l-constdef.h",height=0.2,width=0.4,color="black", fillcolor="white", style="filled",URL="$df/d1b/neighbor-discovery-constdef_8h_source.html"];
  Node42 -> Node13 [color="midnightblue",fontsize="10",style="solid",fontname="Helvetica"];
  Node42 -> Node27 [color="midnightblue",fontsize="10",style="solid",fontname="Helvetica"];
  Node9 -> Node44 [color="midnightblue",fontsize="10",style="solid",fontname="Helvetica"];
  Node44 [label="include/net/rime/collect\l-neighbor.h",height=0.2,width=0.4,color="black", fillcolor="white", style="filled",URL="$db/d60/dynamic_2include_2net_2rime_2collect-neighbor_8h.html"];
  Node44 -> Node4 [color="midnightblue",fontsize="10",style="solid",fontname="Helvetica"];
  Node44 -> Node45 [color="midnightblue",fontsize="10",style="solid",fontname="Helvetica"];
  Node45 [label="collect-neighbor-constdef.h",height=0.2,width=0.4,color="black", fillcolor="white", style="filled",URL="$d1/dde/collect-neighbor-constdef_8h_source.html"];
  Node44 -> Node19 [color="midnightblue",fontsize="10",style="solid",fontname="Helvetica"];
  Node44 -> Node7 [color="midnightblue",fontsize="10",style="solid",fontname="Helvetica"];
  Node44 -> Node27 [color="midnightblue",fontsize="10",style="solid",fontname="Helvetica"];
  Node44 -> Node46 [color="midnightblue",fontsize="10",style="solid",fontname="Helvetica"];
  Node46 [label="include/net/rime/collect\l-link-estimate.h",height=0.2,width=0.4,color="black", fillcolor="white", style="filled",URL="$d2/d46/dynamic_2include_2net_2rime_2collect-link-estimate_8h.html"];
  Node46 -> Node4 [color="midnightblue",fontsize="10",style="solid",fontname="Helvetica"];
  Node46 -> Node47 [color="midnightblue",fontsize="10",style="solid",fontname="Helvetica"];
  Node47 [label="collect-link-estimate\l-constdef.h",height=0.2,width=0.4,color="black", fillcolor="white", style="filled",URL="$de/d83/collect-link-estimate-constdef_8h_source.html"];
  Node0 -> Node48 [color="midnightblue",fontsize="10",style="solid",fontname="Helvetica"];
  Node48 [label="include/net/rime/collect\l-neighbor-object.h",height=0.2,width=0.4,color="black", fillcolor="white", style="filled",URL="$d7/d4b/collect-neighbor-object_8h_source.html"];
  Node48 -> Node2 [color="midnightblue",fontsize="10",style="solid",fontname="Helvetica"];
  Node48 -> Node45 [color="midnightblue",fontsize="10",style="solid",fontname="Helvetica"];
}
