digraph "rudolph0_conn"
{
  edge [fontname="Helvetica",fontsize="10",labelfontname="Helvetica",labelfontsize="10"];
  node [fontname="Helvetica",fontsize="10",shape=record];
  rankdir="LR";
  Node1 [label="rudolph0_conn",height=0.2,width=0.4,color="black", fillcolor="grey75", style="filled", fontcolor="black"];
  Node2 -> Node1 [dir="back",color="darkorchid3",fontsize="10",style="dashed",label=" c" ,fontname="Helvetica"];
  Node2 [label="stbroadcast_conn",height=0.2,width=0.4,color="black", fillcolor="white", style="filled",URL="$db/de0/structstbroadcast__conn.html"];
  Node3 -> Node2 [dir="back",color="darkorchid3",fontsize="10",style="dashed",label=" t" ,fontname="Helvetica"];
  Node3 [label="ctimer",height=0.2,width=0.4,color="black", fillcolor="white", style="filled",URL="$d5/d89/structctimer.html"];
  Node3 -> Node3 [dir="back",color="darkorchid3",fontsize="10",style="dashed",label=" next" ,fontname="Helvetica"];
  Node4 -> Node3 [dir="back",color="darkorchid3",fontsize="10",style="dashed",label=" p" ,fontname="Helvetica"];
  Node4 [label="process",height=0.2,width=0.4,color="black", fillcolor="white", style="filled",URL="$d8/d20/structprocess.html"];
  Node5 -> Node4 [dir="back",color="darkorchid3",fontsize="10",style="dashed",label=" pt" ,fontname="Helvetica"];
  Node5 [label="pt",height=0.2,width=0.4,color="black", fillcolor="white", style="filled",URL="$d7/d11/structpt.html"];
  Node4 -> Node4 [dir="back",color="darkorchid3",fontsize="10",style="dashed",label=" next" ,fontname="Helvetica"];
  Node6 -> Node3 [dir="back",color="darkorchid3",fontsize="10",style="dashed",label=" etimer" ,fontname="Helvetica"];
  Node6 [label="etimer",height=0.2,width=0.4,color="black", fillcolor="white", style="filled",URL="$d2/d9d/structetimer.html"];
  Node4 -> Node6 [dir="back",color="darkorchid3",fontsize="10",style="dashed",label=" p" ,fontname="Helvetica"];
  Node7 -> Node6 [dir="back",color="darkorchid3",fontsize="10",style="dashed",label=" timer" ,fontname="Helvetica"];
  Node7 [label="timer",height=0.2,width=0.4,color="black", fillcolor="white", style="filled",URL="$d4/d93/structtimer.html"];
  Node6 -> Node6 [dir="back",color="darkorchid3",fontsize="10",style="dashed",label=" next" ,fontname="Helvetica"];
  Node8 -> Node2 [dir="back",color="darkorchid3",fontsize="10",style="dashed",label=" u" ,fontname="Helvetica"];
  Node8 [label="stbroadcast_callbacks",height=0.2,width=0.4,color="black", fillcolor="white", style="filled",URL="$d7/df7/structstbroadcast__callbacks.html"];
  Node9 -> Node2 [dir="back",color="darkorchid3",fontsize="10",style="dashed",label=" c" ,fontname="Helvetica"];
  Node9 [label="broadcast_conn",height=0.2,width=0.4,color="black", fillcolor="white", style="filled",URL="$d4/d0b/structbroadcast__conn.html"];
  Node10 -> Node9 [dir="back",color="darkorchid3",fontsize="10",style="dashed",label=" u" ,fontname="Helvetica"];
  Node10 [label="broadcast_callbacks",height=0.2,width=0.4,color="black", fillcolor="white", style="filled",URL="$de/dc5/structbroadcast__callbacks.html",tooltip="Callback structure for broadcast. "];
  Node11 -> Node9 [dir="back",color="darkorchid3",fontsize="10",style="dashed",label=" c" ,fontname="Helvetica"];
  Node11 [label="abc_conn",height=0.2,width=0.4,color="black", fillcolor="white", style="filled",URL="$df/dbe/structabc__conn.html"];
  Node12 -> Node11 [dir="back",color="darkorchid3",fontsize="10",style="dashed",label=" channel" ,fontname="Helvetica"];
  Node12 [label="channel",height=0.2,width=0.4,color="black", fillcolor="white", style="filled",URL="$d4/d84/structchannel.html"];
  Node13 -> Node12 [dir="back",color="darkorchid3",fontsize="10",style="dashed",label=" attrlist" ,fontname="Helvetica"];
  Node13 [label="packetbuf_attrlist",height=0.2,width=0.4,color="black", fillcolor="white", style="filled",URL="$d0/da9/structpacketbuf__attrlist.html"];
  Node12 -> Node12 [dir="back",color="darkorchid3",fontsize="10",style="dashed",label=" next" ,fontname="Helvetica"];
  Node14 -> Node11 [dir="back",color="darkorchid3",fontsize="10",style="dashed",label=" u" ,fontname="Helvetica"];
  Node14 [label="abc_callbacks",height=0.2,width=0.4,color="black", fillcolor="white", style="filled",URL="$de/db0/structabc__callbacks.html",tooltip="Callback structure for abc. "];
  Node15 -> Node2 [dir="back",color="darkorchid3",fontsize="10",style="dashed",label=" buf" ,fontname="Helvetica"];
  Node15 [label="queuebuf",height=0.2,width=0.4,color="black", fillcolor="white", style="filled",URL="$db/d80/structqueuebuf.html"];
  Node16 -> Node15 [dir="back",color="darkorchid3",fontsize="10",style="dashed",label=" ram_ptr" ,fontname="Helvetica"];
  Node16 [label="queuebuf_data",height=0.2,width=0.4,color="black", fillcolor="white", style="filled",URL="$d8/d42/structqueuebuf__data.html"];
  Node17 -> Node16 [dir="back",color="darkorchid3",fontsize="10",style="dashed",label=" addrs" ,fontname="Helvetica"];
  Node17 [label="packetbuf_addr",height=0.2,width=0.4,color="black", fillcolor="white", style="filled",URL="$dc/d94/structpacketbuf__addr.html"];
  Node18 -> Node17 [dir="back",color="darkorchid3",fontsize="10",style="dashed",label=" addr" ,fontname="Helvetica"];
  Node18 [label="rimeaddr_t",height=0.2,width=0.4,color="black", fillcolor="white", style="filled",URL="$d1/dff/unionrimeaddr__t.html"];
  Node19 -> Node16 [dir="back",color="darkorchid3",fontsize="10",style="dashed",label=" attrs" ,fontname="Helvetica"];
  Node19 [label="packetbuf_attr",height=0.2,width=0.4,color="black", fillcolor="white", style="filled",URL="$de/de3/structpacketbuf__attr.html"];
  Node20 -> Node1 [dir="back",color="darkorchid3",fontsize="10",style="dashed",label=" cb" ,fontname="Helvetica"];
  Node20 [label="rudolph0_callbacks",height=0.2,width=0.4,color="black", fillcolor="white", style="filled",URL="$d7/db3/structrudolph0__callbacks.html"];
  Node21 -> Node1 [dir="back",color="darkorchid3",fontsize="10",style="dashed",label=" current" ,fontname="Helvetica"];
  Node21 [label="rudolph0_datapacket",height=0.2,width=0.4,color="black", fillcolor="white", style="filled",URL="$db/deb/structrudolph0__datapacket.html"];
  Node22 -> Node21 [dir="back",color="darkorchid3",fontsize="10",style="dashed",label=" h" ,fontname="Helvetica"];
  Node22 [label="rudolph0_hdr",height=0.2,width=0.4,color="black", fillcolor="white", style="filled",URL="$d1/dcc/structrudolph0__hdr.html"];
  Node23 -> Node1 [dir="back",color="darkorchid3",fontsize="10",style="dashed",label=" nackc" ,fontname="Helvetica"];
  Node23 [label="polite_conn",height=0.2,width=0.4,color="black", fillcolor="white", style="filled",URL="$d6/db1/structpolite__conn.html"];
  Node3 -> Node23 [dir="back",color="darkorchid3",fontsize="10",style="dashed",label=" t" ,fontname="Helvetica"];
  Node11 -> Node23 [dir="back",color="darkorchid3",fontsize="10",style="dashed",label=" c" ,fontname="Helvetica"];
  Node15 -> Node23 [dir="back",color="darkorchid3",fontsize="10",style="dashed",label=" q" ,fontname="Helvetica"];
  Node24 -> Node23 [dir="back",color="darkorchid3",fontsize="10",style="dashed",label=" cb" ,fontname="Helvetica"];
  Node24 [label="polite_callbacks",height=0.2,width=0.4,color="black", fillcolor="white", style="filled",URL="$d3/d9b/structpolite__callbacks.html",tooltip="A structure with callback functions for a polite connection. "];
}
