digraph "src/dynamic/examples/rime/example-broadcast.c"
{
  edge [fontname="Helvetica",fontsize="10",labelfontname="Helvetica",labelfontsize="10"];
  node [fontname="Helvetica",fontsize="10",shape=record];
  Node0 [label="src/dynamic/examples\l/rime/example-broadcast.c",height=0.2,width=0.4,color="black", fillcolor="grey75", style="filled", fontcolor="black"];
  Node0 -> Node1 [color="midnightblue",fontsize="10",style="solid",fontname="Helvetica"];
  Node1 [label="include/hil/sys/process\l/process.h",height=0.2,width=0.4,color="black", fillcolor="white", style="filled",URL="$df/d3d/dynamic_2include_2hil_2sys_2process_2process_8h.html"];
  Node1 -> Node2 [color="midnightblue",fontsize="10",style="solid",fontname="Helvetica"];
  Node2 [label="kernel.h",height=0.2,width=0.4,color="grey75", fillcolor="white", style="filled"];
  Node1 -> Node3 [color="midnightblue",fontsize="10",style="solid",fontname="Helvetica"];
  Node3 [label="process-constdef.h",height=0.2,width=0.4,color="black", fillcolor="white", style="filled",URL="$df/dd3/process-constdef_8h_source.html"];
  Node1 -> Node4 [color="midnightblue",fontsize="10",style="solid",fontname="Helvetica"];
  Node4 [label="sys/process/pt.h",height=0.2,width=0.4,color="grey75", fillcolor="white", style="filled"];
  Node1 -> Node5 [color="midnightblue",fontsize="10",style="solid",fontname="Helvetica"];
  Node5 [label="sys/process/cc.h",height=0.2,width=0.4,color="grey75", fillcolor="white", style="filled"];
  Node0 -> Node6 [color="midnightblue",fontsize="10",style="solid",fontname="Helvetica"];
  Node6 [label="include/hil/sys/process\l/autostart.h",height=0.2,width=0.4,color="black", fillcolor="white", style="filled",URL="$d7/d64/dynamic_2include_2hil_2sys_2process_2autostart_8h.html"];
  Node6 -> Node2 [color="midnightblue",fontsize="10",style="solid",fontname="Helvetica"];
  Node6 -> Node7 [color="midnightblue",fontsize="10",style="solid",fontname="Helvetica"];
  Node7 [label="autostart-constdef.h",height=0.2,width=0.4,color="black", fillcolor="white", style="filled",URL="$d2/df3/autostart-constdef_8h_source.html"];
  Node6 -> Node1 [color="midnightblue",fontsize="10",style="solid",fontname="Helvetica"];
  Node0 -> Node8 [color="midnightblue",fontsize="10",style="solid",fontname="Helvetica"];
  Node8 [label="include/hil/sys/timer\l/etimer.h",height=0.2,width=0.4,color="black", fillcolor="white", style="filled",URL="$df/da3/dynamic_2include_2hil_2sys_2timer_2etimer_8h.html"];
  Node8 -> Node2 [color="midnightblue",fontsize="10",style="solid",fontname="Helvetica"];
  Node8 -> Node9 [color="midnightblue",fontsize="10",style="solid",fontname="Helvetica"];
  Node9 [label="etimer-constdef.h",height=0.2,width=0.4,color="black", fillcolor="white", style="filled",URL="$d3/df1/etimer-constdef_8h_source.html"];
  Node8 -> Node10 [color="midnightblue",fontsize="10",style="solid",fontname="Helvetica"];
  Node10 [label="include/hil/sys/timer\l/timer.h",height=0.2,width=0.4,color="black", fillcolor="white", style="filled",URL="$d2/dd4/dynamic_2include_2hil_2sys_2timer_2timer_8h.html"];
  Node10 -> Node2 [color="midnightblue",fontsize="10",style="solid",fontname="Helvetica"];
  Node10 -> Node11 [color="midnightblue",fontsize="10",style="solid",fontname="Helvetica"];
  Node11 [label="timer-constdef.h",height=0.2,width=0.4,color="black", fillcolor="white", style="filled",URL="$d0/d4e/timer-constdef_8h_source.html"];
  Node10 -> Node12 [color="midnightblue",fontsize="10",style="solid",fontname="Helvetica"];
  Node12 [label="include/hil/sys/timer\l/clock.h",height=0.2,width=0.4,color="black", fillcolor="white", style="filled",URL="$de/d4b/dynamic_2include_2hil_2sys_2timer_2clock_8h_source.html"];
  Node12 -> Node2 [color="midnightblue",fontsize="10",style="solid",fontname="Helvetica"];
  Node12 -> Node13 [color="midnightblue",fontsize="10",style="solid",fontname="Helvetica"];
  Node13 [label="clock-constdef.h",height=0.2,width=0.4,color="black", fillcolor="white", style="filled",URL="$df/d4a/clock-constdef_8h_source.html"];
  Node12 -> Node14 [color="midnightblue",fontsize="10",style="solid",fontname="Helvetica"];
  Node14 [label="contiki-conf.h",height=0.2,width=0.4,color="grey75", fillcolor="white", style="filled"];
  Node8 -> Node1 [color="midnightblue",fontsize="10",style="solid",fontname="Helvetica"];
  Node0 -> Node15 [color="midnightblue",fontsize="10",style="solid",fontname="Helvetica"];
  Node15 [label="include/hil/lib/util\l/random.h",height=0.2,width=0.4,color="black", fillcolor="white", style="filled",URL="$de/d3b/dynamic_2include_2hil_2lib_2util_2random_8h_source.html"];
  Node15 -> Node2 [color="midnightblue",fontsize="10",style="solid",fontname="Helvetica"];
  Node15 -> Node16 [color="midnightblue",fontsize="10",style="solid",fontname="Helvetica"];
  Node16 [label="random-constdef.h",height=0.2,width=0.4,color="black", fillcolor="white", style="filled",URL="$d7/d4f/random-constdef_8h_source.html"];
  Node0 -> Node17 [color="midnightblue",fontsize="10",style="solid",fontname="Helvetica"];
  Node17 [label="include/hil/net/rime\l/packetbuf.h",height=0.2,width=0.4,color="black", fillcolor="white", style="filled",URL="$dc/d3a/dynamic_2include_2hil_2net_2rime_2packetbuf_8h.html"];
  Node17 -> Node2 [color="midnightblue",fontsize="10",style="solid",fontname="Helvetica"];
  Node17 -> Node18 [color="midnightblue",fontsize="10",style="solid",fontname="Helvetica"];
  Node18 [label="packetbuf-constdef.h",height=0.2,width=0.4,color="black", fillcolor="white", style="filled",URL="$d7/dc2/packetbuf-constdef_8h_source.html"];
  Node17 -> Node14 [color="midnightblue",fontsize="10",style="solid",fontname="Helvetica"];
  Node17 -> Node19 [color="midnightblue",fontsize="10",style="solid",fontname="Helvetica"];
  Node19 [label="include/hil/net/rime\l/rimeaddr.h",height=0.2,width=0.4,color="black", fillcolor="white", style="filled",URL="$d6/d1a/dynamic_2include_2hil_2net_2rime_2rimeaddr_8h.html"];
  Node19 -> Node2 [color="midnightblue",fontsize="10",style="solid",fontname="Helvetica"];
  Node19 -> Node20 [color="midnightblue",fontsize="10",style="solid",fontname="Helvetica"];
  Node20 [label="rimeaddr-constdef.h",height=0.2,width=0.4,color="black", fillcolor="white", style="filled",URL="$d0/d88/rimeaddr-constdef_8h_source.html"];
  Node19 -> Node14 [color="midnightblue",fontsize="10",style="solid",fontname="Helvetica"];
  Node0 -> Node21 [color="midnightblue",fontsize="10",style="solid",fontname="Helvetica"];
  Node21 [label="include/net/rime/broadcast.h",height=0.2,width=0.4,color="black", fillcolor="white", style="filled",URL="$d2/dca/dynamic_2include_2net_2rime_2broadcast_8h.html"];
  Node21 -> Node2 [color="midnightblue",fontsize="10",style="solid",fontname="Helvetica"];
  Node21 -> Node22 [color="midnightblue",fontsize="10",style="solid",fontname="Helvetica"];
  Node22 [label="broadcast-constdef.h",height=0.2,width=0.4,color="black", fillcolor="white", style="filled",URL="$dd/d6f/broadcast-constdef_8h_source.html"];
  Node21 -> Node23 [color="midnightblue",fontsize="10",style="solid",fontname="Helvetica"];
  Node23 [label="include/hil/net/rime\l/abc.h",height=0.2,width=0.4,color="black", fillcolor="white", style="filled",URL="$d7/d32/dynamic_2include_2hil_2net_2rime_2abc_8h.html"];
  Node23 -> Node2 [color="midnightblue",fontsize="10",style="solid",fontname="Helvetica"];
  Node23 -> Node24 [color="midnightblue",fontsize="10",style="solid",fontname="Helvetica"];
  Node24 [label="abc-constdef.h",height=0.2,width=0.4,color="black", fillcolor="white", style="filled",URL="$d9/d4f/abc-constdef_8h_source.html"];
  Node23 -> Node17 [color="midnightblue",fontsize="10",style="solid",fontname="Helvetica"];
  Node23 -> Node25 [color="midnightblue",fontsize="10",style="solid",fontname="Helvetica"];
  Node25 [label="include/hil/net/rime\l/channel.h",height=0.2,width=0.4,color="black", fillcolor="white", style="filled",URL="$d0/d64/dynamic_2include_2hil_2net_2rime_2channel_8h.html"];
  Node25 -> Node2 [color="midnightblue",fontsize="10",style="solid",fontname="Helvetica"];
  Node25 -> Node26 [color="midnightblue",fontsize="10",style="solid",fontname="Helvetica"];
  Node26 [label="channel-constdef.h",height=0.2,width=0.4,color="black", fillcolor="white", style="filled",URL="$db/df5/channel-constdef_8h_source.html"];
  Node25 -> Node14 [color="midnightblue",fontsize="10",style="solid",fontname="Helvetica"];
  Node25 -> Node17 [color="midnightblue",fontsize="10",style="solid",fontname="Helvetica"];
  Node25 -> Node27 [color="midnightblue",fontsize="10",style="solid",fontname="Helvetica"];
  Node27 [label="include/hil/net/rime\l/chameleon.h",height=0.2,width=0.4,color="black", fillcolor="white", style="filled",URL="$d1/d5b/dynamic_2include_2hil_2net_2rime_2chameleon_8h.html"];
  Node27 -> Node2 [color="midnightblue",fontsize="10",style="solid",fontname="Helvetica"];
  Node27 -> Node28 [color="midnightblue",fontsize="10",style="solid",fontname="Helvetica"];
  Node28 [label="chameleon-constdef.h",height=0.2,width=0.4,color="black", fillcolor="white", style="filled",URL="$dd/df4/chameleon-constdef_8h_source.html"];
  Node27 -> Node25 [color="midnightblue",fontsize="10",style="solid",fontname="Helvetica"];
  Node21 -> Node19 [color="midnightblue",fontsize="10",style="solid",fontname="Helvetica"];
  Node0 -> Node29 [color="midnightblue",fontsize="10",style="solid",fontname="Helvetica"];
  Node29 [label="include/examples/rime\l/example-broadcast-object.h",height=0.2,width=0.4,color="black", fillcolor="white", style="filled",URL="$d5/d57/example-broadcast-object_8h_source.html"];
}
