digraph "phase_queueitem"
{
  edge [fontname="Helvetica",fontsize="10",labelfontname="Helvetica",labelfontsize="10"];
  node [fontname="Helvetica",fontsize="10",shape=record];
  Node1 [label="phase_queueitem",height=0.2,width=0.4,color="black", fillcolor="grey75", style="filled", fontcolor="black"];
  Node2 -> Node1 [dir="back",color="darkorchid3",fontsize="10",style="dashed",label=" timer" ,fontname="Helvetica"];
  Node2 [label="ctimer",height=0.2,width=0.4,color="black", fillcolor="white", style="filled",URL="$d5/d89/structctimer.html"];
  Node2 -> Node2 [dir="back",color="darkorchid3",fontsize="10",style="dashed",label=" next" ,fontname="Helvetica"];
  Node3 -> Node2 [dir="back",color="darkorchid3",fontsize="10",style="dashed",label=" p" ,fontname="Helvetica"];
  Node3 [label="process",height=0.2,width=0.4,color="black", fillcolor="white", style="filled",URL="$d8/d20/structprocess.html"];
  Node4 -> Node3 [dir="back",color="darkorchid3",fontsize="10",style="dashed",label=" pt" ,fontname="Helvetica"];
  Node4 [label="pt",height=0.2,width=0.4,color="black", fillcolor="white", style="filled",URL="$d7/d11/structpt.html"];
  Node3 -> Node3 [dir="back",color="darkorchid3",fontsize="10",style="dashed",label=" next" ,fontname="Helvetica"];
  Node5 -> Node2 [dir="back",color="darkorchid3",fontsize="10",style="dashed",label=" etimer" ,fontname="Helvetica"];
  Node5 [label="etimer",height=0.2,width=0.4,color="black", fillcolor="white", style="filled",URL="$d2/d9d/structetimer.html"];
  Node3 -> Node5 [dir="back",color="darkorchid3",fontsize="10",style="dashed",label=" p" ,fontname="Helvetica"];
  Node6 -> Node5 [dir="back",color="darkorchid3",fontsize="10",style="dashed",label=" timer" ,fontname="Helvetica"];
  Node6 [label="timer",height=0.2,width=0.4,color="black", fillcolor="white", style="filled",URL="$d4/d93/structtimer.html"];
  Node5 -> Node5 [dir="back",color="darkorchid3",fontsize="10",style="dashed",label=" next" ,fontname="Helvetica"];
  Node7 -> Node1 [dir="back",color="darkorchid3",fontsize="10",style="dashed",label=" buf_list" ,fontname="Helvetica"];
  Node7 [label="rdc_buf_list",height=0.2,width=0.4,color="black", fillcolor="white", style="filled",URL="$db/dff/structrdc__buf__list.html"];
  Node7 -> Node7 [dir="back",color="darkorchid3",fontsize="10",style="dashed",label=" next" ,fontname="Helvetica"];
  Node8 -> Node7 [dir="back",color="darkorchid3",fontsize="10",style="dashed",label=" buf" ,fontname="Helvetica"];
  Node8 [label="queuebuf",height=0.2,width=0.4,color="black", fillcolor="white", style="filled",URL="$db/d80/structqueuebuf.html"];
  Node9 -> Node8 [dir="back",color="darkorchid3",fontsize="10",style="dashed",label=" ram_ptr" ,fontname="Helvetica"];
  Node9 [label="queuebuf_data",height=0.2,width=0.4,color="black", fillcolor="white", style="filled",URL="$d8/d42/structqueuebuf__data.html"];
  Node10 -> Node9 [dir="back",color="darkorchid3",fontsize="10",style="dashed",label=" addrs" ,fontname="Helvetica"];
  Node10 [label="packetbuf_addr",height=0.2,width=0.4,color="black", fillcolor="white", style="filled",URL="$dc/d94/structpacketbuf__addr.html"];
  Node11 -> Node10 [dir="back",color="darkorchid3",fontsize="10",style="dashed",label=" addr" ,fontname="Helvetica"];
  Node11 [label="rimeaddr_t",height=0.2,width=0.4,color="black", fillcolor="white", style="filled",URL="$d1/dff/unionrimeaddr__t.html"];
  Node12 -> Node9 [dir="back",color="darkorchid3",fontsize="10",style="dashed",label=" attrs" ,fontname="Helvetica"];
  Node12 [label="packetbuf_attr",height=0.2,width=0.4,color="black", fillcolor="white", style="filled",URL="$de/de3/structpacketbuf__attr.html"];
  Node8 -> Node1 [dir="back",color="darkorchid3",fontsize="10",style="dashed",label=" q" ,fontname="Helvetica"];
}
