digraph "src/dynamic/include/hil/lib/loader/elfloader.h"
{
  edge [fontname="Helvetica",fontsize="10",labelfontname="Helvetica",labelfontsize="10"];
  node [fontname="Helvetica",fontsize="10",shape=record];
  Node0 [label="src/dynamic/include\l/hil/lib/loader/elfloader.h",height=0.2,width=0.4,color="black", fillcolor="grey75", style="filled", fontcolor="black"];
  Node0 -> Node1 [color="midnightblue",fontsize="10",style="solid",fontname="Helvetica"];
  Node1 [label="kernel.h",height=0.2,width=0.4,color="grey75", fillcolor="white", style="filled"];
  Node0 -> Node2 [color="midnightblue",fontsize="10",style="solid",fontname="Helvetica"];
  Node2 [label="elfloader-constdef.h",height=0.2,width=0.4,color="black", fillcolor="white", style="filled",URL="$d3/d11/elfloader-constdef_8h_source.html"];
  Node0 -> Node3 [color="midnightblue",fontsize="10",style="solid",fontname="Helvetica"];
  Node3 [label="include/system/hil\l/lib/cfs/cfs.h",height=0.2,width=0.4,color="grey75", fillcolor="white", style="filled"];
}
