digraph "multihop_conn"
{
  edge [fontname="Helvetica",fontsize="10",labelfontname="Helvetica",labelfontsize="10"];
  node [fontname="Helvetica",fontsize="10",shape=record];
  Node1 [label="multihop_conn",height=0.2,width=0.4,color="black", fillcolor="grey75", style="filled", fontcolor="black"];
  Node2 -> Node1 [dir="back",color="darkorchid3",fontsize="10",style="dashed",label=" cb" ,fontname="Helvetica"];
  Node2 [label="multihop_callbacks",height=0.2,width=0.4,color="black", fillcolor="white", style="filled",URL="$dc/d10/structmultihop__callbacks.html"];
  Node3 -> Node2 [dir="back",color="darkorchid3",fontsize="10",style="dashed",label=" forward" ,fontname="Helvetica"];
  Node3 [label="rimeaddr_t",height=0.2,width=0.4,color="black", fillcolor="white", style="filled",URL="$d1/dff/unionrimeaddr__t.html"];
  Node4 -> Node1 [dir="back",color="darkorchid3",fontsize="10",style="dashed",label=" c" ,fontname="Helvetica"];
  Node4 [label="unicast_conn",height=0.2,width=0.4,color="black", fillcolor="white", style="filled",URL="$dd/d6d/structunicast__conn.html"];
  Node5 -> Node4 [dir="back",color="darkorchid3",fontsize="10",style="dashed",label=" c" ,fontname="Helvetica"];
  Node5 [label="broadcast_conn",height=0.2,width=0.4,color="black", fillcolor="white", style="filled",URL="$d4/d0b/structbroadcast__conn.html"];
  Node6 -> Node5 [dir="back",color="darkorchid3",fontsize="10",style="dashed",label=" u" ,fontname="Helvetica"];
  Node6 [label="broadcast_callbacks",height=0.2,width=0.4,color="black", fillcolor="white", style="filled",URL="$de/dc5/structbroadcast__callbacks.html",tooltip="Callback structure for broadcast. "];
  Node7 -> Node5 [dir="back",color="darkorchid3",fontsize="10",style="dashed",label=" c" ,fontname="Helvetica"];
  Node7 [label="abc_conn",height=0.2,width=0.4,color="black", fillcolor="white", style="filled",URL="$df/dbe/structabc__conn.html"];
  Node8 -> Node7 [dir="back",color="darkorchid3",fontsize="10",style="dashed",label=" channel" ,fontname="Helvetica"];
  Node8 [label="channel",height=0.2,width=0.4,color="black", fillcolor="white", style="filled",URL="$d4/d84/structchannel.html"];
  Node9 -> Node8 [dir="back",color="darkorchid3",fontsize="10",style="dashed",label=" attrlist" ,fontname="Helvetica"];
  Node9 [label="packetbuf_attrlist",height=0.2,width=0.4,color="black", fillcolor="white", style="filled",URL="$d0/da9/structpacketbuf__attrlist.html"];
  Node8 -> Node8 [dir="back",color="darkorchid3",fontsize="10",style="dashed",label=" next" ,fontname="Helvetica"];
  Node10 -> Node7 [dir="back",color="darkorchid3",fontsize="10",style="dashed",label=" u" ,fontname="Helvetica"];
  Node10 [label="abc_callbacks",height=0.2,width=0.4,color="black", fillcolor="white", style="filled",URL="$de/db0/structabc__callbacks.html",tooltip="Callback structure for abc. "];
  Node11 -> Node4 [dir="back",color="darkorchid3",fontsize="10",style="dashed",label=" u" ,fontname="Helvetica"];
  Node11 [label="unicast_callbacks",height=0.2,width=0.4,color="black", fillcolor="white", style="filled",URL="$dc/db4/structunicast__callbacks.html"];
}
