digraph "packetbuf_addr"
{
  edge [fontname="Helvetica",fontsize="10",labelfontname="Helvetica",labelfontsize="10"];
  node [fontname="Helvetica",fontsize="10",shape=record];
  Node1 [label="packetbuf_addr",height=0.2,width=0.4,color="black", fillcolor="grey75", style="filled", fontcolor="black"];
  Node2 -> Node1 [dir="back",color="darkorchid3",fontsize="10",style="dashed",label=" addr" ,fontname="Helvetica"];
  Node2 [label="rimeaddr_t",height=0.2,width=0.4,color="black", fillcolor="white", style="filled",URL="$d1/dff/unionrimeaddr__t.html"];
}
